"Pressure","Points:0","Points:1","Points:2"
2.08183e+00,0.00000e+00,5.00000e-01,0.00000e+00
2.08183e+00,1.00000e-03,5.00400e-01,0.00000e+00
2.08183e+00,2.00000e-03,5.00800e-01,0.00000e+00
2.08183e+00,3.00000e-03,5.01200e-01,0.00000e+00
2.08183e+00,4.00000e-03,5.01600e-01,0.00000e+00
2.08183e+00,5.00000e-03,5.02000e-01,0.00000e+00
2.08183e+00,6.00000e-03,5.02400e-01,0.00000e+00
2.08183e+00,7.00000e-03,5.02800e-01,0.00000e+00
2.08183e+00,8.00000e-03,5.03200e-01,0.00000e+00
2.08183e+00,9.00000e-03,5.03600e-01,0.00000e+00
2.08183e+00,1.00000e-02,5.04000e-01,0.00000e+00
2.08183e+00,1.10000e-02,5.04400e-01,0.00000e+00
2.08183e+00,1.20000e-02,5.04800e-01,0.00000e+00
2.08183e+00,1.30000e-02,5.05200e-01,0.00000e+00
2.08182e+00,1.40000e-02,5.05600e-01,0.00000e+00
2.08182e+00,1.50000e-02,5.06000e-01,0.00000e+00
2.08182e+00,1.60000e-02,5.06400e-01,0.00000e+00
2.08182e+00,1.70000e-02,5.06800e-01,0.00000e+00
2.08182e+00,1.80000e-02,5.07200e-01,0.00000e+00
2.08182e+00,1.90000e-02,5.07600e-01,0.00000e+00
2.08182e+00,2.00000e-02,5.08000e-01,0.00000e+00
2.08182e+00,2.10000e-02,5.08400e-01,0.00000e+00
2.08182e+00,2.20000e-02,5.08800e-01,0.00000e+00
2.08182e+00,2.30000e-02,5.09200e-01,0.00000e+00
2.08182e+00,2.40000e-02,5.09600e-01,0.00000e+00
2.08182e+00,2.50000e-02,5.10000e-01,0.00000e+00
2.08182e+00,2.60000e-02,5.10400e-01,0.00000e+00
2.08182e+00,2.70000e-02,5.10800e-01,0.00000e+00
2.08182e+00,2.80000e-02,5.11200e-01,0.00000e+00
2.08182e+00,2.90000e-02,5.11600e-01,0.00000e+00
2.08182e+00,3.00000e-02,5.12000e-01,0.00000e+00
2.08182e+00,3.10000e-02,5.12400e-01,0.00000e+00
2.08182e+00,3.20000e-02,5.12800e-01,0.00000e+00
2.08182e+00,3.30000e-02,5.13200e-01,0.00000e+00
2.08182e+00,3.40000e-02,5.13600e-01,0.00000e+00
2.08182e+00,3.50000e-02,5.14000e-01,0.00000e+00
2.08182e+00,3.60000e-02,5.14400e-01,0.00000e+00
2.08182e+00,3.70000e-02,5.14800e-01,0.00000e+00
2.08182e+00,3.80000e-02,5.15200e-01,0.00000e+00
2.08182e+00,3.90000e-02,5.15600e-01,0.00000e+00
2.08182e+00,4.00000e-02,5.16000e-01,0.00000e+00
2.08218e+00,4.10000e-02,5.16400e-01,0.00000e+00
2.08218e+00,4.20000e-02,5.16800e-01,0.00000e+00
2.08218e+00,4.30000e-02,5.17200e-01,0.00000e+00
2.08218e+00,4.40000e-02,5.17600e-01,0.00000e+00
2.08218e+00,4.50000e-02,5.18000e-01,0.00000e+00
2.08218e+00,4.60000e-02,5.18400e-01,0.00000e+00
2.08218e+00,4.70000e-02,5.18800e-01,0.00000e+00
2.08218e+00,4.80000e-02,5.19200e-01,0.00000e+00
2.08218e+00,4.90000e-02,5.19600e-01,0.00000e+00
2.08218e+00,5.00000e-02,5.20000e-01,0.00000e+00
2.08218e+00,5.10000e-02,5.20400e-01,0.00000e+00
2.08218e+00,5.20000e-02,5.20800e-01,0.00000e+00
2.08218e+00,5.30000e-02,5.21200e-01,0.00000e+00
2.08218e+00,5.40000e-02,5.21600e-01,0.00000e+00
2.08218e+00,5.50000e-02,5.22000e-01,0.00000e+00
2.08218e+00,5.60000e-02,5.22400e-01,0.00000e+00
2.08218e+00,5.70000e-02,5.22800e-01,0.00000e+00
2.08218e+00,5.80000e-02,5.23200e-01,0.00000e+00
2.08218e+00,5.90000e-02,5.23600e-01,0.00000e+00
2.08218e+00,6.00000e-02,5.24000e-01,0.00000e+00
2.08218e+00,6.10000e-02,5.24400e-01,0.00000e+00
2.08218e+00,6.20000e-02,5.24800e-01,0.00000e+00
2.08218e+00,6.30000e-02,5.25200e-01,0.00000e+00
2.08218e+00,6.40000e-02,5.25600e-01,0.00000e+00
2.08218e+00,6.50000e-02,5.26000e-01,0.00000e+00
2.08218e+00,6.60000e-02,5.26400e-01,0.00000e+00
2.08218e+00,6.70000e-02,5.26800e-01,0.00000e+00
2.16373e+00,6.80000e-02,5.27200e-01,0.00000e+00
2.16373e+00,6.90000e-02,5.27600e-01,0.00000e+00
2.16373e+00,7.00000e-02,5.28000e-01,0.00000e+00
2.16373e+00,7.10000e-02,5.28400e-01,0.00000e+00
2.16373e+00,7.20000e-02,5.28800e-01,0.00000e+00
2.16373e+00,7.30000e-02,5.29200e-01,0.00000e+00
2.16373e+00,7.40000e-02,5.29600e-01,0.00000e+00
2.16373e+00,7.50000e-02,5.30000e-01,0.00000e+00
2.16373e+00,7.60000e-02,5.30400e-01,0.00000e+00
2.16373e+00,7.70000e-02,5.30800e-01,0.00000e+00
2.16373e+00,7.80000e-02,5.31200e-01,0.00000e+00
2.16373e+00,7.90000e-02,5.31600e-01,0.00000e+00
2.16373e+00,8.00000e-02,5.32000e-01,0.00000e+00
2.16373e+00,8.10000e-02,5.32400e-01,0.00000e+00
2.16373e+00,8.20000e-02,5.32800e-01,0.00000e+00
2.16373e+00,8.30000e-02,5.33200e-01,0.00000e+00
2.16373e+00,8.40000e-02,5.33600e-01,0.00000e+00
2.16373e+00,8.50000e-02,5.34000e-01,0.00000e+00
2.16373e+00,8.60000e-02,5.34400e-01,0.00000e+00
2.16373e+00,8.70000e-02,5.34800e-01,0.00000e+00
2.16373e+00,8.80000e-02,5.35200e-01,0.00000e+00
2.16373e+00,8.90000e-02,5.35600e-01,0.00000e+00
2.16373e+00,9.00000e-02,5.36000e-01,0.00000e+00
2.16373e+00,9.10000e-02,5.36400e-01,0.00000e+00
2.16373e+00,9.20000e-02,5.36800e-01,0.00000e+00
2.16373e+00,9.30000e-02,5.37200e-01,0.00000e+00
2.16373e+00,9.40000e-02,5.37600e-01,0.00000e+00
2.15675e+00,9.50000e-02,5.38000e-01,0.00000e+00
2.15675e+00,9.60000e-02,5.38400e-01,0.00000e+00
2.15675e+00,9.70000e-02,5.38800e-01,0.00000e+00
2.15675e+00,9.80000e-02,5.39200e-01,0.00000e+00
2.15675e+00,9.90000e-02,5.39600e-01,0.00000e+00
2.15675e+00,1.00000e-01,5.40000e-01,0.00000e+00
2.15675e+00,1.01000e-01,5.40400e-01,0.00000e+00
2.15675e+00,1.02000e-01,5.40800e-01,0.00000e+00
2.15675e+00,1.03000e-01,5.41200e-01,0.00000e+00
2.15675e+00,1.04000e-01,5.41600e-01,0.00000e+00
2.15675e+00,1.05000e-01,5.42000e-01,0.00000e+00
2.15675e+00,1.06000e-01,5.42400e-01,0.00000e+00
2.15675e+00,1.07000e-01,5.42800e-01,0.00000e+00
2.15675e+00,1.08000e-01,5.43200e-01,0.00000e+00
2.15675e+00,1.09000e-01,5.43600e-01,0.00000e+00
2.15675e+00,1.10000e-01,5.44000e-01,0.00000e+00
2.15675e+00,1.11000e-01,5.44400e-01,0.00000e+00
2.15675e+00,1.12000e-01,5.44800e-01,0.00000e+00
2.15675e+00,1.13000e-01,5.45200e-01,0.00000e+00
2.15675e+00,1.14000e-01,5.45600e-01,0.00000e+00
2.15675e+00,1.15000e-01,5.46000e-01,0.00000e+00
2.15675e+00,1.16000e-01,5.46400e-01,0.00000e+00
2.15675e+00,1.17000e-01,5.46800e-01,0.00000e+00
2.15675e+00,1.18000e-01,5.47200e-01,0.00000e+00
2.15675e+00,1.19000e-01,5.47600e-01,0.00000e+00
2.15675e+00,1.20000e-01,5.48000e-01,0.00000e+00
2.15675e+00,1.21000e-01,5.48400e-01,0.00000e+00
2.14845e+00,1.22000e-01,5.48800e-01,0.00000e+00
2.14845e+00,1.23000e-01,5.49200e-01,0.00000e+00
2.14845e+00,1.24000e-01,5.49600e-01,0.00000e+00
2.14845e+00,1.25000e-01,5.50000e-01,0.00000e+00
2.14845e+00,1.26000e-01,5.50400e-01,0.00000e+00
2.14845e+00,1.27000e-01,5.50800e-01,0.00000e+00
2.14845e+00,1.28000e-01,5.51200e-01,0.00000e+00
2.14845e+00,1.29000e-01,5.51600e-01,0.00000e+00
2.14845e+00,1.30000e-01,5.52000e-01,0.00000e+00
2.14845e+00,1.31000e-01,5.52400e-01,0.00000e+00
2.14845e+00,1.32000e-01,5.52800e-01,0.00000e+00
2.14845e+00,1.33000e-01,5.53200e-01,0.00000e+00
2.14845e+00,1.34000e-01,5.53600e-01,0.00000e+00
2.14845e+00,1.35000e-01,5.54000e-01,0.00000e+00
2.20827e+00,1.36000e-01,5.54400e-01,0.00000e+00
2.20827e+00,1.37000e-01,5.54800e-01,0.00000e+00
2.20827e+00,1.38000e-01,5.55200e-01,0.00000e+00
2.20827e+00,1.39000e-01,5.55600e-01,0.00000e+00
2.20827e+00,1.40000e-01,5.56000e-01,0.00000e+00
2.20827e+00,1.41000e-01,5.56400e-01,0.00000e+00
2.20827e+00,1.42000e-01,5.56800e-01,0.00000e+00
2.20827e+00,1.43000e-01,5.57200e-01,0.00000e+00
2.20827e+00,1.44000e-01,5.57600e-01,0.00000e+00
2.20827e+00,1.45000e-01,5.58000e-01,0.00000e+00
2.20827e+00,1.46000e-01,5.58400e-01,0.00000e+00
2.20827e+00,1.47000e-01,5.58800e-01,0.00000e+00
2.20827e+00,1.48000e-01,5.59200e-01,0.00000e+00
2.18607e+00,1.49000e-01,5.59600e-01,0.00000e+00
2.18607e+00,1.50000e-01,5.60000e-01,0.00000e+00
2.18607e+00,1.51000e-01,5.60400e-01,0.00000e+00
2.18607e+00,1.52000e-01,5.60800e-01,0.00000e+00
2.18607e+00,1.53000e-01,5.61200e-01,0.00000e+00
2.18607e+00,1.54000e-01,5.61600e-01,0.00000e+00
2.18607e+00,1.55000e-01,5.62000e-01,0.00000e+00
2.18607e+00,1.56000e-01,5.62400e-01,0.00000e+00
2.18607e+00,1.57000e-01,5.62800e-01,0.00000e+00
2.18607e+00,1.58000e-01,5.63200e-01,0.00000e+00
2.18607e+00,1.59000e-01,5.63600e-01,0.00000e+00
2.18607e+00,1.60000e-01,5.64000e-01,0.00000e+00
2.18607e+00,1.61000e-01,5.64400e-01,0.00000e+00
2.18607e+00,1.62000e-01,5.64800e-01,0.00000e+00
2.18607e+00,1.63000e-01,5.65200e-01,0.00000e+00
2.18607e+00,1.64000e-01,5.65600e-01,0.00000e+00
2.18607e+00,1.65000e-01,5.66000e-01,0.00000e+00
2.18607e+00,1.66000e-01,5.66400e-01,0.00000e+00
2.18607e+00,1.67000e-01,5.66800e-01,0.00000e+00
2.18607e+00,1.68000e-01,5.67200e-01,0.00000e+00
2.18607e+00,1.69000e-01,5.67600e-01,0.00000e+00
2.18607e+00,1.70000e-01,5.68000e-01,0.00000e+00
2.18607e+00,1.71000e-01,5.68400e-01,0.00000e+00
2.18607e+00,1.72000e-01,5.68800e-01,0.00000e+00
2.18607e+00,1.73000e-01,5.69200e-01,0.00000e+00
2.18607e+00,1.74000e-01,5.69600e-01,0.00000e+00
2.18607e+00,1.75000e-01,5.70000e-01,0.00000e+00
2.19876e+00,1.76000e-01,5.70400e-01,0.00000e+00
2.19876e+00,1.77000e-01,5.70800e-01,0.00000e+00
2.19876e+00,1.78000e-01,5.71200e-01,0.00000e+00
2.19876e+00,1.79000e-01,5.71600e-01,0.00000e+00
2.19876e+00,1.80000e-01,5.72000e-01,0.00000e+00
2.19876e+00,1.81000e-01,5.72400e-01,0.00000e+00
2.19876e+00,1.82000e-01,5.72800e-01,0.00000e+00
2.19876e+00,1.83000e-01,5.73200e-01,0.00000e+00
2.19876e+00,1.84000e-01,5.73600e-01,0.00000e+00
2.19876e+00,1.85000e-01,5.74000e-01,0.00000e+00
2.19876e+00,1.86000e-01,5.74400e-01,0.00000e+00
2.19876e+00,1.87000e-01,5.74800e-01,0.00000e+00
2.19876e+00,1.88000e-01,5.75200e-01,0.00000e+00
2.19876e+00,1.89000e-01,5.75600e-01,0.00000e+00
2.19876e+00,1.90000e-01,5.76000e-01,0.00000e+00
2.19876e+00,1.91000e-01,5.76400e-01,0.00000e+00
2.19876e+00,1.92000e-01,5.76800e-01,0.00000e+00
2.19876e+00,1.93000e-01,5.77200e-01,0.00000e+00
2.19876e+00,1.94000e-01,5.77600e-01,0.00000e+00
2.19876e+00,1.95000e-01,5.78000e-01,0.00000e+00
2.19876e+00,1.96000e-01,5.78400e-01,0.00000e+00
2.19876e+00,1.97000e-01,5.78800e-01,0.00000e+00
2.19876e+00,1.98000e-01,5.79200e-01,0.00000e+00
2.19876e+00,1.99000e-01,5.79600e-01,0.00000e+00
2.19876e+00,2.00000e-01,5.80000e-01,0.00000e+00
2.19876e+00,2.01000e-01,5.80400e-01,0.00000e+00
2.19876e+00,2.02000e-01,5.80800e-01,0.00000e+00
2.34965e+00,2.03000e-01,5.81200e-01,0.00000e+00
2.34965e+00,2.04000e-01,5.81600e-01,0.00000e+00
2.34965e+00,2.05000e-01,5.82000e-01,0.00000e+00
2.34965e+00,2.06000e-01,5.82400e-01,0.00000e+00
2.34965e+00,2.07000e-01,5.82800e-01,0.00000e+00
2.34965e+00,2.08000e-01,5.83200e-01,0.00000e+00
2.34965e+00,2.09000e-01,5.83600e-01,0.00000e+00
2.34965e+00,2.10000e-01,5.84000e-01,0.00000e+00
2.34965e+00,2.11000e-01,5.84400e-01,0.00000e+00
2.34965e+00,2.12000e-01,5.84800e-01,0.00000e+00
2.34965e+00,2.13000e-01,5.85200e-01,0.00000e+00
2.34965e+00,2.14000e-01,5.85600e-01,0.00000e+00
2.34965e+00,2.15000e-01,5.86000e-01,0.00000e+00
2.34965e+00,2.16000e-01,5.86400e-01,0.00000e+00
2.34965e+00,2.17000e-01,5.86800e-01,0.00000e+00
2.34965e+00,2.18000e-01,5.87200e-01,0.00000e+00
2.34965e+00,2.19000e-01,5.87600e-01,0.00000e+00
2.34965e+00,2.20000e-01,5.88000e-01,0.00000e+00
2.34965e+00,2.21000e-01,5.88400e-01,0.00000e+00
2.34965e+00,2.22000e-01,5.88800e-01,0.00000e+00
2.34965e+00,2.23000e-01,5.89200e-01,0.00000e+00
2.34965e+00,2.24000e-01,5.89600e-01,0.00000e+00
2.34965e+00,2.25000e-01,5.90000e-01,0.00000e+00
2.34965e+00,2.26000e-01,5.90400e-01,0.00000e+00
2.34965e+00,2.27000e-01,5.90800e-01,0.00000e+00
2.34965e+00,2.28000e-01,5.91200e-01,0.00000e+00
2.34965e+00,2.29000e-01,5.91600e-01,0.00000e+00
2.41012e+00,2.30000e-01,5.92000e-01,0.00000e+00
2.41012e+00,2.31000e-01,5.92400e-01,0.00000e+00
2.41012e+00,2.32000e-01,5.92800e-01,0.00000e+00
2.41012e+00,2.33000e-01,5.93200e-01,0.00000e+00
2.41012e+00,2.34000e-01,5.93600e-01,0.00000e+00
2.41012e+00,2.35000e-01,5.94000e-01,0.00000e+00
2.41012e+00,2.36000e-01,5.94400e-01,0.00000e+00
2.41012e+00,2.37000e-01,5.94800e-01,0.00000e+00
2.41012e+00,2.38000e-01,5.95200e-01,0.00000e+00
2.41012e+00,2.39000e-01,5.95600e-01,0.00000e+00
2.41012e+00,2.40000e-01,5.96000e-01,0.00000e+00
2.41012e+00,2.41000e-01,5.96400e-01,0.00000e+00
2.41012e+00,2.42000e-01,5.96800e-01,0.00000e+00
2.41012e+00,2.43000e-01,5.97200e-01,0.00000e+00
2.41012e+00,2.44000e-01,5.97600e-01,0.00000e+00
2.41012e+00,2.45000e-01,5.98000e-01,0.00000e+00
2.41012e+00,2.46000e-01,5.98400e-01,0.00000e+00
2.41012e+00,2.47000e-01,5.98800e-01,0.00000e+00
2.41012e+00,2.48000e-01,5.99200e-01,0.00000e+00
2.41012e+00,2.49000e-01,5.99600e-01,0.00000e+00
2.41012e+00,2.50000e-01,6.00000e-01,0.00000e+00
2.41012e+00,2.51000e-01,6.00400e-01,0.00000e+00
2.41012e+00,2.52000e-01,6.00800e-01,0.00000e+00
2.41012e+00,2.53000e-01,6.01200e-01,0.00000e+00
2.41012e+00,2.54000e-01,6.01600e-01,0.00000e+00
2.41012e+00,2.55000e-01,6.02000e-01,0.00000e+00
2.41012e+00,2.56000e-01,6.02400e-01,0.00000e+00
2.46049e+00,2.57000e-01,6.02800e-01,0.00000e+00
2.46049e+00,2.58000e-01,6.03200e-01,0.00000e+00
2.46049e+00,2.59000e-01,6.03600e-01,0.00000e+00
2.46049e+00,2.60000e-01,6.04000e-01,0.00000e+00
2.46049e+00,2.61000e-01,6.04400e-01,0.00000e+00
2.46049e+00,2.62000e-01,6.04800e-01,0.00000e+00
2.46049e+00,2.63000e-01,6.05200e-01,0.00000e+00
2.46049e+00,2.64000e-01,6.05600e-01,0.00000e+00
2.46049e+00,2.65000e-01,6.06000e-01,0.00000e+00
2.46049e+00,2.66000e-01,6.06400e-01,0.00000e+00
2.46049e+00,2.67000e-01,6.06800e-01,0.00000e+00
2.46049e+00,2.68000e-01,6.07200e-01,0.00000e+00
2.46049e+00,2.69000e-01,6.07600e-01,0.00000e+00
2.46049e+00,2.70000e-01,6.08000e-01,0.00000e+00
2.55609e+00,2.71000e-01,6.08400e-01,0.00000e+00
2.55609e+00,2.72000e-01,6.08800e-01,0.00000e+00
2.55609e+00,2.73000e-01,6.09200e-01,0.00000e+00
2.55609e+00,2.74000e-01,6.09600e-01,0.00000e+00
2.55609e+00,2.75000e-01,6.10000e-01,0.00000e+00
2.55609e+00,2.76000e-01,6.10400e-01,0.00000e+00
2.55609e+00,2.77000e-01,6.10800e-01,0.00000e+00
2.55609e+00,2.78000e-01,6.11200e-01,0.00000e+00
2.55609e+00,2.79000e-01,6.11600e-01,0.00000e+00
2.55609e+00,2.80000e-01,6.12000e-01,0.00000e+00
2.55609e+00,2.81000e-01,6.12400e-01,0.00000e+00
2.55609e+00,2.82000e-01,6.12800e-01,0.00000e+00
2.55609e+00,2.83000e-01,6.13200e-01,0.00000e+00
2.59533e+00,2.84000e-01,6.13600e-01,0.00000e+00
2.59533e+00,2.85000e-01,6.14000e-01,0.00000e+00
2.59533e+00,2.86000e-01,6.14400e-01,0.00000e+00
2.59533e+00,2.87000e-01,6.14800e-01,0.00000e+00
2.59533e+00,2.88000e-01,6.15200e-01,0.00000e+00
2.59533e+00,2.89000e-01,6.15600e-01,0.00000e+00
2.59533e+00,2.90000e-01,6.16000e-01,0.00000e+00
2.59533e+00,2.91000e-01,6.16400e-01,0.00000e+00
2.59533e+00,2.92000e-01,6.16800e-01,0.00000e+00
2.59533e+00,2.93000e-01,6.17200e-01,0.00000e+00
2.59533e+00,2.94000e-01,6.17600e-01,0.00000e+00
2.59533e+00,2.95000e-01,6.18000e-01,0.00000e+00
2.59533e+00,2.96000e-01,6.18400e-01,0.00000e+00
2.59533e+00,2.97000e-01,6.18800e-01,0.00000e+00
2.59533e+00,2.98000e-01,6.19200e-01,0.00000e+00
2.59533e+00,2.99000e-01,6.19600e-01,0.00000e+00
2.59533e+00,3.00000e-01,6.20000e-01,0.00000e+00
2.59533e+00,3.01000e-01,6.20400e-01,0.00000e+00
2.59533e+00,3.02000e-01,6.20800e-01,0.00000e+00
2.59533e+00,3.03000e-01,6.21200e-01,0.00000e+00
2.59533e+00,3.04000e-01,6.21600e-01,0.00000e+00
2.59533e+00,3.05000e-01,6.22000e-01,0.00000e+00
2.59533e+00,3.06000e-01,6.22400e-01,0.00000e+00
2.59533e+00,3.07000e-01,6.22800e-01,0.00000e+00
2.59533e+00,3.08000e-01,6.23200e-01,0.00000e+00
2.59533e+00,3.09000e-01,6.23600e-01,0.00000e+00
2.59533e+00,3.10000e-01,6.24000e-01,0.00000e+00
2.62992e+00,3.11000e-01,6.24400e-01,0.00000e+00
2.62992e+00,3.12000e-01,6.24800e-01,0.00000e+00
2.62992e+00,3.13000e-01,6.25200e-01,0.00000e+00
2.62992e+00,3.14000e-01,6.25600e-01,0.00000e+00
2.62992e+00,3.15000e-01,6.26000e-01,0.00000e+00
2.62992e+00,3.16000e-01,6.26400e-01,0.00000e+00
2.62992e+00,3.17000e-01,6.26800e-01,0.00000e+00
2.62992e+00,3.18000e-01,6.27200e-01,0.00000e+00
2.62992e+00,3.19000e-01,6.27600e-01,0.00000e+00
2.62992e+00,3.20000e-01,6.28000e-01,0.00000e+00
2.62992e+00,3.21000e-01,6.28400e-01,0.00000e+00
2.62992e+00,3.22000e-01,6.28800e-01,0.00000e+00
2.62992e+00,3.23000e-01,6.29200e-01,0.00000e+00
2.62992e+00,3.24000e-01,6.29600e-01,0.00000e+00
2.62992e+00,3.25000e-01,6.30000e-01,0.00000e+00
2.62992e+00,3.26000e-01,6.30400e-01,0.00000e+00
2.62992e+00,3.27000e-01,6.30800e-01,0.00000e+00
2.62992e+00,3.28000e-01,6.31200e-01,0.00000e+00
2.62992e+00,3.29000e-01,6.31600e-01,0.00000e+00
2.62992e+00,3.30000e-01,6.32000e-01,0.00000e+00
2.62992e+00,3.31000e-01,6.32400e-01,0.00000e+00
2.62992e+00,3.32000e-01,6.32800e-01,0.00000e+00
2.62992e+00,3.33000e-01,6.33200e-01,0.00000e+00
2.62992e+00,3.34000e-01,6.33600e-01,0.00000e+00
2.62992e+00,3.35000e-01,6.34000e-01,0.00000e+00
2.62992e+00,3.36000e-01,6.34400e-01,0.00000e+00
2.62992e+00,3.37000e-01,6.34800e-01,0.00000e+00
2.75052e+00,3.38000e-01,6.35200e-01,0.00000e+00
2.75052e+00,3.39000e-01,6.35600e-01,0.00000e+00
2.75052e+00,3.40000e-01,6.36000e-01,0.00000e+00
2.75052e+00,3.41000e-01,6.36400e-01,0.00000e+00
2.75052e+00,3.42000e-01,6.36800e-01,0.00000e+00
2.75052e+00,3.43000e-01,6.37200e-01,0.00000e+00
2.75052e+00,3.44000e-01,6.37600e-01,0.00000e+00
2.75052e+00,3.45000e-01,6.38000e-01,0.00000e+00
2.75052e+00,3.46000e-01,6.38400e-01,0.00000e+00
2.75052e+00,3.47000e-01,6.38800e-01,0.00000e+00
2.75052e+00,3.48000e-01,6.39200e-01,0.00000e+00
2.75052e+00,3.49000e-01,6.39600e-01,0.00000e+00
2.75052e+00,3.50000e-01,6.40000e-01,0.00000e+00
2.75052e+00,3.51000e-01,6.40400e-01,0.00000e+00
2.75052e+00,3.52000e-01,6.40800e-01,0.00000e+00
2.75052e+00,3.53000e-01,6.41200e-01,0.00000e+00
2.75052e+00,3.54000e-01,6.41600e-01,0.00000e+00
2.75052e+00,3.55000e-01,6.42000e-01,0.00000e+00
2.75052e+00,3.56000e-01,6.42400e-01,0.00000e+00
2.75052e+00,3.57000e-01,6.42800e-01,0.00000e+00
2.75052e+00,3.58000e-01,6.43200e-01,0.00000e+00
2.75052e+00,3.59000e-01,6.43600e-01,0.00000e+00
2.75052e+00,3.60000e-01,6.44000e-01,0.00000e+00
2.75052e+00,3.61000e-01,6.44400e-01,0.00000e+00
2.75052e+00,3.62000e-01,6.44800e-01,0.00000e+00
2.75052e+00,3.63000e-01,6.45200e-01,0.00000e+00
2.75052e+00,3.64000e-01,6.45600e-01,0.00000e+00
2.77654e+00,3.65000e-01,6.46000e-01,0.00000e+00
2.77654e+00,3.66000e-01,6.46400e-01,0.00000e+00
2.77654e+00,3.67000e-01,6.46800e-01,0.00000e+00
2.77654e+00,3.68000e-01,6.47200e-01,0.00000e+00
2.77654e+00,3.69000e-01,6.47600e-01,0.00000e+00
2.77654e+00,3.70000e-01,6.48000e-01,0.00000e+00
2.77654e+00,3.71000e-01,6.48400e-01,0.00000e+00
2.77654e+00,3.72000e-01,6.48800e-01,0.00000e+00
2.77654e+00,3.73000e-01,6.49200e-01,0.00000e+00
2.77654e+00,3.74000e-01,6.49600e-01,0.00000e+00
2.77654e+00,3.75000e-01,6.50000e-01,0.00000e+00
2.77654e+00,3.76000e-01,6.50400e-01,0.00000e+00
2.77654e+00,3.77000e-01,6.50800e-01,0.00000e+00
2.77654e+00,3.78000e-01,6.51200e-01,0.00000e+00
2.77654e+00,3.79000e-01,6.51600e-01,0.00000e+00
2.77654e+00,3.80000e-01,6.52000e-01,0.00000e+00
2.77654e+00,3.81000e-01,6.52400e-01,0.00000e+00
2.77654e+00,3.82000e-01,6.52800e-01,0.00000e+00
2.77654e+00,3.83000e-01,6.53200e-01,0.00000e+00
2.77654e+00,3.84000e-01,6.53600e-01,0.00000e+00
2.77654e+00,3.85000e-01,6.54000e-01,0.00000e+00
2.77654e+00,3.86000e-01,6.54400e-01,0.00000e+00
2.77654e+00,3.87000e-01,6.54800e-01,0.00000e+00
2.77654e+00,3.88000e-01,6.55200e-01,0.00000e+00
2.77654e+00,3.89000e-01,6.55600e-01,0.00000e+00
2.77654e+00,3.90000e-01,6.56000e-01,0.00000e+00
2.77654e+00,3.91000e-01,6.56400e-01,0.00000e+00
2.80100e+00,3.92000e-01,6.56800e-01,0.00000e+00
2.80100e+00,3.93000e-01,6.57200e-01,0.00000e+00
2.80100e+00,3.94000e-01,6.57600e-01,0.00000e+00
2.80100e+00,3.95000e-01,6.58000e-01,0.00000e+00
2.80100e+00,3.96000e-01,6.58400e-01,0.00000e+00
2.80100e+00,3.97000e-01,6.58800e-01,0.00000e+00
2.80100e+00,3.98000e-01,6.59200e-01,0.00000e+00
2.80100e+00,3.99000e-01,6.59600e-01,0.00000e+00
2.80100e+00,4.00000e-01,6.60000e-01,0.00000e+00
2.80100e+00,4.01000e-01,6.60400e-01,0.00000e+00
2.80100e+00,4.02000e-01,6.60800e-01,0.00000e+00
2.80100e+00,4.03000e-01,6.61200e-01,0.00000e+00
2.80100e+00,4.04000e-01,6.61600e-01,0.00000e+00
2.80100e+00,4.05000e-01,6.62000e-01,0.00000e+00
2.88802e+00,4.06000e-01,6.62400e-01,0.00000e+00
2.88802e+00,4.07000e-01,6.62800e-01,0.00000e+00
2.88802e+00,4.08000e-01,6.63200e-01,0.00000e+00
2.88802e+00,4.09000e-01,6.63600e-01,0.00000e+00
2.88802e+00,4.10000e-01,6.64000e-01,0.00000e+00
2.88802e+00,4.11000e-01,6.64400e-01,0.00000e+00
2.88802e+00,4.12000e-01,6.64800e-01,0.00000e+00
2.88802e+00,4.13000e-01,6.65200e-01,0.00000e+00
2.88802e+00,4.14000e-01,6.65600e-01,0.00000e+00
2.88802e+00,4.15000e-01,6.66000e-01,0.00000e+00
2.88802e+00,4.16000e-01,6.66400e-01,0.00000e+00
2.88802e+00,4.17000e-01,6.66800e-01,0.00000e+00
2.88802e+00,4.18000e-01,6.67200e-01,0.00000e+00
2.90999e+00,4.19000e-01,6.67600e-01,0.00000e+00
2.90999e+00,4.20000e-01,6.68000e-01,0.00000e+00
2.90999e+00,4.21000e-01,6.68400e-01,0.00000e+00
2.90999e+00,4.22000e-01,6.68800e-01,0.00000e+00
2.90999e+00,4.23000e-01,6.69200e-01,0.00000e+00
2.90999e+00,4.24000e-01,6.69600e-01,0.00000e+00
2.90999e+00,4.25000e-01,6.70000e-01,0.00000e+00
2.90999e+00,4.26000e-01,6.70400e-01,0.00000e+00
2.90999e+00,4.27000e-01,6.70800e-01,0.00000e+00
2.90999e+00,4.28000e-01,6.71200e-01,0.00000e+00
2.90999e+00,4.29000e-01,6.71600e-01,0.00000e+00
2.90999e+00,4.30000e-01,6.72000e-01,0.00000e+00
2.90999e+00,4.31000e-01,6.72400e-01,0.00000e+00
2.90999e+00,4.32000e-01,6.72800e-01,0.00000e+00
2.90999e+00,4.33000e-01,6.73200e-01,0.00000e+00
2.90999e+00,4.34000e-01,6.73600e-01,0.00000e+00
2.90999e+00,4.35000e-01,6.74000e-01,0.00000e+00
2.90999e+00,4.36000e-01,6.74400e-01,0.00000e+00
2.90999e+00,4.37000e-01,6.74800e-01,0.00000e+00
2.90999e+00,4.38000e-01,6.75200e-01,0.00000e+00
2.90999e+00,4.39000e-01,6.75600e-01,0.00000e+00
2.90999e+00,4.40000e-01,6.76000e-01,0.00000e+00
2.90999e+00,4.41000e-01,6.76400e-01,0.00000e+00
2.90999e+00,4.42000e-01,6.76800e-01,0.00000e+00
2.90999e+00,4.43000e-01,6.77200e-01,0.00000e+00
2.90999e+00,4.44000e-01,6.77600e-01,0.00000e+00
2.90999e+00,4.45000e-01,6.78000e-01,0.00000e+00
2.93163e+00,4.46000e-01,6.78400e-01,0.00000e+00
2.93163e+00,4.47000e-01,6.78800e-01,0.00000e+00
2.93163e+00,4.48000e-01,6.79200e-01,0.00000e+00
2.93163e+00,4.49000e-01,6.79600e-01,0.00000e+00
2.93163e+00,4.50000e-01,6.80000e-01,0.00000e+00
2.93163e+00,4.51000e-01,6.80400e-01,0.00000e+00
2.93163e+00,4.52000e-01,6.80800e-01,0.00000e+00
2.93163e+00,4.53000e-01,6.81200e-01,0.00000e+00
2.93163e+00,4.54000e-01,6.81600e-01,0.00000e+00
2.93163e+00,4.55000e-01,6.82000e-01,0.00000e+00
2.93163e+00,4.56000e-01,6.82400e-01,0.00000e+00
2.93163e+00,4.57000e-01,6.82800e-01,0.00000e+00
2.93163e+00,4.58000e-01,6.83200e-01,0.00000e+00
2.93163e+00,4.59000e-01,6.83600e-01,0.00000e+00
2.93163e+00,4.60000e-01,6.84000e-01,0.00000e+00
2.93163e+00,4.61000e-01,6.84400e-01,0.00000e+00
2.93163e+00,4.62000e-01,6.84800e-01,0.00000e+00
2.93163e+00,4.63000e-01,6.85200e-01,0.00000e+00
2.93163e+00,4.64000e-01,6.85600e-01,0.00000e+00
2.93163e+00,4.65000e-01,6.86000e-01,0.00000e+00
2.93163e+00,4.66000e-01,6.86400e-01,0.00000e+00
2.93163e+00,4.67000e-01,6.86800e-01,0.00000e+00
2.93163e+00,4.68000e-01,6.87200e-01,0.00000e+00
2.93163e+00,4.69000e-01,6.87600e-01,0.00000e+00
2.93163e+00,4.70000e-01,6.88000e-01,0.00000e+00
2.93163e+00,4.71000e-01,6.88400e-01,0.00000e+00
2.93163e+00,4.72000e-01,6.88800e-01,0.00000e+00
3.03770e+00,4.73000e-01,6.89200e-01,0.00000e+00
3.03770e+00,4.74000e-01,6.89600e-01,0.00000e+00
3.03770e+00,4.75000e-01,6.90000e-01,0.00000e+00
3.03770e+00,4.76000e-01,6.90400e-01,0.00000e+00
3.03770e+00,4.77000e-01,6.90800e-01,0.00000e+00
3.03770e+00,4.78000e-01,6.91200e-01,0.00000e+00
3.03770e+00,4.79000e-01,6.91600e-01,0.00000e+00
3.03770e+00,4.80000e-01,6.92000e-01,0.00000e+00
3.03770e+00,4.81000e-01,6.92400e-01,0.00000e+00
3.03770e+00,4.82000e-01,6.92800e-01,0.00000e+00
3.03770e+00,4.83000e-01,6.93200e-01,0.00000e+00
3.03770e+00,4.84000e-01,6.93600e-01,0.00000e+00
3.03770e+00,4.85000e-01,6.94000e-01,0.00000e+00
3.03770e+00,4.86000e-01,6.94400e-01,0.00000e+00
3.03770e+00,4.87000e-01,6.94800e-01,0.00000e+00
3.03770e+00,4.88000e-01,6.95200e-01,0.00000e+00
3.03770e+00,4.89000e-01,6.95600e-01,0.00000e+00
3.03770e+00,4.90000e-01,6.96000e-01,0.00000e+00
3.03770e+00,4.91000e-01,6.96400e-01,0.00000e+00
3.03770e+00,4.92000e-01,6.96800e-01,0.00000e+00
3.03770e+00,4.93000e-01,6.97200e-01,0.00000e+00
3.03770e+00,4.94000e-01,6.97600e-01,0.00000e+00
3.03770e+00,4.95000e-01,6.98000e-01,0.00000e+00
3.03770e+00,4.96000e-01,6.98400e-01,0.00000e+00
3.03770e+00,4.97000e-01,6.98800e-01,0.00000e+00
3.03770e+00,4.98000e-01,6.99200e-01,0.00000e+00
3.03770e+00,4.99000e-01,6.99600e-01,0.00000e+00
3.03770e+00,5.00000e-01,7.00000e-01,0.00000e+00
3.05919e+00,5.01000e-01,7.00400e-01,0.00000e+00
3.05919e+00,5.02000e-01,7.00800e-01,0.00000e+00
3.05919e+00,5.03000e-01,7.01200e-01,0.00000e+00
3.05919e+00,5.04000e-01,7.01600e-01,0.00000e+00
3.05919e+00,5.05000e-01,7.02000e-01,0.00000e+00
3.05919e+00,5.06000e-01,7.02400e-01,0.00000e+00
3.05919e+00,5.07000e-01,7.02800e-01,0.00000e+00
3.05919e+00,5.08000e-01,7.03200e-01,0.00000e+00
3.05919e+00,5.09000e-01,7.03600e-01,0.00000e+00
3.05919e+00,5.10000e-01,7.04000e-01,0.00000e+00
3.05919e+00,5.11000e-01,7.04400e-01,0.00000e+00
3.05919e+00,5.12000e-01,7.04800e-01,0.00000e+00
3.05919e+00,5.13000e-01,7.05200e-01,0.00000e+00
3.05919e+00,5.14000e-01,7.05600e-01,0.00000e+00
3.05919e+00,5.15000e-01,7.06000e-01,0.00000e+00
3.05919e+00,5.16000e-01,7.06400e-01,0.00000e+00
3.05919e+00,5.17000e-01,7.06800e-01,0.00000e+00
3.05919e+00,5.18000e-01,7.07200e-01,0.00000e+00
3.05919e+00,5.19000e-01,7.07600e-01,0.00000e+00
3.05919e+00,5.20000e-01,7.08000e-01,0.00000e+00
3.05919e+00,5.21000e-01,7.08400e-01,0.00000e+00
3.05919e+00,5.22000e-01,7.08800e-01,0.00000e+00
3.05919e+00,5.23000e-01,7.09200e-01,0.00000e+00
3.05919e+00,5.24000e-01,7.09600e-01,0.00000e+00
3.05919e+00,5.25000e-01,7.10000e-01,0.00000e+00
3.05919e+00,5.26000e-01,7.10400e-01,0.00000e+00
3.05919e+00,5.27000e-01,7.10800e-01,0.00000e+00
3.08120e+00,5.28000e-01,7.11200e-01,0.00000e+00
3.08120e+00,5.29000e-01,7.11600e-01,0.00000e+00
3.08120e+00,5.30000e-01,7.12000e-01,0.00000e+00
3.08120e+00,5.31000e-01,7.12400e-01,0.00000e+00
3.08120e+00,5.32000e-01,7.12800e-01,0.00000e+00
3.08120e+00,5.33000e-01,7.13200e-01,0.00000e+00
3.08120e+00,5.34000e-01,7.13600e-01,0.00000e+00
3.08120e+00,5.35000e-01,7.14000e-01,0.00000e+00
3.08120e+00,5.36000e-01,7.14400e-01,0.00000e+00
3.08120e+00,5.37000e-01,7.14800e-01,0.00000e+00
3.08120e+00,5.38000e-01,7.15200e-01,0.00000e+00
3.08120e+00,5.39000e-01,7.15600e-01,0.00000e+00
3.08120e+00,5.40000e-01,7.16000e-01,0.00000e+00
3.16547e+00,5.41000e-01,7.16400e-01,0.00000e+00
3.16547e+00,5.42000e-01,7.16800e-01,0.00000e+00
3.16547e+00,5.43000e-01,7.17200e-01,0.00000e+00
3.16547e+00,5.44000e-01,7.17600e-01,0.00000e+00
3.16547e+00,5.45000e-01,7.18000e-01,0.00000e+00
3.16547e+00,5.46000e-01,7.18400e-01,0.00000e+00
3.16547e+00,5.47000e-01,7.18800e-01,0.00000e+00
3.16547e+00,5.48000e-01,7.19200e-01,0.00000e+00
3.16547e+00,5.49000e-01,7.19600e-01,0.00000e+00
3.16547e+00,5.50000e-01,7.20000e-01,0.00000e+00
3.16547e+00,5.51000e-01,7.20400e-01,0.00000e+00
3.16547e+00,5.52000e-01,7.20800e-01,0.00000e+00
3.16547e+00,5.53000e-01,7.21200e-01,0.00000e+00
3.16547e+00,5.54000e-01,7.21600e-01,0.00000e+00
3.18869e+00,5.55000e-01,7.22000e-01,0.00000e+00
3.18869e+00,5.56000e-01,7.22400e-01,0.00000e+00
3.18869e+00,5.57000e-01,7.22800e-01,0.00000e+00
3.18869e+00,5.58000e-01,7.23200e-01,0.00000e+00
3.18869e+00,5.59000e-01,7.23600e-01,0.00000e+00
3.18869e+00,5.60000e-01,7.24000e-01,0.00000e+00
3.18869e+00,5.61000e-01,7.24400e-01,0.00000e+00
3.18869e+00,5.62000e-01,7.24800e-01,0.00000e+00
3.18869e+00,5.63000e-01,7.25200e-01,0.00000e+00
3.18869e+00,5.64000e-01,7.25600e-01,0.00000e+00
3.18869e+00,5.65000e-01,7.26000e-01,0.00000e+00
3.18869e+00,5.66000e-01,7.26400e-01,0.00000e+00
3.18869e+00,5.67000e-01,7.26800e-01,0.00000e+00
3.18869e+00,5.68000e-01,7.27200e-01,0.00000e+00
3.18869e+00,5.69000e-01,7.27600e-01,0.00000e+00
3.18869e+00,5.70000e-01,7.28000e-01,0.00000e+00
3.18869e+00,5.71000e-01,7.28400e-01,0.00000e+00
3.18869e+00,5.72000e-01,7.28800e-01,0.00000e+00
3.18869e+00,5.73000e-01,7.29200e-01,0.00000e+00
3.18869e+00,5.74000e-01,7.29600e-01,0.00000e+00
3.18869e+00,5.75000e-01,7.30000e-01,0.00000e+00
3.18869e+00,5.76000e-01,7.30400e-01,0.00000e+00
3.18869e+00,5.77000e-01,7.30800e-01,0.00000e+00
3.18869e+00,5.78000e-01,7.31200e-01,0.00000e+00
3.18869e+00,5.79000e-01,7.31600e-01,0.00000e+00
3.18869e+00,5.80000e-01,7.32000e-01,0.00000e+00
3.18869e+00,5.81000e-01,7.32400e-01,0.00000e+00
3.21291e+00,5.82000e-01,7.32800e-01,0.00000e+00
3.21291e+00,5.83000e-01,7.33200e-01,0.00000e+00
3.21291e+00,5.84000e-01,7.33600e-01,0.00000e+00
3.21291e+00,5.85000e-01,7.34000e-01,0.00000e+00
3.21291e+00,5.86000e-01,7.34400e-01,0.00000e+00
3.21291e+00,5.87000e-01,7.34800e-01,0.00000e+00
3.21291e+00,5.88000e-01,7.35200e-01,0.00000e+00
3.21291e+00,5.89000e-01,7.35600e-01,0.00000e+00
3.21291e+00,5.90000e-01,7.36000e-01,0.00000e+00
3.21291e+00,5.91000e-01,7.36400e-01,0.00000e+00
3.21291e+00,5.92000e-01,7.36800e-01,0.00000e+00
3.21291e+00,5.93000e-01,7.37200e-01,0.00000e+00
3.21291e+00,5.94000e-01,7.37600e-01,0.00000e+00
3.21291e+00,5.95000e-01,7.38000e-01,0.00000e+00
3.21291e+00,5.96000e-01,7.38400e-01,0.00000e+00
3.21291e+00,5.97000e-01,7.38800e-01,0.00000e+00
3.21291e+00,5.98000e-01,7.39200e-01,0.00000e+00
3.21291e+00,5.99000e-01,7.39600e-01,0.00000e+00
3.21291e+00,6.00000e-01,7.40000e-01,0.00000e+00
3.21291e+00,6.01000e-01,7.40400e-01,0.00000e+00
3.21291e+00,6.02000e-01,7.40800e-01,0.00000e+00
3.21291e+00,6.03000e-01,7.41200e-01,0.00000e+00
3.21291e+00,6.04000e-01,7.41600e-01,0.00000e+00
3.21291e+00,6.05000e-01,7.42000e-01,0.00000e+00
3.21291e+00,6.06000e-01,7.42400e-01,0.00000e+00
3.21291e+00,6.07000e-01,7.42800e-01,0.00000e+00
3.21291e+00,6.08000e-01,7.43200e-01,0.00000e+00
3.32420e+00,6.09000e-01,7.43600e-01,0.00000e+00
3.32420e+00,6.10000e-01,7.44000e-01,0.00000e+00
3.32420e+00,6.11000e-01,7.44400e-01,0.00000e+00
3.32420e+00,6.12000e-01,7.44800e-01,0.00000e+00
3.32420e+00,6.13000e-01,7.45200e-01,0.00000e+00
3.32420e+00,6.14000e-01,7.45600e-01,0.00000e+00
3.32420e+00,6.15000e-01,7.46000e-01,0.00000e+00
3.32420e+00,6.16000e-01,7.46400e-01,0.00000e+00
3.32420e+00,6.17000e-01,7.46800e-01,0.00000e+00
3.32420e+00,6.18000e-01,7.47200e-01,0.00000e+00
3.32420e+00,6.19000e-01,7.47600e-01,0.00000e+00
3.32420e+00,6.20000e-01,7.48000e-01,0.00000e+00
3.32420e+00,6.21000e-01,7.48400e-01,0.00000e+00
3.32420e+00,6.22000e-01,7.48800e-01,0.00000e+00
3.32420e+00,6.23000e-01,7.49200e-01,0.00000e+00
3.32420e+00,6.24000e-01,7.49600e-01,0.00000e+00
3.32420e+00,6.25000e-01,7.50000e-01,0.00000e+00
3.32420e+00,6.26000e-01,7.50400e-01,0.00000e+00
3.32420e+00,6.27000e-01,7.50800e-01,0.00000e+00
3.32420e+00,6.28000e-01,7.51200e-01,0.00000e+00
3.32420e+00,6.29000e-01,7.51600e-01,0.00000e+00
3.32420e+00,6.30000e-01,7.52000e-01,0.00000e+00
3.32420e+00,6.31000e-01,7.52400e-01,0.00000e+00
3.32420e+00,6.32000e-01,7.52800e-01,0.00000e+00
3.32420e+00,6.33000e-01,7.53200e-01,0.00000e+00
3.32420e+00,6.34000e-01,7.53600e-01,0.00000e+00
3.32420e+00,6.35000e-01,7.54000e-01,0.00000e+00
3.35173e+00,6.36000e-01,7.54400e-01,0.00000e+00
3.35173e+00,6.37000e-01,7.54800e-01,0.00000e+00
3.35173e+00,6.38000e-01,7.55200e-01,0.00000e+00
3.35173e+00,6.39000e-01,7.55600e-01,0.00000e+00
3.35173e+00,6.40000e-01,7.56000e-01,0.00000e+00
3.35173e+00,6.41000e-01,7.56400e-01,0.00000e+00
3.35173e+00,6.42000e-01,7.56800e-01,0.00000e+00
3.35173e+00,6.43000e-01,7.57200e-01,0.00000e+00
3.35173e+00,6.44000e-01,7.57600e-01,0.00000e+00
3.35173e+00,6.45000e-01,7.58000e-01,0.00000e+00
3.35173e+00,6.46000e-01,7.58400e-01,0.00000e+00
3.35173e+00,6.47000e-01,7.58800e-01,0.00000e+00
3.35173e+00,6.48000e-01,7.59200e-01,0.00000e+00
3.35173e+00,6.49000e-01,7.59600e-01,0.00000e+00
3.35173e+00,6.50000e-01,7.60000e-01,0.00000e+00
3.35173e+00,6.51000e-01,7.60400e-01,0.00000e+00
3.35173e+00,6.52000e-01,7.60800e-01,0.00000e+00
3.35173e+00,6.53000e-01,7.61200e-01,0.00000e+00
3.35173e+00,6.54000e-01,7.61600e-01,0.00000e+00
3.35173e+00,6.55000e-01,7.62000e-01,0.00000e+00
3.35173e+00,6.56000e-01,7.62400e-01,0.00000e+00
3.35173e+00,6.57000e-01,7.62800e-01,0.00000e+00
3.35173e+00,6.58000e-01,7.63200e-01,0.00000e+00
3.35173e+00,6.59000e-01,7.63600e-01,0.00000e+00
3.35173e+00,6.60000e-01,7.64000e-01,0.00000e+00
3.35173e+00,6.61000e-01,7.64400e-01,0.00000e+00
3.35173e+00,6.62000e-01,7.64800e-01,0.00000e+00
3.38330e+00,6.63000e-01,7.65200e-01,0.00000e+00
3.38330e+00,6.64000e-01,7.65600e-01,0.00000e+00
3.38330e+00,6.65000e-01,7.66000e-01,0.00000e+00
3.38330e+00,6.66000e-01,7.66400e-01,0.00000e+00
3.38330e+00,6.67000e-01,7.66800e-01,0.00000e+00
3.38330e+00,6.68000e-01,7.67200e-01,0.00000e+00
3.38330e+00,6.69000e-01,7.67600e-01,0.00000e+00
3.38330e+00,6.70000e-01,7.68000e-01,0.00000e+00
3.38330e+00,6.71000e-01,7.68400e-01,0.00000e+00
3.38330e+00,6.72000e-01,7.68800e-01,0.00000e+00
3.38330e+00,6.73000e-01,7.69200e-01,0.00000e+00
3.38330e+00,6.74000e-01,7.69600e-01,0.00000e+00
3.38330e+00,6.75000e-01,7.70000e-01,0.00000e+00
3.45844e+00,6.76000e-01,7.70400e-01,0.00000e+00
3.45844e+00,6.77000e-01,7.70800e-01,0.00000e+00
3.45844e+00,6.78000e-01,7.71200e-01,0.00000e+00
3.45844e+00,6.79000e-01,7.71600e-01,0.00000e+00
3.45844e+00,6.80000e-01,7.72000e-01,0.00000e+00
3.45844e+00,6.81000e-01,7.72400e-01,0.00000e+00
3.45844e+00,6.82000e-01,7.72800e-01,0.00000e+00
3.45844e+00,6.83000e-01,7.73200e-01,0.00000e+00
3.45844e+00,6.84000e-01,7.73600e-01,0.00000e+00
3.45844e+00,6.85000e-01,7.74000e-01,0.00000e+00
3.45844e+00,6.86000e-01,7.74400e-01,0.00000e+00
3.45844e+00,6.87000e-01,7.74800e-01,0.00000e+00
3.45844e+00,6.88000e-01,7.75200e-01,0.00000e+00
3.45844e+00,6.89000e-01,7.75600e-01,0.00000e+00
3.47752e+00,6.90000e-01,7.76000e-01,0.00000e+00
3.47752e+00,6.91000e-01,7.76400e-01,0.00000e+00
3.47752e+00,6.92000e-01,7.76800e-01,0.00000e+00
3.47752e+00,6.93000e-01,7.77200e-01,0.00000e+00
3.47752e+00,6.94000e-01,7.77600e-01,0.00000e+00
3.47752e+00,6.95000e-01,7.78000e-01,0.00000e+00
3.47752e+00,6.96000e-01,7.78400e-01,0.00000e+00
3.47752e+00,6.97000e-01,7.78800e-01,0.00000e+00
3.47752e+00,6.98000e-01,7.79200e-01,0.00000e+00
3.47752e+00,6.99000e-01,7.79600e-01,0.00000e+00
3.47752e+00,7.00000e-01,7.80000e-01,0.00000e+00
3.47752e+00,7.01000e-01,7.80400e-01,0.00000e+00
3.47752e+00,7.02000e-01,7.80800e-01,0.00000e+00
3.47752e+00,7.03000e-01,7.81200e-01,0.00000e+00
3.47752e+00,7.04000e-01,7.81600e-01,0.00000e+00
3.47752e+00,7.05000e-01,7.82000e-01,0.00000e+00
3.47752e+00,7.06000e-01,7.82400e-01,0.00000e+00
3.47752e+00,7.07000e-01,7.82800e-01,0.00000e+00
3.47752e+00,7.08000e-01,7.83200e-01,0.00000e+00
3.47752e+00,7.09000e-01,7.83600e-01,0.00000e+00
3.47752e+00,7.10000e-01,7.84000e-01,0.00000e+00
3.47752e+00,7.11000e-01,7.84400e-01,0.00000e+00
3.47752e+00,7.12000e-01,7.84800e-01,0.00000e+00
3.47752e+00,7.13000e-01,7.85200e-01,0.00000e+00
3.47752e+00,7.14000e-01,7.85600e-01,0.00000e+00
3.47752e+00,7.15000e-01,7.86000e-01,0.00000e+00
3.47752e+00,7.16000e-01,7.86400e-01,0.00000e+00
3.48893e+00,7.17000e-01,7.86800e-01,0.00000e+00
3.48893e+00,7.18000e-01,7.87200e-01,0.00000e+00
3.48893e+00,7.19000e-01,7.87600e-01,0.00000e+00
3.48893e+00,7.20000e-01,7.88000e-01,0.00000e+00
3.48893e+00,7.21000e-01,7.88400e-01,0.00000e+00
3.48893e+00,7.22000e-01,7.88800e-01,0.00000e+00
3.48893e+00,7.23000e-01,7.89200e-01,0.00000e+00
3.48893e+00,7.24000e-01,7.89600e-01,0.00000e+00
3.48893e+00,7.25000e-01,7.90000e-01,0.00000e+00
3.48893e+00,7.26000e-01,7.90400e-01,0.00000e+00
3.48893e+00,7.27000e-01,7.90800e-01,0.00000e+00
3.48893e+00,7.28000e-01,7.91200e-01,0.00000e+00
3.48893e+00,7.29000e-01,7.91600e-01,0.00000e+00
3.48893e+00,7.30000e-01,7.92000e-01,0.00000e+00
3.48893e+00,7.31000e-01,7.92400e-01,0.00000e+00
3.48893e+00,7.32000e-01,7.92800e-01,0.00000e+00
3.48893e+00,7.33000e-01,7.93200e-01,0.00000e+00
3.48893e+00,7.34000e-01,7.93600e-01,0.00000e+00
3.48893e+00,7.35000e-01,7.94000e-01,0.00000e+00
3.48893e+00,7.36000e-01,7.94400e-01,0.00000e+00
3.48893e+00,7.37000e-01,7.94800e-01,0.00000e+00
3.48893e+00,7.38000e-01,7.95200e-01,0.00000e+00
3.48893e+00,7.39000e-01,7.95600e-01,0.00000e+00
3.48893e+00,7.40000e-01,7.96000e-01,0.00000e+00
3.48893e+00,7.41000e-01,7.96400e-01,0.00000e+00
3.48893e+00,7.42000e-01,7.96800e-01,0.00000e+00
3.48893e+00,7.43000e-01,7.97200e-01,0.00000e+00
3.55191e+00,7.44000e-01,7.97600e-01,0.00000e+00
3.55191e+00,7.45000e-01,7.98000e-01,0.00000e+00
3.55191e+00,7.46000e-01,7.98400e-01,0.00000e+00
3.55191e+00,7.47000e-01,7.98800e-01,0.00000e+00
3.55191e+00,7.48000e-01,7.99200e-01,0.00000e+00
3.55191e+00,7.49000e-01,7.99600e-01,0.00000e+00
3.55191e+00,7.50000e-01,8.00000e-01,0.00000e+00
3.55191e+00,7.51000e-01,8.00400e-01,0.00000e+00
3.55191e+00,7.52000e-01,8.00800e-01,0.00000e+00
3.55191e+00,7.53000e-01,8.01200e-01,0.00000e+00
3.55191e+00,7.54000e-01,8.01600e-01,0.00000e+00
3.55191e+00,7.55000e-01,8.02000e-01,0.00000e+00
3.55191e+00,7.56000e-01,8.02400e-01,0.00000e+00
3.55191e+00,7.57000e-01,8.02800e-01,0.00000e+00
3.55191e+00,7.58000e-01,8.03200e-01,0.00000e+00
3.55191e+00,7.59000e-01,8.03600e-01,0.00000e+00
3.55191e+00,7.60000e-01,8.04000e-01,0.00000e+00
3.55191e+00,7.61000e-01,8.04400e-01,0.00000e+00
3.55191e+00,7.62000e-01,8.04800e-01,0.00000e+00
3.55191e+00,7.63000e-01,8.05200e-01,0.00000e+00
3.55191e+00,7.64000e-01,8.05600e-01,0.00000e+00
3.55191e+00,7.65000e-01,8.06000e-01,0.00000e+00
3.55191e+00,7.66000e-01,8.06400e-01,0.00000e+00
3.55191e+00,7.67000e-01,8.06800e-01,0.00000e+00
3.55191e+00,7.68000e-01,8.07200e-01,0.00000e+00
3.55191e+00,7.69000e-01,8.07600e-01,0.00000e+00
3.55191e+00,7.70000e-01,8.08000e-01,0.00000e+00
3.55949e+00,7.71000e-01,8.08400e-01,0.00000e+00
3.55949e+00,7.72000e-01,8.08800e-01,0.00000e+00
3.55949e+00,7.73000e-01,8.09200e-01,0.00000e+00
3.55949e+00,7.74000e-01,8.09600e-01,0.00000e+00
3.55949e+00,7.75000e-01,8.10000e-01,0.00000e+00
3.55949e+00,7.76000e-01,8.10400e-01,0.00000e+00
3.55949e+00,7.77000e-01,8.10800e-01,0.00000e+00
3.55949e+00,7.78000e-01,8.11200e-01,0.00000e+00
3.55949e+00,7.79000e-01,8.11600e-01,0.00000e+00
3.55949e+00,7.80000e-01,8.12000e-01,0.00000e+00
3.55949e+00,7.81000e-01,8.12400e-01,0.00000e+00
3.55949e+00,7.82000e-01,8.12800e-01,0.00000e+00
3.55949e+00,7.83000e-01,8.13200e-01,0.00000e+00
3.55949e+00,7.84000e-01,8.13600e-01,0.00000e+00
3.55949e+00,7.85000e-01,8.14000e-01,0.00000e+00
3.55949e+00,7.86000e-01,8.14400e-01,0.00000e+00
3.55949e+00,7.87000e-01,8.14800e-01,0.00000e+00
3.55949e+00,7.88000e-01,8.15200e-01,0.00000e+00
3.55949e+00,7.89000e-01,8.15600e-01,0.00000e+00
3.55949e+00,7.90000e-01,8.16000e-01,0.00000e+00
3.55949e+00,7.91000e-01,8.16400e-01,0.00000e+00
3.55949e+00,7.92000e-01,8.16800e-01,0.00000e+00
3.55949e+00,7.93000e-01,8.17200e-01,0.00000e+00
3.55949e+00,7.94000e-01,8.17600e-01,0.00000e+00
3.55949e+00,7.95000e-01,8.18000e-01,0.00000e+00
3.55949e+00,7.96000e-01,8.18400e-01,0.00000e+00
3.55949e+00,7.97000e-01,8.18800e-01,0.00000e+00
3.56676e+00,7.98000e-01,8.19200e-01,0.00000e+00
3.56676e+00,7.99000e-01,8.19600e-01,0.00000e+00
3.56676e+00,8.00000e-01,8.20000e-01,0.00000e+00
3.56676e+00,8.01000e-01,8.20400e-01,0.00000e+00
3.56676e+00,8.02000e-01,8.20800e-01,0.00000e+00
3.56676e+00,8.03000e-01,8.21200e-01,0.00000e+00
3.56676e+00,8.04000e-01,8.21600e-01,0.00000e+00
3.56676e+00,8.05000e-01,8.22000e-01,0.00000e+00
3.56676e+00,8.06000e-01,8.22400e-01,0.00000e+00
3.56676e+00,8.07000e-01,8.22800e-01,0.00000e+00
3.56676e+00,8.08000e-01,8.23200e-01,0.00000e+00
3.56676e+00,8.09000e-01,8.23600e-01,0.00000e+00
3.56676e+00,8.10000e-01,8.24000e-01,0.00000e+00
3.62559e+00,8.11000e-01,8.24400e-01,0.00000e+00
3.62559e+00,8.12000e-01,8.24800e-01,0.00000e+00
3.62559e+00,8.13000e-01,8.25200e-01,0.00000e+00
3.62559e+00,8.14000e-01,8.25600e-01,0.00000e+00
3.62559e+00,8.15000e-01,8.26000e-01,0.00000e+00
3.62559e+00,8.16000e-01,8.26400e-01,0.00000e+00
3.62559e+00,8.17000e-01,8.26800e-01,0.00000e+00
3.62559e+00,8.18000e-01,8.27200e-01,0.00000e+00
3.62559e+00,8.19000e-01,8.27600e-01,0.00000e+00
3.62559e+00,8.20000e-01,8.28000e-01,0.00000e+00
3.62559e+00,8.21000e-01,8.28400e-01,0.00000e+00
3.62559e+00,8.22000e-01,8.28800e-01,0.00000e+00
3.62559e+00,8.23000e-01,8.29200e-01,0.00000e+00
3.62559e+00,8.24000e-01,8.29600e-01,0.00000e+00
3.63913e+00,8.25000e-01,8.30000e-01,0.00000e+00
3.63913e+00,8.26000e-01,8.30400e-01,0.00000e+00
3.63913e+00,8.27000e-01,8.30800e-01,0.00000e+00
3.63913e+00,8.28000e-01,8.31200e-01,0.00000e+00
3.63913e+00,8.29000e-01,8.31600e-01,0.00000e+00
3.63913e+00,8.30000e-01,8.32000e-01,0.00000e+00
3.63913e+00,8.31000e-01,8.32400e-01,0.00000e+00
3.63913e+00,8.32000e-01,8.32800e-01,0.00000e+00
3.63913e+00,8.33000e-01,8.33200e-01,0.00000e+00
3.63913e+00,8.34000e-01,8.33600e-01,0.00000e+00
3.63913e+00,8.35000e-01,8.34000e-01,0.00000e+00
3.63913e+00,8.36000e-01,8.34400e-01,0.00000e+00
3.63913e+00,8.37000e-01,8.34800e-01,0.00000e+00
3.63913e+00,8.38000e-01,8.35200e-01,0.00000e+00
3.63913e+00,8.39000e-01,8.35600e-01,0.00000e+00
3.63913e+00,8.40000e-01,8.36000e-01,0.00000e+00
3.63913e+00,8.41000e-01,8.36400e-01,0.00000e+00
3.63913e+00,8.42000e-01,8.36800e-01,0.00000e+00
3.63913e+00,8.43000e-01,8.37200e-01,0.00000e+00
3.63913e+00,8.44000e-01,8.37600e-01,0.00000e+00
3.63913e+00,8.45000e-01,8.38000e-01,0.00000e+00
3.63913e+00,8.46000e-01,8.38400e-01,0.00000e+00
3.63913e+00,8.47000e-01,8.38800e-01,0.00000e+00
3.63913e+00,8.48000e-01,8.39200e-01,0.00000e+00
3.63913e+00,8.49000e-01,8.39600e-01,0.00000e+00
3.63913e+00,8.50000e-01,8.40000e-01,0.00000e+00
3.63913e+00,8.51000e-01,8.40400e-01,0.00000e+00
3.65743e+00,8.52000e-01,8.40800e-01,0.00000e+00
3.65743e+00,8.53000e-01,8.41200e-01,0.00000e+00
3.65743e+00,8.54000e-01,8.41600e-01,0.00000e+00
3.65743e+00,8.55000e-01,8.42000e-01,0.00000e+00
3.65743e+00,8.56000e-01,8.42400e-01,0.00000e+00
3.65743e+00,8.57000e-01,8.42800e-01,0.00000e+00
3.65743e+00,8.58000e-01,8.43200e-01,0.00000e+00
3.65743e+00,8.59000e-01,8.43600e-01,0.00000e+00
3.65743e+00,8.60000e-01,8.44000e-01,0.00000e+00
3.65743e+00,8.61000e-01,8.44400e-01,0.00000e+00
3.65743e+00,8.62000e-01,8.44800e-01,0.00000e+00
3.65743e+00,8.63000e-01,8.45200e-01,0.00000e+00
3.65743e+00,8.64000e-01,8.45600e-01,0.00000e+00
3.65743e+00,8.65000e-01,8.46000e-01,0.00000e+00
3.65743e+00,8.66000e-01,8.46400e-01,0.00000e+00
3.65743e+00,8.67000e-01,8.46800e-01,0.00000e+00
3.65743e+00,8.68000e-01,8.47200e-01,0.00000e+00
3.65743e+00,8.69000e-01,8.47600e-01,0.00000e+00
3.65743e+00,8.70000e-01,8.48000e-01,0.00000e+00
3.65743e+00,8.71000e-01,8.48400e-01,0.00000e+00
3.65743e+00,8.72000e-01,8.48800e-01,0.00000e+00
3.65743e+00,8.73000e-01,8.49200e-01,0.00000e+00
3.65743e+00,8.74000e-01,8.49600e-01,0.00000e+00
3.65743e+00,8.75000e-01,8.50000e-01,0.00000e+00
3.65743e+00,8.76000e-01,8.50400e-01,0.00000e+00
3.65743e+00,8.77000e-01,8.50800e-01,0.00000e+00
3.65743e+00,8.78000e-01,8.51200e-01,0.00000e+00
3.73258e+00,8.79000e-01,8.51600e-01,0.00000e+00
3.73258e+00,8.80000e-01,8.52000e-01,0.00000e+00
3.73258e+00,8.81000e-01,8.52400e-01,0.00000e+00
3.73258e+00,8.82000e-01,8.52800e-01,0.00000e+00
3.73258e+00,8.83000e-01,8.53200e-01,0.00000e+00
3.73258e+00,8.84000e-01,8.53600e-01,0.00000e+00
3.73258e+00,8.85000e-01,8.54000e-01,0.00000e+00
3.73258e+00,8.86000e-01,8.54400e-01,0.00000e+00
3.73258e+00,8.87000e-01,8.54800e-01,0.00000e+00
3.73258e+00,8.88000e-01,8.55200e-01,0.00000e+00
3.73258e+00,8.89000e-01,8.55600e-01,0.00000e+00
3.73258e+00,8.90000e-01,8.56000e-01,0.00000e+00
3.73258e+00,8.91000e-01,8.56400e-01,0.00000e+00
3.73258e+00,8.92000e-01,8.56800e-01,0.00000e+00
3.73258e+00,8.93000e-01,8.57200e-01,0.00000e+00
3.73258e+00,8.94000e-01,8.57600e-01,0.00000e+00
3.73258e+00,8.95000e-01,8.58000e-01,0.00000e+00
3.73258e+00,8.96000e-01,8.58400e-01,0.00000e+00
3.73258e+00,8.97000e-01,8.58800e-01,0.00000e+00
3.73258e+00,8.98000e-01,8.59200e-01,0.00000e+00
3.73258e+00,8.99000e-01,8.59600e-01,0.00000e+00
3.73258e+00,9.00000e-01,8.60000e-01,0.00000e+00
3.73258e+00,9.01000e-01,8.60400e-01,0.00000e+00
3.73258e+00,9.02000e-01,8.60800e-01,0.00000e+00
3.73258e+00,9.03000e-01,8.61200e-01,0.00000e+00
3.73258e+00,9.04000e-01,8.61600e-01,0.00000e+00
3.73258e+00,9.05000e-01,8.62000e-01,0.00000e+00
3.74200e+00,9.06000e-01,8.62400e-01,0.00000e+00
3.74200e+00,9.07000e-01,8.62800e-01,0.00000e+00
3.74200e+00,9.08000e-01,8.63200e-01,0.00000e+00
3.74200e+00,9.09000e-01,8.63600e-01,0.00000e+00
3.74200e+00,9.10000e-01,8.64000e-01,0.00000e+00
3.74200e+00,9.11000e-01,8.64400e-01,0.00000e+00
3.74200e+00,9.12000e-01,8.64800e-01,0.00000e+00
3.74200e+00,9.13000e-01,8.65200e-01,0.00000e+00
3.74200e+00,9.14000e-01,8.65600e-01,0.00000e+00
3.74200e+00,9.15000e-01,8.66000e-01,0.00000e+00
3.74200e+00,9.16000e-01,8.66400e-01,0.00000e+00
3.74200e+00,9.17000e-01,8.66800e-01,0.00000e+00
3.74200e+00,9.18000e-01,8.67200e-01,0.00000e+00
3.74200e+00,9.19000e-01,8.67600e-01,0.00000e+00
3.74200e+00,9.20000e-01,8.68000e-01,0.00000e+00
3.74200e+00,9.21000e-01,8.68400e-01,0.00000e+00
3.74200e+00,9.22000e-01,8.68800e-01,0.00000e+00
3.74200e+00,9.23000e-01,8.69200e-01,0.00000e+00
3.74200e+00,9.24000e-01,8.69600e-01,0.00000e+00
3.74200e+00,9.25000e-01,8.70000e-01,0.00000e+00
3.74200e+00,9.26000e-01,8.70400e-01,0.00000e+00
3.74200e+00,9.27000e-01,8.70800e-01,0.00000e+00
3.74200e+00,9.28000e-01,8.71200e-01,0.00000e+00
3.74200e+00,9.29000e-01,8.71600e-01,0.00000e+00
3.74200e+00,9.30000e-01,8.72000e-01,0.00000e+00
3.74200e+00,9.31000e-01,8.72400e-01,0.00000e+00
3.74200e+00,9.32000e-01,8.72800e-01,0.00000e+00
3.74117e+00,9.33000e-01,8.73200e-01,0.00000e+00
3.74117e+00,9.34000e-01,8.73600e-01,0.00000e+00
3.74117e+00,9.35000e-01,8.74000e-01,0.00000e+00
3.74117e+00,9.36000e-01,8.74400e-01,0.00000e+00
3.74117e+00,9.37000e-01,8.74800e-01,0.00000e+00
3.74117e+00,9.38000e-01,8.75200e-01,0.00000e+00
3.74117e+00,9.39000e-01,8.75600e-01,0.00000e+00
3.74117e+00,9.40000e-01,8.76000e-01,0.00000e+00
3.74117e+00,9.41000e-01,8.76400e-01,0.00000e+00
3.74117e+00,9.42000e-01,8.76800e-01,0.00000e+00
3.74117e+00,9.43000e-01,8.77200e-01,0.00000e+00
3.74117e+00,9.44000e-01,8.77600e-01,0.00000e+00
3.74117e+00,9.45000e-01,8.78000e-01,0.00000e+00
3.78815e+00,9.46000e-01,8.78400e-01,0.00000e+00
3.78815e+00,9.47000e-01,8.78800e-01,0.00000e+00
3.78815e+00,9.48000e-01,8.79200e-01,0.00000e+00
3.78815e+00,9.49000e-01,8.79600e-01,0.00000e+00
3.78815e+00,9.50000e-01,8.80000e-01,0.00000e+00
3.78815e+00,9.51000e-01,8.80400e-01,0.00000e+00
3.78815e+00,9.52000e-01,8.80800e-01,0.00000e+00
3.78815e+00,9.53000e-01,8.81200e-01,0.00000e+00
3.78815e+00,9.54000e-01,8.81600e-01,0.00000e+00
3.78815e+00,9.55000e-01,8.82000e-01,0.00000e+00
3.78815e+00,9.56000e-01,8.82400e-01,0.00000e+00
3.78815e+00,9.57000e-01,8.82800e-01,0.00000e+00
3.78815e+00,9.58000e-01,8.83200e-01,0.00000e+00
3.78815e+00,9.59000e-01,8.83600e-01,0.00000e+00
3.78782e+00,9.60000e-01,8.84000e-01,0.00000e+00
3.78782e+00,9.61000e-01,8.84400e-01,0.00000e+00
3.78782e+00,9.62000e-01,8.84800e-01,0.00000e+00
3.78782e+00,9.63000e-01,8.85200e-01,0.00000e+00
3.78782e+00,9.64000e-01,8.85600e-01,0.00000e+00
3.78782e+00,9.65000e-01,8.86000e-01,0.00000e+00
3.78782e+00,9.66000e-01,8.86400e-01,0.00000e+00
3.78782e+00,9.67000e-01,8.86800e-01,0.00000e+00
3.78782e+00,9.68000e-01,8.87200e-01,0.00000e+00
3.78782e+00,9.69000e-01,8.87600e-01,0.00000e+00
3.78782e+00,9.70000e-01,8.88000e-01,0.00000e+00
3.78782e+00,9.71000e-01,8.88400e-01,0.00000e+00
3.78782e+00,9.72000e-01,8.88800e-01,0.00000e+00
3.78782e+00,9.73000e-01,8.89200e-01,0.00000e+00
3.78782e+00,9.74000e-01,8.89600e-01,0.00000e+00
3.78782e+00,9.75000e-01,8.90000e-01,0.00000e+00
3.78782e+00,9.76000e-01,8.90400e-01,0.00000e+00
3.78782e+00,9.77000e-01,8.90800e-01,0.00000e+00
3.78782e+00,9.78000e-01,8.91200e-01,0.00000e+00
3.78782e+00,9.79000e-01,8.91600e-01,0.00000e+00
3.78782e+00,9.80000e-01,8.92000e-01,0.00000e+00
3.78782e+00,9.81000e-01,8.92400e-01,0.00000e+00
3.78782e+00,9.82000e-01,8.92800e-01,0.00000e+00
3.78782e+00,9.83000e-01,8.93200e-01,0.00000e+00
3.78782e+00,9.84000e-01,8.93600e-01,0.00000e+00
3.78782e+00,9.85000e-01,8.94000e-01,0.00000e+00
3.78782e+00,9.86000e-01,8.94400e-01,0.00000e+00
3.78735e+00,9.87000e-01,8.94800e-01,0.00000e+00
3.78735e+00,9.88000e-01,8.95200e-01,0.00000e+00
3.78735e+00,9.89000e-01,8.95600e-01,0.00000e+00
3.78735e+00,9.90000e-01,8.96000e-01,0.00000e+00
3.78735e+00,9.91000e-01,8.96400e-01,0.00000e+00
3.78735e+00,9.92000e-01,8.96800e-01,0.00000e+00
3.78735e+00,9.93000e-01,8.97200e-01,0.00000e+00
3.78735e+00,9.94000e-01,8.97600e-01,0.00000e+00
3.78735e+00,9.95000e-01,8.98000e-01,0.00000e+00
3.78735e+00,9.96000e-01,8.98400e-01,0.00000e+00
3.78735e+00,9.97000e-01,8.98800e-01,0.00000e+00
3.78735e+00,9.98000e-01,8.99200e-01,0.00000e+00
3.78735e+00,9.99000e-01,8.99600e-01,0.00000e+00
3.78735e+00,1.00000e+00,9.00000e-01,0.00000e+00
