"P","vtkValidPointMask","arc_length","Points:0","Points:1","Points:2"
3.9537,1,0,0,0.5,0
3.9641,1,0.0010695,0.00099305,0.5004,0
3.9641,1,0.0021391,0.0019861,0.50079,0
3.9641,1,0.0032086,0.0029791,0.50119,0
3.9641,1,0.0042782,0.0039722,0.50159,0
3.9641,1,0.0053477,0.0049652,0.50199,0
3.9641,1,0.0064173,0.0059583,0.50238,0
3.9641,1,0.0074868,0.0069513,0.50278,0
3.9641,1,0.0085564,0.0079444,0.50318,0
3.9641,1,0.0096259,0.0089374,0.50357,0
3.9641,1,0.010695,0.0099305,0.50397,0
3.9641,1,0.011765,0.010924,0.50437,0
3.9641,1,0.012835,0.011917,0.50477,0
3.9641,1,0.013904,0.01291,0.50516,0
3.9641,1,0.014974,0.013903,0.50556,0
3.9641,1,0.016043,0.014896,0.50596,0
3.9641,1,0.017113,0.015889,0.50636,0
3.9641,1,0.018182,0.016882,0.50675,0
3.9641,1,0.019252,0.017875,0.50715,0
3.9641,1,0.020321,0.018868,0.50755,0
3.9641,1,0.021391,0.019861,0.50794,0
3.9641,1,0.02246,0.020854,0.50834,0
3.9641,1,0.02353,0.021847,0.50874,0
3.9641,1,0.0246,0.02284,0.50914,0
3.9641,1,0.025669,0.023833,0.50953,0
3.9641,1,0.026739,0.024826,0.50993,0
3.9641,1,0.027808,0.025819,0.51033,0
3.9641,1,0.028878,0.026812,0.51072,0
3.9641,1,0.029947,0.027805,0.51112,0
3.9641,1,0.031017,0.028798,0.51152,0
3.9127,1,0.032086,0.029791,0.51192,0
3.9127,1,0.033156,0.030785,0.51231,0
3.9127,1,0.034225,0.031778,0.51271,0
3.9127,1,0.035295,0.032771,0.51311,0
3.9127,1,0.036365,0.033764,0.51351,0
3.9127,1,0.037434,0.034757,0.5139,0
3.9127,1,0.038504,0.03575,0.5143,0
3.9127,1,0.039573,0.036743,0.5147,0
3.9127,1,0.040643,0.037736,0.51509,0
3.9127,1,0.041712,0.038729,0.51549,0
3.9127,1,0.042782,0.039722,0.51589,0
3.9127,1,0.043851,0.040715,0.51629,0
3.8266,1,0.044921,0.041708,0.51668,0
3.8266,1,0.04599,0.042701,0.51708,0
3.8266,1,0.04706,0.043694,0.51748,0
3.8266,1,0.04813,0.044687,0.51787,0
3.8266,1,0.049199,0.04568,0.51827,0
3.8266,1,0.050269,0.046673,0.51867,0
3.8266,1,0.051338,0.047666,0.51907,0
3.8266,1,0.052408,0.048659,0.51946,0
3.8266,1,0.053477,0.049652,0.51986,0
3.8266,1,0.054547,0.050645,0.52026,0
3.8266,1,0.055616,0.051639,0.52066,0
3.8266,1,0.056686,0.052632,0.52105,0
3.8266,1,0.057755,0.053625,0.52145,0
3.8266,1,0.058825,0.054618,0.52185,0
3.8266,1,0.059895,0.055611,0.52224,0
3.8266,1,0.060964,0.056604,0.52264,0
3.8266,1,0.062034,0.057597,0.52304,0
3.8266,1,0.063103,0.05859,0.52344,0
3.8266,1,0.064173,0.059583,0.52383,0
3.8266,1,0.065242,0.060576,0.52423,0
3.8266,1,0.066312,0.061569,0.52463,0
3.8266,1,0.067381,0.062562,0.52502,0
3.8266,1,0.068451,0.063555,0.52542,0
3.8266,1,0.06952,0.064548,0.52582,0
3.8266,1,0.07059,0.065541,0.52622,0
3.8266,1,0.07166,0.066534,0.52661,0
3.8266,1,0.072729,0.067527,0.52701,0
3.8266,1,0.073799,0.06852,0.52741,0
3.8266,1,0.074868,0.069513,0.52781,0
3.7771,1,0.075938,0.070506,0.5282,0
3.7771,1,0.077007,0.0715,0.5286,0
3.7771,1,0.078077,0.072493,0.529,0
3.7771,1,0.079146,0.073486,0.52939,0
3.7771,1,0.080216,0.074479,0.52979,0
3.7771,1,0.081286,0.075472,0.53019,0
3.7771,1,0.082355,0.076465,0.53059,0
3.7771,1,0.083425,0.077458,0.53098,0
3.7771,1,0.084494,0.078451,0.53138,0
3.7771,1,0.085564,0.079444,0.53178,0
3.7771,1,0.086633,0.080437,0.53217,0
3.7771,1,0.087703,0.08143,0.53257,0
3.7771,1,0.088772,0.082423,0.53297,0
3.7771,1,0.089842,0.083416,0.53337,0
3.7771,1,0.090911,0.084409,0.53376,0
3.7771,1,0.091981,0.085402,0.53416,0
3.7771,1,0.093051,0.086395,0.53456,0
3.7771,1,0.09412,0.087388,0.53496,0
3.7771,1,0.09519,0.088381,0.53535,0
3.7771,1,0.096259,0.089374,0.53575,0
3.7771,1,0.097329,0.090367,0.53615,0
3.7771,1,0.098398,0.09136,0.53654,0
3.7771,1,0.099468,0.092354,0.53694,0
3.685,1,0.10054,0.093347,0.53734,0
3.685,1,0.10161,0.09434,0.53774,0
3.685,1,0.10268,0.095333,0.53813,0
3.685,1,0.10375,0.096326,0.53853,0
3.685,1,0.10482,0.097319,0.53893,0
3.685,1,0.10589,0.098312,0.53932,0
3.685,1,0.10695,0.099305,0.53972,0
3.685,1,0.10802,0.1003,0.54012,0
3.685,1,0.10909,0.10129,0.54052,0
3.685,1,0.11016,0.10228,0.54091,0
3.685,1,0.11123,0.10328,0.54131,0
3.685,1,0.1123,0.10427,0.54171,0
3.685,1,0.11337,0.10526,0.54211,0
3.685,1,0.11444,0.10626,0.5425,0
3.685,1,0.11551,0.10725,0.5429,0
3.685,1,0.11658,0.10824,0.5433,0
3.685,1,0.11765,0.10924,0.54369,0
3.685,1,0.11872,0.11023,0.54409,0
3.685,1,0.11979,0.11122,0.54449,0
3.685,1,0.12086,0.11221,0.54489,0
3.685,1,0.12193,0.11321,0.54528,0
3.685,1,0.123,0.1142,0.54568,0
3.685,1,0.12407,0.11519,0.54608,0
3.685,1,0.12514,0.11619,0.54647,0
3.685,1,0.12621,0.11718,0.54687,0
3.685,1,0.12728,0.11817,0.54727,0
3.685,1,0.12835,0.11917,0.54767,0
3.685,1,0.12942,0.12016,0.54806,0
3.685,1,0.13048,0.12115,0.54846,0
3.6218,1,0.13155,0.12214,0.54886,0
3.6218,1,0.13262,0.12314,0.54926,0
3.6218,1,0.13369,0.12413,0.54965,0
3.6218,1,0.13476,0.12512,0.55005,0
3.6218,1,0.13583,0.12612,0.55045,0
3.6218,1,0.1369,0.12711,0.55084,0
3.6218,1,0.13797,0.1281,0.55124,0
3.6218,1,0.13904,0.1291,0.55164,0
3.6218,1,0.14011,0.13009,0.55204,0
3.6218,1,0.14118,0.13108,0.55243,0
3.5477,1,0.14225,0.13208,0.55283,0
3.5477,1,0.14332,0.13307,0.55323,0
3.5477,1,0.14439,0.13406,0.55362,0
3.5477,1,0.14546,0.13505,0.55402,0
3.5477,1,0.14653,0.13605,0.55442,0
3.5477,1,0.1476,0.13704,0.55482,0
3.5477,1,0.14867,0.13803,0.55521,0
3.5477,1,0.14974,0.13903,0.55561,0
3.5477,1,0.15081,0.14002,0.55601,0
3.5477,1,0.15188,0.14101,0.55641,0
3.5477,1,0.15295,0.14201,0.5568,0
3.5477,1,0.15401,0.143,0.5572,0
3.5477,1,0.15508,0.14399,0.5576,0
3.5477,1,0.15615,0.14499,0.55799,0
3.5477,1,0.15722,0.14598,0.55839,0
3.5477,1,0.15829,0.14697,0.55879,0
3.5477,1,0.15936,0.14796,0.55919,0
3.5477,1,0.16043,0.14896,0.55958,0
3.5477,1,0.1615,0.14995,0.55998,0
3.5477,1,0.16257,0.15094,0.56038,0
3.5477,1,0.16364,0.15194,0.56077,0
3.5477,1,0.16471,0.15293,0.56117,0
3.5477,1,0.16578,0.15392,0.56157,0
3.5477,1,0.16685,0.15492,0.56197,0
3.5477,1,0.16792,0.15591,0.56236,0
3.5477,1,0.16899,0.1569,0.56276,0
3.5477,1,0.17006,0.15789,0.56316,0
3.5477,1,0.17113,0.15889,0.56356,0
3.5477,1,0.1722,0.15988,0.56395,0
3.5477,1,0.17327,0.16087,0.56435,0
3.5477,1,0.17434,0.16187,0.56475,0
3.5477,1,0.17541,0.16286,0.56514,0
3.5477,1,0.17648,0.16385,0.56554,0
3.5477,1,0.17754,0.16485,0.56594,0
3.5477,1,0.17861,0.16584,0.56634,0
3.5477,1,0.17968,0.16683,0.56673,0
3.5477,1,0.18075,0.16783,0.56713,0
3.4852,1,0.18182,0.16882,0.56753,0
3.4852,1,0.18289,0.16981,0.56792,0
3.4852,1,0.18396,0.1708,0.56832,0
3.4852,1,0.18503,0.1718,0.56872,0
3.4852,1,0.1861,0.17279,0.56912,0
3.4852,1,0.18717,0.17378,0.56951,0
3.4852,1,0.18824,0.17478,0.56991,0
3.4852,1,0.18931,0.17577,0.57031,0
3.4852,1,0.19038,0.17676,0.57071,0
3.4852,1,0.19145,0.17776,0.5711,0
3.4852,1,0.19252,0.17875,0.5715,0
3.4852,1,0.19359,0.17974,0.5719,0
3.4852,1,0.19466,0.18073,0.57229,0
3.4852,1,0.19573,0.18173,0.57269,0
3.443,1,0.1968,0.18272,0.57309,0
3.443,1,0.19787,0.18371,0.57349,0
3.443,1,0.19894,0.18471,0.57388,0
3.443,1,0.20001,0.1857,0.57428,0
3.443,1,0.20107,0.18669,0.57468,0
3.443,1,0.20214,0.18769,0.57507,0
3.443,1,0.20321,0.18868,0.57547,0
3.443,1,0.20428,0.18967,0.57587,0
3.443,1,0.20535,0.19067,0.57627,0
3.443,1,0.20642,0.19166,0.57666,0
3.443,1,0.20749,0.19265,0.57706,0
3.443,1,0.20856,0.19364,0.57746,0
3.443,1,0.20963,0.19464,0.57785,0
3.443,1,0.2107,0.19563,0.57825,0
3.443,1,0.21177,0.19662,0.57865,0
3.443,1,0.21284,0.19762,0.57905,0
3.443,1,0.21391,0.19861,0.57944,0
3.443,1,0.21498,0.1996,0.57984,0
3.443,1,0.21605,0.2006,0.58024,0
3.443,1,0.21712,0.20159,0.58064,0
3.443,1,0.21819,0.20258,0.58103,0
3.443,1,0.21926,0.20357,0.58143,0
3.443,1,0.22033,0.20457,0.58183,0
3.443,1,0.2214,0.20556,0.58222,0
3.443,1,0.22247,0.20655,0.58262,0
3.443,1,0.22354,0.20755,0.58302,0
3.443,1,0.2246,0.20854,0.58342,0
3.443,1,0.22567,0.20953,0.58381,0
3.443,1,0.22674,0.21053,0.58421,0
3.443,1,0.22781,0.21152,0.58461,0
3.443,1,0.22888,0.21251,0.585,0
3.443,1,0.22995,0.21351,0.5854,0
3.443,1,0.23102,0.2145,0.5858,0
3.443,1,0.23209,0.21549,0.5862,0
3.443,1,0.23316,0.21648,0.58659,0
3.443,1,0.23423,0.21748,0.58699,0
3.4541,1,0.2353,0.21847,0.58739,0
3.4541,1,0.23637,0.21946,0.58779,0
3.4541,1,0.23744,0.22046,0.58818,0
3.4541,1,0.23851,0.22145,0.58858,0
3.4541,1,0.23958,0.22244,0.58898,0
3.4541,1,0.24065,0.22344,0.58937,0
3.4541,1,0.24172,0.22443,0.58977,0
3.4526,1,0.24279,0.22542,0.59017,0
3.4526,1,0.24386,0.22642,0.59057,0
3.425,1,0.24493,0.22741,0.59096,0
3.425,1,0.246,0.2284,0.59136,0
3.425,1,0.24707,0.22939,0.59176,0
3.425,1,0.24813,0.23039,0.59215,0
3.425,1,0.2492,0.23138,0.59255,0
3.425,1,0.25027,0.23237,0.59295,0
3.425,1,0.25134,0.23337,0.59335,0
3.425,1,0.25241,0.23436,0.59374,0
3.425,1,0.25348,0.23535,0.59414,0
3.425,1,0.25455,0.23635,0.59454,0
3.425,1,0.25562,0.23734,0.59494,0
3.425,1,0.25669,0.23833,0.59533,0
3.425,1,0.25776,0.23932,0.59573,0
3.425,1,0.25883,0.24032,0.59613,0
3.425,1,0.2599,0.24131,0.59652,0
3.425,1,0.26097,0.2423,0.59692,0
3.425,1,0.26204,0.2433,0.59732,0
3.425,1,0.26311,0.24429,0.59772,0
3.425,1,0.26418,0.24528,0.59811,0
3.425,1,0.26525,0.24628,0.59851,0
3.425,1,0.26632,0.24727,0.59891,0
3.425,1,0.26739,0.24826,0.5993,0
3.425,1,0.26846,0.24926,0.5997,0
3.425,1,0.26953,0.25025,0.6001,0
3.425,1,0.2706,0.25124,0.6005,0
3.3933,1,0.27166,0.25223,0.60089,0
3.3933,1,0.27273,0.25323,0.60129,0
3.3933,1,0.2738,0.25422,0.60169,0
3.3933,1,0.27487,0.25521,0.60209,0
3.3933,1,0.27594,0.25621,0.60248,0
3.3933,1,0.27701,0.2572,0.60288,0
3.3933,1,0.27808,0.25819,0.60328,0
3.3933,1,0.27915,0.25919,0.60367,0
3.3933,1,0.28022,0.26018,0.60407,0
3.3933,1,0.28129,0.26117,0.60447,0
3.3933,1,0.28236,0.26216,0.60487,0
3.3933,1,0.28343,0.26316,0.60526,0
3.3933,1,0.2845,0.26415,0.60566,0
3.3933,1,0.28557,0.26514,0.60606,0
3.3933,1,0.28664,0.26614,0.60645,0
3.3933,1,0.28771,0.26713,0.60685,0
3.3933,1,0.28878,0.26812,0.60725,0
3.3933,1,0.28985,0.26912,0.60765,0
3.3933,1,0.29092,0.27011,0.60804,0
3.3933,1,0.29199,0.2711,0.60844,0
3.3933,1,0.29306,0.2721,0.60884,0
3.3933,1,0.29413,0.27309,0.60924,0
3.3933,1,0.29519,0.27408,0.60963,0
3.3933,1,0.29626,0.27507,0.61003,0
3.3933,1,0.29733,0.27607,0.61043,0
3.3594,1,0.2984,0.27706,0.61082,0
3.3594,1,0.29947,0.27805,0.61122,0
3.3594,1,0.30054,0.27905,0.61162,0
3.3493,1,0.30161,0.28004,0.61202,0
3.3493,1,0.30268,0.28103,0.61241,0
3.3493,1,0.30375,0.28203,0.61281,0
3.3493,1,0.30482,0.28302,0.61321,0
3.3493,1,0.30589,0.28401,0.6136,0
3.3493,1,0.30696,0.285,0.614,0
3.3493,1,0.30803,0.286,0.6144,0
3.3493,1,0.3091,0.28699,0.6148,0
3.3493,1,0.31017,0.28798,0.61519,0
3.3694,1,0.31124,0.28898,0.61559,0
3.3694,1,0.31231,0.28997,0.61599,0
3.3694,1,0.31338,0.29096,0.61639,0
3.3694,1,0.31445,0.29196,0.61678,0
3.3694,1,0.31552,0.29295,0.61718,0
3.3694,1,0.31659,0.29394,0.61758,0
3.3694,1,0.31766,0.29494,0.61797,0
3.3694,1,0.31872,0.29593,0.61837,0
3.3694,1,0.31979,0.29692,0.61877,0
3.3694,1,0.32086,0.29791,0.61917,0
3.3694,1,0.32193,0.29891,0.61956,0
3.3694,1,0.323,0.2999,0.61996,0
3.3694,1,0.32407,0.30089,0.62036,0
3.3694,1,0.32514,0.30189,0.62075,0
3.3694,1,0.32621,0.30288,0.62115,0
3.3694,1,0.32728,0.30387,0.62155,0
3.3694,1,0.32835,0.30487,0.62195,0
3.3694,1,0.32942,0.30586,0.62234,0
3.3694,1,0.33049,0.30685,0.62274,0
3.3694,1,0.33156,0.30785,0.62314,0
3.3694,1,0.33263,0.30884,0.62354,0
3.3694,1,0.3337,0.30983,0.62393,0
3.3694,1,0.33477,0.31082,0.62433,0
3.3694,1,0.33584,0.31182,0.62473,0
3.3694,1,0.33691,0.31281,0.62512,0
3.3694,1,0.33798,0.3138,0.62552,0
3.3694,1,0.33905,0.3148,0.62592,0
3.3694,1,0.34012,0.31579,0.62632,0
3.3694,1,0.34119,0.31678,0.62671,0
3.3694,1,0.34225,0.31778,0.62711,0
3.3694,1,0.34332,0.31877,0.62751,0
3.3694,1,0.34439,0.31976,0.6279,0
3.3694,1,0.34546,0.32075,0.6283,0
3.3694,1,0.34653,0.32175,0.6287,0
2.7079,1,0.3476,0.32274,0.6291,0
2.7079,1,0.34867,0.32373,0.62949,0
2.7079,1,0.34974,0.32473,0.62989,0
2.7079,1,0.35081,0.32572,0.63029,0
2.7079,1,0.35188,0.32671,0.63069,0
2.7079,1,0.35295,0.32771,0.63108,0
2.7079,1,0.35402,0.3287,0.63148,0
2.7079,1,0.35509,0.32969,0.63188,0
2.7079,1,0.35616,0.33069,0.63227,0
2.7079,1,0.35723,0.33168,0.63267,0
2.7079,1,0.3583,0.33267,0.63307,0
2.7079,1,0.35937,0.33366,0.63347,0
2.7079,1,0.36044,0.33466,0.63386,0
2.7079,1,0.36151,0.33565,0.63426,0
2.7079,1,0.36258,0.33664,0.63466,0
2.7079,1,0.36365,0.33764,0.63505,0
2.7079,1,0.36472,0.33863,0.63545,0
2.7045,1,0.36578,0.33962,0.63585,0
2.7045,1,0.36685,0.34062,0.63625,0
2.7045,1,0.36792,0.34161,0.63664,0
2.7045,1,0.36899,0.3426,0.63704,0
2.7045,1,0.37006,0.34359,0.63744,0
2.7045,1,0.37113,0.34459,0.63784,0
2.7045,1,0.3722,0.34558,0.63823,0
2.7045,1,0.37327,0.34657,0.63863,0
2.7045,1,0.37434,0.34757,0.63903,0
2.7045,1,0.37541,0.34856,0.63942,0
2.7045,1,0.37648,0.34955,0.63982,0
2.7045,1,0.37755,0.35055,0.64022,0
2.7045,1,0.37862,0.35154,0.64062,0
2.7045,1,0.37969,0.35253,0.64101,0
2.7045,1,0.38076,0.35353,0.64141,0
2.7045,1,0.38183,0.35452,0.64181,0
2.7045,1,0.3829,0.35551,0.6422,0
2.7045,1,0.38397,0.3565,0.6426,0
2.7045,1,0.38504,0.3575,0.643,0
2.7045,1,0.38611,0.35849,0.6434,0
2.7045,1,0.38718,0.35948,0.64379,0
2.7045,1,0.38825,0.36048,0.64419,0
2.7045,1,0.38931,0.36147,0.64459,0
2.7045,1,0.39038,0.36246,0.64499,0
2.7045,1,0.39145,0.36346,0.64538,0
2.6869,1,0.39252,0.36445,0.64578,0
2.6869,1,0.39359,0.36544,0.64618,0
2.6869,1,0.39466,0.36643,0.64657,0
2.6869,1,0.39573,0.36743,0.64697,0
2.6869,1,0.3968,0.36842,0.64737,0
2.6869,1,0.39787,0.36941,0.64777,0
2.6869,1,0.39894,0.37041,0.64816,0
2.6869,1,0.40001,0.3714,0.64856,0
2.6869,1,0.40108,0.37239,0.64896,0
2.6869,1,0.40215,0.37339,0.64935,0
2.6869,1,0.40322,0.37438,0.64975,0
2.6869,1,0.40429,0.37537,0.65015,0
2.6869,1,0.40536,0.37637,0.65055,0
2.6869,1,0.40643,0.37736,0.65094,0
2.6869,1,0.4075,0.37835,0.65134,0
2.6869,1,0.40857,0.37934,0.65174,0
2.6869,1,0.40964,0.38034,0.65214,0
2.6869,1,0.41071,0.38133,0.65253,0
2.6652,1,0.41178,0.38232,0.65293,0
2.6652,1,0.41284,0.38332,0.65333,0
2.6652,1,0.41391,0.38431,0.65372,0
2.6652,1,0.41498,0.3853,0.65412,0
2.6652,1,0.41605,0.3863,0.65452,0
2.6652,1,0.41712,0.38729,0.65492,0
2.6652,1,0.41819,0.38828,0.65531,0
2.6652,1,0.41926,0.38928,0.65571,0
2.6652,1,0.42033,0.39027,0.65611,0
2.6652,1,0.4214,0.39126,0.6565,0
2.6652,1,0.42247,0.39225,0.6569,0
2.6652,1,0.42354,0.39325,0.6573,0
2.6652,1,0.42461,0.39424,0.6577,0
2.6652,1,0.42568,0.39523,0.65809,0
2.6652,1,0.42675,0.39623,0.65849,0
2.6652,1,0.42782,0.39722,0.65889,0
2.6652,1,0.42889,0.39821,0.65929,0
2.6652,1,0.42996,0.39921,0.65968,0
2.6551,1,0.43103,0.4002,0.66008,0
2.6551,1,0.4321,0.40119,0.66048,0
2.6551,1,0.43317,0.40218,0.66087,0
2.6551,1,0.43424,0.40318,0.66127,0
2.6551,1,0.43531,0.40417,0.66167,0
2.6551,1,0.43637,0.40516,0.66207,0
2.6551,1,0.43744,0.40616,0.66246,0
2.6551,1,0.43851,0.40715,0.66286,0
2.6551,1,0.43958,0.40814,0.66326,0
2.6551,1,0.44065,0.40914,0.66365,0
2.6551,1,0.44172,0.41013,0.66405,0
2.6551,1,0.44279,0.41112,0.66445,0
2.6551,1,0.44386,0.41212,0.66485,0
2.6551,1,0.44493,0.41311,0.66524,0
2.6353,1,0.446,0.4141,0.66564,0
2.6353,1,0.44707,0.41509,0.66604,0
2.6353,1,0.44814,0.41609,0.66643,0
2.6353,1,0.44921,0.41708,0.66683,0
2.6353,1,0.45028,0.41807,0.66723,0
2.6353,1,0.45135,0.41907,0.66763,0
2.6353,1,0.45242,0.42006,0.66802,0
2.6353,1,0.45349,0.42105,0.66842,0
2.6353,1,0.45456,0.42205,0.66882,0
2.6353,1,0.45563,0.42304,0.66922,0
2.6353,1,0.4567,0.42403,0.66961,0
2.6353,1,0.45777,0.42502,0.67001,0
2.6353,1,0.45884,0.42602,0.67041,0
2.6353,1,0.4599,0.42701,0.6708,0
2.6353,1,0.46097,0.428,0.6712,0
2.6353,1,0.46204,0.429,0.6716,0
2.6353,1,0.46311,0.42999,0.672,0
2.6353,1,0.46418,0.43098,0.67239,0
2.6353,1,0.46525,0.43198,0.67279,0
2.6353,1,0.46632,0.43297,0.67319,0
2.6353,1,0.46739,0.43396,0.67358,0
2.6353,1,0.46846,0.43496,0.67398,0
2.6353,1,0.46953,0.43595,0.67438,0
2.6353,1,0.4706,0.43694,0.67478,0
2.6353,1,0.47167,0.43793,0.67517,0
2.6265,1,0.47274,0.43893,0.67557,0
2.6265,1,0.47381,0.43992,0.67597,0
2.6265,1,0.47488,0.44091,0.67637,0
2.6265,1,0.47595,0.44191,0.67676,0
2.6265,1,0.47702,0.4429,0.67716,0
2.6265,1,0.47809,0.44389,0.67756,0
2.6084,1,0.47916,0.44489,0.67795,0
2.6084,1,0.48023,0.44588,0.67835,0
2.6084,1,0.4813,0.44687,0.67875,0
2.6084,1,0.48237,0.44786,0.67915,0
2.6084,1,0.48343,0.44886,0.67954,0
2.6084,1,0.4845,0.44985,0.67994,0
2.6084,1,0.48557,0.45084,0.68034,0
2.6084,1,0.48664,0.45184,0.68073,0
2.6084,1,0.48771,0.45283,0.68113,0
2.5905,1,0.48878,0.45382,0.68153,0
2.5905,1,0.48985,0.45482,0.68193,0
2.5905,1,0.49092,0.45581,0.68232,0
2.5905,1,0.49199,0.4568,0.68272,0
2.5905,1,0.49306,0.4578,0.68312,0
2.5905,1,0.49413,0.45879,0.68352,0
2.5905,1,0.4952,0.45978,0.68391,0
2.5905,1,0.49627,0.46077,0.68431,0
2.5905,1,0.49734,0.46177,0.68471,0
2.5905,1,0.49841,0.46276,0.6851,0
2.5905,1,0.49948,0.46375,0.6855,0
2.5905,1,0.50055,0.46475,0.6859,0
2.5905,1,0.50162,0.46574,0.6863,0
2.5905,1,0.50269,0.46673,0.68669,0
2.5905,1,0.50376,0.46773,0.68709,0
2.5905,1,0.50483,0.46872,0.68749,0
2.5905,1,0.5059,0.46971,0.68788,0
2.5905,1,0.50696,0.47071,0.68828,0
2.5905,1,0.50803,0.4717,0.68868,0
2.5717,1,0.5091,0.47269,0.68908,0
2.5717,1,0.51017,0.47368,0.68947,0
2.5717,1,0.51124,0.47468,0.68987,0
2.5717,1,0.51231,0.47567,0.69027,0
2.5717,1,0.51338,0.47666,0.69067,0
2.5717,1,0.51445,0.47766,0.69106,0
2.5717,1,0.51552,0.47865,0.69146,0
2.5717,1,0.51659,0.47964,0.69186,0
2.5717,1,0.51766,0.48064,0.69225,0
2.5717,1,0.51873,0.48163,0.69265,0
2.5717,1,0.5198,0.48262,0.69305,0
2.5717,1,0.52087,0.48361,0.69345,0
2.5717,1,0.52194,0.48461,0.69384,0
2.5717,1,0.52301,0.4856,0.69424,0
2.5717,1,0.52408,0.48659,0.69464,0
2.5717,1,0.52515,0.48759,0.69503,0
2.5717,1,0.52622,0.48858,0.69543,0
2.5717,1,0.52729,0.48957,0.69583,0
2.5717,1,0.52836,0.49057,0.69623,0
2.5717,1,0.52943,0.49156,0.69662,0
2.5717,1,0.53049,0.49255,0.69702,0
2.5717,1,0.53156,0.49355,0.69742,0
2.5717,1,0.53263,0.49454,0.69782,0
2.5717,1,0.5337,0.49553,0.69821,0
2.5646,1,0.53477,0.49652,0.69861,0
2.5646,1,0.53584,0.49752,0.69901,0
2.5646,1,0.53691,0.49851,0.6994,0
2.5646,1,0.53798,0.4995,0.6998,0
2.5646,1,0.53905,0.5005,0.7002,0
2.5445,1,0.54012,0.50149,0.7006,0
2.5445,1,0.54119,0.50248,0.70099,0
2.5309,1,0.54226,0.50348,0.70139,0
2.5309,1,0.54333,0.50447,0.70179,0
2.5309,1,0.5444,0.50546,0.70218,0
2.5309,1,0.54547,0.50645,0.70258,0
2.5309,1,0.54654,0.50745,0.70298,0
2.5309,1,0.54761,0.50844,0.70338,0
2.5309,1,0.54868,0.50943,0.70377,0
2.5309,1,0.54975,0.51043,0.70417,0
2.5309,1,0.55082,0.51142,0.70457,0
2.5309,1,0.55189,0.51241,0.70497,0
2.5309,1,0.55296,0.51341,0.70536,0
2.5309,1,0.55402,0.5144,0.70576,0
2.5309,1,0.55509,0.51539,0.70616,0
2.5309,1,0.55616,0.51639,0.70655,0
2.5309,1,0.55723,0.51738,0.70695,0
2.5309,1,0.5583,0.51837,0.70735,0
2.5309,1,0.55937,0.51936,0.70775,0
2.5309,1,0.56044,0.52036,0.70814,0
2.5309,1,0.56151,0.52135,0.70854,0
2.5309,1,0.56258,0.52234,0.70894,0
2.5309,1,0.56365,0.52334,0.70933,0
2.5309,1,0.56472,0.52433,0.70973,0
2.5309,1,0.56579,0.52532,0.71013,0
2.5309,1,0.56686,0.52632,0.71053,0
2.5309,1,0.56793,0.52731,0.71092,0
2.5309,1,0.569,0.5283,0.71132,0
2.5309,1,0.57007,0.52929,0.71172,0
2.5309,1,0.57114,0.53029,0.71212,0
2.5118,1,0.57221,0.53128,0.71251,0
2.5118,1,0.57328,0.53227,0.71291,0
2.5118,1,0.57435,0.53327,0.71331,0
2.5118,1,0.57542,0.53426,0.7137,0
2.5118,1,0.57649,0.53525,0.7141,0
2.5118,1,0.57755,0.53625,0.7145,0
2.5118,1,0.57862,0.53724,0.7149,0
2.5118,1,0.57969,0.53823,0.71529,0
2.5118,1,0.58076,0.53923,0.71569,0
2.5118,1,0.58183,0.54022,0.71609,0
2.5118,1,0.5829,0.54121,0.71648,0
2.5118,1,0.58397,0.5422,0.71688,0
2.5118,1,0.58504,0.5432,0.71728,0
2.5118,1,0.58611,0.54419,0.71768,0
2.5118,1,0.58718,0.54518,0.71807,0
2.5118,1,0.58825,0.54618,0.71847,0
2.4945,1,0.58932,0.54717,0.71887,0
2.4945,1,0.59039,0.54816,0.71927,0
2.4945,1,0.59146,0.54916,0.71966,0
2.4945,1,0.59253,0.55015,0.72006,0
2.4945,1,0.5936,0.55114,0.72046,0
2.4945,1,0.59467,0.55214,0.72085,0
2.4945,1,0.59574,0.55313,0.72125,0
2.4945,1,0.59681,0.55412,0.72165,0
2.4945,1,0.59788,0.55511,0.72205,0
2.4945,1,0.59895,0.55611,0.72244,0
2.4945,1,0.60002,0.5571,0.72284,0
2.4945,1,0.60108,0.55809,0.72324,0
2.4945,1,0.60215,0.55909,0.72363,0
2.4945,1,0.60322,0.56008,0.72403,0
2.4945,1,0.60429,0.56107,0.72443,0
2.4945,1,0.60536,0.56207,0.72483,0
2.4945,1,0.60643,0.56306,0.72522,0
2.48,1,0.6075,0.56405,0.72562,0
2.48,1,0.60857,0.56504,0.72602,0
2.48,1,0.60964,0.56604,0.72642,0
2.48,1,0.61071,0.56703,0.72681,0
2.48,1,0.61178,0.56802,0.72721,0
2.48,1,0.61285,0.56902,0.72761,0
2.48,1,0.61392,0.57001,0.728,0
2.48,1,0.61499,0.571,0.7284,0
2.48,1,0.61606,0.572,0.7288,0
2.48,1,0.61713,0.57299,0.7292,0
2.48,1,0.6182,0.57398,0.72959,0
2.48,1,0.61927,0.57498,0.72999,0
2.48,1,0.62034,0.57597,0.73039,0
2.48,1,0.62141,0.57696,0.73078,0
2.48,1,0.62248,0.57795,0.73118,0
2.48,1,0.62355,0.57895,0.73158,0
2.48,1,0.62461,0.57994,0.73198,0
2.48,1,0.62568,0.58093,0.73237,0
2.4636,1,0.62675,0.58193,0.73277,0
2.4636,1,0.62782,0.58292,0.73317,0
2.4636,1,0.62889,0.58391,0.73357,0
2.4636,1,0.62996,0.58491,0.73396,0
2.4636,1,0.63103,0.5859,0.73436,0
2.4636,1,0.6321,0.58689,0.73476,0
2.4636,1,0.63317,0.58788,0.73515,0
2.4636,1,0.63424,0.58888,0.73555,0
2.4544,1,0.63531,0.58987,0.73595,0
2.4544,1,0.63638,0.59086,0.73635,0
2.4544,1,0.63745,0.59186,0.73674,0
2.4544,1,0.63852,0.59285,0.73714,0
2.4544,1,0.63959,0.59384,0.73754,0
2.4544,1,0.64066,0.59484,0.73793,0
2.4544,1,0.64173,0.59583,0.73833,0
2.4544,1,0.6428,0.59682,0.73873,0
2.4544,1,0.64387,0.59782,0.73913,0
2.4544,1,0.64494,0.59881,0.73952,0
2.4544,1,0.64601,0.5998,0.73992,0
2.4544,1,0.64708,0.60079,0.74032,0
2.4544,1,0.64814,0.60179,0.74071,0
2.4544,1,0.64921,0.60278,0.74111,0
2.4415,1,0.65028,0.60377,0.74151,0
2.4415,1,0.65135,0.60477,0.74191,0
2.4415,1,0.65242,0.60576,0.7423,0
2.4415,1,0.65349,0.60675,0.7427,0
2.4415,1,0.65456,0.60775,0.7431,0
2.4415,1,0.65563,0.60874,0.7435,0
2.4415,1,0.6567,0.60973,0.74389,0
2.4415,1,0.65777,0.61072,0.74429,0
2.4415,1,0.65884,0.61172,0.74469,0
2.4415,1,0.65991,0.61271,0.74508,0
2.4415,1,0.66098,0.6137,0.74548,0
2.4415,1,0.66205,0.6147,0.74588,0
2.4415,1,0.66312,0.61569,0.74628,0
2.4415,1,0.66419,0.61668,0.74667,0
2.4415,1,0.66526,0.61768,0.74707,0
2.4415,1,0.66633,0.61867,0.74747,0
2.4415,1,0.6674,0.61966,0.74786,0
2.4415,1,0.66847,0.62066,0.74826,0
2.4415,1,0.66954,0.62165,0.74866,0
2.4308,1,0.67061,0.62264,0.74906,0
2.4308,1,0.67168,0.62363,0.74945,0
2.4308,1,0.67274,0.62463,0.74985,0
2.4308,1,0.67381,0.62562,0.75025,0
2.4308,1,0.67488,0.62661,0.75065,0
2.4308,1,0.67595,0.62761,0.75104,0
2.4308,1,0.67702,0.6286,0.75144,0
2.418,1,0.67809,0.62959,0.75184,0
2.418,1,0.67916,0.63059,0.75223,0
2.418,1,0.68023,0.63158,0.75263,0
2.418,1,0.6813,0.63257,0.75303,0
2.418,1,0.68237,0.63357,0.75343,0
2.418,1,0.68344,0.63456,0.75382,0
2.418,1,0.68451,0.63555,0.75422,0
2.418,1,0.68558,0.63654,0.75462,0
2.418,1,0.68665,0.63754,0.75501,0
2.418,1,0.68772,0.63853,0.75541,0
2.418,1,0.68879,0.63952,0.75581,0
2.418,1,0.68986,0.64052,0.75621,0
2.418,1,0.69093,0.64151,0.7566,0
2.418,1,0.692,0.6425,0.757,0
2.418,1,0.69307,0.6435,0.7574,0
2.418,1,0.69414,0.64449,0.7578,0
2.418,1,0.69521,0.64548,0.75819,0
2.418,1,0.69627,0.64647,0.75859,0
2.418,1,0.69734,0.64747,0.75899,0
2.418,1,0.69841,0.64846,0.75938,0
2.4051,1,0.69948,0.64945,0.75978,0
2.4051,1,0.70055,0.65045,0.76018,0
2.4051,1,0.70162,0.65144,0.76058,0
2.4051,1,0.70269,0.65243,0.76097,0
2.3901,1,0.70376,0.65343,0.76137,0
2.3901,1,0.70483,0.65442,0.76177,0
2.3901,1,0.7059,0.65541,0.76216,0
2.3901,1,0.70697,0.65641,0.76256,0
2.3901,1,0.70804,0.6574,0.76296,0
2.3901,1,0.70911,0.65839,0.76336,0
2.3901,1,0.71018,0.65938,0.76375,0
2.3901,1,0.71125,0.66038,0.76415,0
2.3901,1,0.71232,0.66137,0.76455,0
2.3901,1,0.71339,0.66236,0.76495,0
2.3901,1,0.71446,0.66336,0.76534,0
2.3901,1,0.71553,0.66435,0.76574,0
2.3901,1,0.7166,0.66534,0.76614,0
2.3901,1,0.71767,0.66634,0.76653,0
2.3901,1,0.71874,0.66733,0.76693,0
2.3901,1,0.7198,0.66832,0.76733,0
2.3901,1,0.72087,0.66931,0.76773,0
1.5397,1,0.72194,0.67031,0.76812,0
1.5397,1,0.72301,0.6713,0.76852,0
1.5397,1,0.72408,0.67229,0.76892,0
1.5397,1,0.72515,0.67329,0.76931,0
1.5397,1,0.72622,0.67428,0.76971,0
1.5397,1,0.72729,0.67527,0.77011,0
1.5397,1,0.72836,0.67627,0.77051,0
1.5397,1,0.72943,0.67726,0.7709,0
1.5397,1,0.7305,0.67825,0.7713,0
1.5397,1,0.73157,0.67925,0.7717,0
1.5397,1,0.73264,0.68024,0.7721,0
1.5397,1,0.73371,0.68123,0.77249,0
1.5397,1,0.73478,0.68222,0.77289,0
1.5397,1,0.73585,0.68322,0.77329,0
1.5397,1,0.73692,0.68421,0.77368,0
1.5397,1,0.73799,0.6852,0.77408,0
1.5397,1,0.73906,0.6862,0.77448,0
1.5397,1,0.74013,0.68719,0.77488,0
1.5397,1,0.7412,0.68818,0.77527,0
1.5397,1,0.74227,0.68918,0.77567,0
1.5397,1,0.74333,0.69017,0.77607,0
1.5397,1,0.7444,0.69116,0.77646,0
1.5562,1,0.74547,0.69215,0.77686,0
1.5562,1,0.74654,0.69315,0.77726,0
1.5562,1,0.74761,0.69414,0.77766,0
1.5562,1,0.74868,0.69513,0.77805,0
1.5618,1,0.74975,0.69613,0.77845,0
1.5618,1,0.75082,0.69712,0.77885,0
1.5618,1,0.75189,0.69811,0.77925,0
1.5618,1,0.75296,0.69911,0.77964,0
1.5618,1,0.75403,0.7001,0.78004,0
1.5618,1,0.7551,0.70109,0.78044,0
1.5618,1,0.75617,0.70209,0.78083,0
1.5618,1,0.75724,0.70308,0.78123,0
1.5618,1,0.75831,0.70407,0.78163,0
1.5618,1,0.75938,0.70506,0.78203,0
1.5618,1,0.76045,0.70606,0.78242,0
1.5618,1,0.76152,0.70705,0.78282,0
1.5618,1,0.76259,0.70804,0.78322,0
1.5618,1,0.76366,0.70904,0.78361,0
1.5618,1,0.76473,0.71003,0.78401,0
1.5618,1,0.7658,0.71102,0.78441,0
1.5618,1,0.76686,0.71202,0.78481,0
1.5618,1,0.76793,0.71301,0.7852,0
1.5618,1,0.769,0.714,0.7856,0
1.5618,1,0.77007,0.715,0.786,0
1.5618,1,0.77114,0.71599,0.7864,0
1.5618,1,0.77221,0.71698,0.78679,0
1.5618,1,0.77328,0.71797,0.78719,0
1.5618,1,0.77435,0.71897,0.78759,0
1.5618,1,0.77542,0.71996,0.78798,0
1.5618,1,0.77649,0.72095,0.78838,0
1.5618,1,0.77756,0.72195,0.78878,0
1.5618,1,0.77863,0.72294,0.78918,0
1.5618,1,0.7797,0.72393,0.78957,0
1.5618,1,0.78077,0.72493,0.78997,0
1.53,1,0.78184,0.72592,0.79037,0
1.53,1,0.78291,0.72691,0.79076,0
1.5132,1,0.78398,0.7279,0.79116,0
1.5132,1,0.78505,0.7289,0.79156,0
1.5132,1,0.78612,0.72989,0.79196,0
1.5132,1,0.78719,0.73088,0.79235,0
1.5364,1,0.78826,0.73188,0.79275,0
1.5364,1,0.78933,0.73287,0.79315,0
1.5364,1,0.79039,0.73386,0.79355,0
1.5364,1,0.79146,0.73486,0.79394,0
1.5364,1,0.79253,0.73585,0.79434,0
1.5364,1,0.7936,0.73684,0.79474,0
1.5364,1,0.79467,0.73784,0.79513,0
1.5364,1,0.79574,0.73883,0.79553,0
1.5364,1,0.79681,0.73982,0.79593,0
1.5364,1,0.79788,0.74081,0.79633,0
1.5364,1,0.79895,0.74181,0.79672,0
1.5364,1,0.80002,0.7428,0.79712,0
1.5364,1,0.80109,0.74379,0.79752,0
1.5364,1,0.80216,0.74479,0.79791,0
1.5364,1,0.80323,0.74578,0.79831,0
1.5364,1,0.8043,0.74677,0.79871,0
1.5364,1,0.80537,0.74777,0.79911,0
1.5364,1,0.80644,0.74876,0.7995,0
1.5364,1,0.80751,0.74975,0.7999,0
1.5364,1,0.80858,0.75074,0.8003,0
1.5364,1,0.80965,0.75174,0.8007,0
1.5364,1,0.81072,0.75273,0.80109,0
1.5364,1,0.81179,0.75372,0.80149,0
1.5364,1,0.81286,0.75472,0.80189,0
1.5364,1,0.81392,0.75571,0.80228,0
1.5364,1,0.81499,0.7567,0.80268,0
1.5364,1,0.81606,0.7577,0.80308,0
1.5364,1,0.81713,0.75869,0.80348,0
1.5364,1,0.8182,0.75968,0.80387,0
1.5364,1,0.81927,0.76068,0.80427,0
1.5364,1,0.82034,0.76167,0.80467,0
1.5182,1,0.82141,0.76266,0.80506,0
1.5182,1,0.82248,0.76365,0.80546,0
1.5182,1,0.82355,0.76465,0.80586,0
1.4794,1,0.82462,0.76564,0.80626,0
1.4794,1,0.82569,0.76663,0.80665,0
1.4794,1,0.82676,0.76763,0.80705,0
1.4794,1,0.82783,0.76862,0.80745,0
1.4794,1,0.8289,0.76961,0.80785,0
1.4794,1,0.82997,0.77061,0.80824,0
1.4794,1,0.83104,0.7716,0.80864,0
1.4794,1,0.83211,0.77259,0.80904,0
1.4794,1,0.83318,0.77358,0.80943,0
1.4794,1,0.83425,0.77458,0.80983,0
1.4794,1,0.83532,0.77557,0.81023,0
1.4794,1,0.83639,0.77656,0.81063,0
1.4794,1,0.83745,0.77756,0.81102,0
1.4794,1,0.83852,0.77855,0.81142,0
1.4794,1,0.83959,0.77954,0.81182,0
1.4794,1,0.84066,0.78054,0.81221,0
1.4794,1,0.84173,0.78153,0.81261,0
1.4794,1,0.8428,0.78252,0.81301,0
1.4794,1,0.84387,0.78352,0.81341,0
1.4794,1,0.84494,0.78451,0.8138,0
1.4794,1,0.84601,0.7855,0.8142,0
1.4794,1,0.84708,0.78649,0.8146,0
1.4794,1,0.84815,0.78749,0.815,0
1.4794,1,0.84922,0.78848,0.81539,0
1.4794,1,0.85029,0.78947,0.81579,0
1.4794,1,0.85136,0.79047,0.81619,0
1.4794,1,0.85243,0.79146,0.81658,0
1.4794,1,0.8535,0.79245,0.81698,0
1.4794,1,0.85457,0.79345,0.81738,0
1.4794,1,0.85564,0.79444,0.81778,0
1.4543,1,0.85671,0.79543,0.81817,0
1.4543,1,0.85778,0.79643,0.81857,0
1.4114,1,0.85885,0.79742,0.81897,0
1.4114,1,0.85992,0.79841,0.81936,0
1.4114,1,0.86098,0.7994,0.81976,0
1.4114,1,0.86205,0.8004,0.82016,0
1.4114,1,0.86312,0.80139,0.82056,0
1.4114,1,0.86419,0.80238,0.82095,0
1.4114,1,0.86526,0.80338,0.82135,0
1.4114,1,0.86633,0.80437,0.82175,0
1.4114,1,0.8674,0.80536,0.82214,0
1.4114,1,0.86847,0.80636,0.82254,0
1.4114,1,0.86954,0.80735,0.82294,0
1.4114,1,0.87061,0.80834,0.82334,0
1.4114,1,0.87168,0.80933,0.82373,0
1.401,1,0.87275,0.81033,0.82413,0
1.401,1,0.87382,0.81132,0.82453,0
1.401,1,0.87489,0.81231,0.82493,0
1.401,1,0.87596,0.81331,0.82532,0
1.401,1,0.87703,0.8143,0.82572,0
1.401,1,0.8781,0.81529,0.82612,0
1.401,1,0.87917,0.81629,0.82651,0
1.401,1,0.88024,0.81728,0.82691,0
1.401,1,0.88131,0.81827,0.82731,0
1.401,1,0.88238,0.81927,0.82771,0
1.401,1,0.88345,0.82026,0.8281,0
1.401,1,0.88451,0.82125,0.8285,0
1.401,1,0.88558,0.82224,0.8289,0
1.401,1,0.88665,0.82324,0.82929,0
1.401,1,0.88772,0.82423,0.82969,0
1.401,1,0.88879,0.82522,0.83009,0
1.401,1,0.88986,0.82622,0.83049,0
1.401,1,0.89093,0.82721,0.83088,0
1.401,1,0.892,0.8282,0.83128,0
1.401,1,0.89307,0.8292,0.83168,0
1.401,1,0.89414,0.83019,0.83208,0
1.401,1,0.89521,0.83118,0.83247,0
1.401,1,0.89628,0.83217,0.83287,0
1.401,1,0.89735,0.83317,0.83327,0
1.401,1,0.89842,0.83416,0.83366,0
1.401,1,0.89949,0.83515,0.83406,0
1.401,1,0.90056,0.83615,0.83446,0
1.401,1,0.90163,0.83714,0.83486,0
1.401,1,0.9027,0.83813,0.83525,0
1.3634,1,0.90377,0.83913,0.83565,0
1.3634,1,0.90484,0.84012,0.83605,0
1.3634,1,0.90591,0.84111,0.83644,0
1.3634,1,0.90698,0.84211,0.83684,0
1.3367,1,0.90804,0.8431,0.83724,0
1.3367,1,0.90911,0.84409,0.83764,0
1.3367,1,0.91018,0.84508,0.83803,0
1.3367,1,0.91125,0.84608,0.83843,0
1.3367,1,0.91232,0.84707,0.83883,0
1.3367,1,0.91339,0.84806,0.83923,0
1.3367,1,0.91446,0.84906,0.83962,0
1.3367,1,0.91553,0.85005,0.84002,0
1.3367,1,0.9166,0.85104,0.84042,0
1.3367,1,0.91767,0.85204,0.84081,0
1.3367,1,0.91874,0.85303,0.84121,0
1.3367,1,0.91981,0.85402,0.84161,0
1.3367,1,0.92088,0.85501,0.84201,0
1.3367,1,0.92195,0.85601,0.8424,0
1.3367,1,0.92302,0.857,0.8428,0
1.3367,1,0.92409,0.85799,0.8432,0
1.3367,1,0.92516,0.85899,0.84359,0
1.3367,1,0.92623,0.85998,0.84399,0
1.3367,1,0.9273,0.86097,0.84439,0
1.3367,1,0.92837,0.86197,0.84479,0
1.3367,1,0.92944,0.86296,0.84518,0
1.3367,1,0.93051,0.86395,0.84558,0
1.3367,1,0.93157,0.86495,0.84598,0
1.3367,1,0.93264,0.86594,0.84638,0
1.3367,1,0.93371,0.86693,0.84677,0
1.3367,1,0.93478,0.86792,0.84717,0
1.3367,1,0.93585,0.86892,0.84757,0
1.3367,1,0.93692,0.86991,0.84796,0
1.3367,1,0.93799,0.8709,0.84836,0
1.3162,1,0.93906,0.8719,0.84876,0
1.3162,1,0.94013,0.87289,0.84916,0
1.3162,1,0.9412,0.87388,0.84955,0
1.3162,1,0.94227,0.87488,0.84995,0
1.3162,1,0.94334,0.87587,0.85035,0
1.3162,1,0.94441,0.87686,0.85074,0
1.3162,1,0.94548,0.87786,0.85114,0
1.3162,1,0.94655,0.87885,0.85154,0
1.3162,1,0.94762,0.87984,0.85194,0
1.3162,1,0.94869,0.88083,0.85233,0
1.3162,1,0.94976,0.88183,0.85273,0
1.3162,1,0.95083,0.88282,0.85313,0
1.3162,1,0.9519,0.88381,0.85353,0
1.3162,1,0.95297,0.88481,0.85392,0
1.3162,1,0.95404,0.8858,0.85432,0
1.3162,1,0.9551,0.88679,0.85472,0
1.3162,1,0.95617,0.88779,0.85511,0
1.3162,1,0.95724,0.88878,0.85551,0
1.3162,1,0.95831,0.88977,0.85591,0
1.3162,1,0.95938,0.89076,0.85631,0
1.3162,1,0.96045,0.89176,0.8567,0
1.2896,1,0.96152,0.89275,0.8571,0
1.2896,1,0.96259,0.89374,0.8575,0
1.2896,1,0.96366,0.89474,0.85789,0
1.2896,1,0.96473,0.89573,0.85829,0
1.2896,1,0.9658,0.89672,0.85869,0
1.2896,1,0.96687,0.89772,0.85909,0
1.2896,1,0.96794,0.89871,0.85948,0
1.2896,1,0.96901,0.8997,0.85988,0
1.2896,1,0.97008,0.9007,0.86028,0
1.2896,1,0.97115,0.90169,0.86068,0
1.2896,1,0.97222,0.90268,0.86107,0
1.2896,1,0.97329,0.90367,0.86147,0
1.2896,1,0.97436,0.90467,0.86187,0
1.2896,1,0.97543,0.90566,0.86226,0
1.2896,1,0.9765,0.90665,0.86266,0
1.2896,1,0.97757,0.90765,0.86306,0
1.2327,1,0.97863,0.90864,0.86346,0
1.2327,1,0.9797,0.90963,0.86385,0
1.2327,1,0.98077,0.91063,0.86425,0
1.2327,1,0.98184,0.91162,0.86465,0
1.2327,1,0.98291,0.91261,0.86504,0
1.2327,1,0.98398,0.9136,0.86544,0
1.2327,1,0.98505,0.9146,0.86584,0
1.2327,1,0.98612,0.91559,0.86624,0
1.2327,1,0.98719,0.91658,0.86663,0
1.2327,1,0.98826,0.91758,0.86703,0
1.2327,1,0.98933,0.91857,0.86743,0
1.2327,1,0.9904,0.91956,0.86783,0
1.2327,1,0.99147,0.92056,0.86822,0
1.2327,1,0.99254,0.92155,0.86862,0
1.2327,1,0.99361,0.92254,0.86902,0
1.2327,1,0.99468,0.92354,0.86941,0
1.2327,1,0.99575,0.92453,0.86981,0
1.2327,1,0.99682,0.92552,0.87021,0
1.2327,1,0.99789,0.92651,0.87061,0
1.2327,1,0.99896,0.92751,0.871,0
1.2327,1,1,0.9285,0.8714,0
1.2327,1,1.0011,0.92949,0.8718,0
1.2327,1,1.0022,0.93049,0.87219,0
1.2327,1,1.0032,0.93148,0.87259,0
1.2327,1,1.0043,0.93247,0.87299,0
1.2327,1,1.0054,0.93347,0.87339,0
1.2327,1,1.0064,0.93446,0.87378,0
1.2327,1,1.0075,0.93545,0.87418,0
1.2327,1,1.0086,0.93644,0.87458,0
1.2327,1,1.0097,0.93744,0.87498,0
1.2327,1,1.0107,0.93843,0.87537,0
1.2327,1,1.0118,0.93942,0.87577,0
1.2327,1,1.0129,0.94042,0.87617,0
1.2327,1,1.0139,0.94141,0.87656,0
1.2327,1,1.015,0.9424,0.87696,0
1.2327,1,1.0161,0.9434,0.87736,0
1.2327,1,1.0171,0.94439,0.87776,0
1.2327,1,1.0182,0.94538,0.87815,0
1.2327,1,1.0193,0.94638,0.87855,0
1.2327,1,1.0203,0.94737,0.87895,0
1.1937,1,1.0214,0.94836,0.87934,0
1.1937,1,1.0225,0.94935,0.87974,0
1.1409,1,1.0236,0.95035,0.88014,0
1.1409,1,1.0246,0.95134,0.88054,0
1.0704,1,1.0257,0.95233,0.88093,0
1.0704,1,1.0268,0.95333,0.88133,0
1.0704,1,1.0278,0.95432,0.88173,0
1.0704,1,1.0289,0.95531,0.88213,0
1.0704,1,1.03,0.95631,0.88252,0
1.0704,1,1.031,0.9573,0.88292,0
1.0704,1,1.0321,0.95829,0.88332,0
1.0704,1,1.0332,0.95929,0.88371,0
1.0704,1,1.0343,0.96028,0.88411,0
1.0704,1,1.0353,0.96127,0.88451,0
1.0704,1,1.0364,0.96226,0.88491,0
1.0704,1,1.0375,0.96326,0.8853,0
1.0704,1,1.0385,0.96425,0.8857,0
1.0704,1,1.0396,0.96524,0.8861,0
1.0704,1,1.0407,0.96624,0.88649,0
1.0704,1,1.0417,0.96723,0.88689,0
1.0704,1,1.0428,0.96822,0.88729,0
1.0704,1,1.0439,0.96922,0.88769,0
1.0704,1,1.0449,0.97021,0.88808,0
1.0704,1,1.046,0.9712,0.88848,0
1.0704,1,1.0471,0.97219,0.88888,0
1.0704,1,1.0482,0.97319,0.88928,0
1.0704,1,1.0492,0.97418,0.88967,0
1.0704,1,1.0503,0.97517,0.89007,0
1.0704,1,1.0514,0.97617,0.89047,0
1.0704,1,1.0524,0.97716,0.89086,0
1.0704,1,1.0535,0.97815,0.89126,0
1.0704,1,1.0546,0.97915,0.89166,0
1.0704,1,1.0556,0.98014,0.89206,0
1.0704,1,1.0567,0.98113,0.89245,0
1.0704,1,1.0578,0.98213,0.89285,0
1.0704,1,1.0589,0.98312,0.89325,0
1.0704,1,1.0599,0.98411,0.89364,0
1.0704,1,1.061,0.9851,0.89404,0
1.0704,1,1.0621,0.9861,0.89444,0
1.0704,1,1.0631,0.98709,0.89484,0
1.0704,1,1.0642,0.98808,0.89523,0
1.0704,1,1.0653,0.98908,0.89563,0
1.0704,1,1.0663,0.99007,0.89603,0
1.0704,1,1.0674,0.99106,0.89643,0
1.0704,1,1.0685,0.99206,0.89682,0
1.0704,1,1.0695,0.99305,0.89722,0
1.0704,1,1.0706,0.99404,0.89762,0
1.0704,1,1.0717,0.99503,0.89801,0
1.0704,1,1.0728,0.99603,0.89841,0
1.0704,1,1.0738,0.99702,0.89881,0
1.0704,1,1.0749,0.99801,0.89921,0
1.0704,1,1.076,0.99901,0.8996,0
1.0501,1,1.077,1,0.9,0
