# vtk DataFile Version 2.0
Unstructured Grid Example
ASCII
DATASET UNSTRUCTURED_GRID
POINTS 92 float
0.500000 0.000000 0.000000 
0.500000 0.065000 0.000000 
0.500000 0.500000 0.000000 
0.500000 0.463000 0.000000 
0.500000 0.126000 0.000000 
0.500000 0.184000 0.000000 
0.500000 0.238000 0.000000 
0.500000 0.288000 0.000000 
0.500000 0.336000 0.000000 
0.500000 0.381000 0.000000 
0.500000 0.423000 0.000000 
0.000000 0.500000 0.000000 
0.041000 0.500000 0.000000 
0.464000 0.500000 0.000000 
0.427000 0.500000 0.000000 
0.390000 0.500000 0.000000 
0.353000 0.500000 0.000000 
0.316000 0.500000 0.000000 
0.278000 0.500000 0.000000 
0.239000 0.500000 0.000000 
0.200000 0.500000 0.000000 
0.161000 0.500000 0.000000 
0.121000 0.500000 0.000000 
0.081000 0.500000 0.000000 
0.750000 0.500000 0.000000 
0.786000 0.500000 0.000000 
1.000000 0.500000 0.000000 
0.952000 0.500000 0.000000 
0.907000 0.500000 0.000000 
0.864000 0.500000 0.000000 
0.824000 0.500000 0.000000 
0.625000 0.500000 0.000000 
0.654000 0.500000 0.000000 
0.717000 0.500000 0.000000 
0.685000 0.500000 0.000000 
0.533000 0.500000 0.000000 
0.596000 0.500000 0.000000 
0.565000 0.500000 0.000000 
0.500000 0.533000 0.000000 
0.500000 0.625000 0.000000 
0.500000 0.596000 0.000000 
0.500000 0.565000 0.000000 
0.500000 0.654000 0.000000 
0.500000 0.750000 0.000000 
0.500000 0.717000 0.000000 
0.500000 0.685000 0.000000 
0.500000 0.786000 0.000000 
0.500000 1.000000 0.000000 
0.500000 0.952000 0.000000 
0.500000 0.824000 0.000000 
0.500000 0.864000 0.000000 
0.500000 0.907000 0.000000 
0.625000 0.531000 0.000000 
0.625000 0.625000 0.000000 
0.625000 0.594000 0.000000 
0.625000 0.563000 0.000000 
0.531000 0.625000 0.000000 
0.594000 0.625000 0.000000 
0.563000 0.625000 0.000000 
0.750000 0.531000 0.000000 
0.750000 0.625000 0.000000 
0.750000 0.594000 0.000000 
0.750000 0.563000 0.000000 
0.654000 0.625000 0.000000 
0.717000 0.625000 0.000000 
0.685000 0.625000 0.000000 
0.625000 0.656000 0.000000 
0.625000 0.750000 0.000000 
0.625000 0.719000 0.000000 
0.625000 0.688000 0.000000 
0.533000 0.750000 0.000000 
0.596000 0.750000 0.000000 
0.565000 0.750000 0.000000 
0.750000 0.656000 0.000000 
0.750000 0.750000 0.000000 
0.750000 0.719000 0.000000 
0.750000 0.688000 0.000000 
0.654000 0.750000 0.000000 
0.717000 0.750000 0.000000 
0.685000 0.750000 0.000000 
0.786000 0.750000 0.000000 
1.000000 0.750000 0.000000 
0.952000 0.750000 0.000000 
0.907000 0.750000 0.000000 
0.864000 0.750000 0.000000 
0.824000 0.750000 0.000000 
0.750000 0.786000 0.000000 
0.750000 1.000000 0.000000 
0.750000 0.952000 0.000000 
0.750000 0.824000 0.000000 
0.750000 0.864000 0.000000 
0.750000 0.907000 0.000000 
CELLS 95 285
2  0 1 
2  2 3 
2  1 4 
2  4 5 
2  5 6 
2  6 7 
2  7 8 
2  8 9 
2  9 10 
2  10 3 
2  11 12 
2  2 13 
2  13 14 
2  14 15 
2  15 16 
2  16 17 
2  17 18 
2  18 19 
2  19 20 
2  20 21 
2  21 22 
2  22 23 
2  23 12 
2  24 25 
2  26 27 
2  27 28 
2  28 29 
2  29 30 
2  30 25 
2  31 32 
2  24 33 
2  33 34 
2  34 32 
2  2 35 
2  31 36 
2  36 37 
2  37 35 
2  2 38 
2  39 40 
2  38 41 
2  41 40 
2  39 42 
2  43 44 
2  42 45 
2  45 44 
2  43 46 
2  47 48 
2  46 49 
2  49 50 
2  50 51 
2  51 48 
2  31 52 
2  53 54 
2  52 55 
2  55 54 
2  39 56 
2  53 57 
2  57 58 
2  58 56 
2  24 59 
2  60 61 
2  59 62 
2  62 61 
2  53 63 
2  60 64 
2  64 65 
2  65 63 
2  53 66 
2  67 68 
2  66 69 
2  69 68 
2  43 70 
2  67 71 
2  71 72 
2  72 70 
2  60 73 
2  74 75 
2  73 76 
2  76 75 
2  67 77 
2  74 78 
2  78 79 
2  79 77 
2  74 80 
2  81 82 
2  82 83 
2  83 84 
2  84 85 
2  85 80 
2  74 86 
2  87 88 
2  86 89 
2  89 90 
2  90 91 
2  91 88 
CELL_TYPES 95
2
2
2
2
2
2
2
2
2
2
2
2
2
2
2
2
2
2
2
2
2
2
2
2
2
2
2
2
2
2
2
2
2
2
2
2
2
2
2
2
2
2
2
2
2
2
2
2
2
2
2
2
2
2
2
2
2
2
2
2
2
2
2
2
2
2
2
2
2
2
2
2
2
2
2
2
2
2
2
2
2
2
2
2
2
2
2
2
2
2
2
2
2
2
2
CELL_DATA 95
SCALARS u float 1
LOOKUP_TABLE default
1.185154
1.163318
1.184301
1.182816
1.180789
1.178313
1.175525
1.172545
1.169465
1.166373
1.320655
1.169219
1.184114
1.199061
1.213993
1.228872
1.243617
1.257877
1.271576
1.284564
1.296390
1.306743
1.315150
1.079484
1.008369
1.024405
1.039489
1.053686
1.067004
1.117009
1.090319
1.099604
1.108485
1.156307
1.125978
1.135676
1.145766
1.159017
1.142564
1.153543
1.148092
1.139428
1.135287
1.138557
1.137204
1.135909
1.145997
1.139095
1.141788
1.143931
1.145282
1.120573
1.116696
1.119298
1.118001
1.136768
1.119058
1.125035
1.130946
1.086372
1.091779
1.088058
1.089843
1.113238
1.095856
1.101799
1.107600
1.115322
1.111076
1.113896
1.112475
1.130945
1.113227
1.118959
1.124869
1.091143
1.081994
1.087943
1.084907
1.106905
1.084608
1.092383
1.099803
1.074852
1.007886
1.023000
1.037201
1.050557
1.063092
1.080327
1.078955
1.079907
1.079545
1.079256
1.079058
