1.185,0
1.185,0.059603
1.1841,0.059603
1.1841,0.11684
1.1827,0.11684
1.1827,0.1718
1.1808,0.1718
1.1808,0.22458
1.1784,0.22458
1.1784,0.27526
1.1757,0.27526
1.1757,0.32392
1.1727,0.32392
1.1727,0.37065
1.1696,0.37065
1.1696,0.41553
1.1663,0.41553
1.1663,0.45862
1.163,0.45862
1.163,0.5
1.1584,0.5
1.1584,0.5347
1.1527,0.5347
1.1527,0.56699
1.1473,0.56699
1.1473,0.59704
1.142,0.59704
1.142,0.625
1.139,0.625
1.139,0.65296
1.1382,0.65296
1.1382,0.68301
1.1369,0.68301
1.1369,0.7153
1.135,0.7153
1.135,0.75
1.1356,0.75
1.1356,0.78789
1.1389,0.78789
1.1389,0.82722
1.1417,0.82722
1.1417,0.86803
1.1438,0.86803
1.1438,0.9104
1.1453,0.9104
1.1453,0.95437
1.1462,0.95437
1.1462,1
