Method     #elem_m  #elem_f   err_m   err_f  #elem_m  #elem_f   err_m   err_f  #elem_m  #elem_f   err_m   err_f
Box-DFM       1078       74  4.1e-1  3.2e-1     4312      148  4.1e-1  3.2e-1    17248      296  4.1e-1  3.2e-1
CC-DFM        1386       95  5.6e-3  4.4e-3     4269      169  4.6e-3  3.6e-3    14866      317  2.5e-3  2.4e-3
CC-MPFA       1348       91  4.4e-3  3.6e-3     4673      169  2.4e-3  2.3e-3    17632      332  1.2e-3  1.7e-3
EDFM          1369      132  2.9e-1  3.2e-1     5625      266  2.9e-1  3.2e-1    22801      532  2.9e-1  3.2e-1
mortar-DFM    1280       75  4.3e-3  4.6e-3     5120      131  2.1e-3  2.6e-3    20480      277  1.1e-3  1.7e-3
P-XFEM         961      164  2.7e-3  2.4e-2     3969      292  1.4e-3  1.7e-2    16129      548  7.8e-4  1.2e-2
D-XFEM        1250      126  1.0e-2  1.8e-2     4802      246  1.1e-2  3.3e-2    19602      486  7.7e-3  2.2e-2

