Pressure,"vtkValidPointMask","Points:0","Points:1","Points:2"
1.184346,1.0000,0.5000,0.0000,0.0000
1.184346,1.0000,0.5000,0.0714,0.0000
1.183238,1.0000,0.5000,0.0714,0.0000
1.183238,1.0000,0.5000,0.1429,0.0000
1.181073,1.0000,0.5000,0.1429,0.0000
1.181073,1.0000,0.5000,0.2143,0.0000
1.177913,1.0000,0.5000,0.2143,0.0000
1.177913,1.0000,0.5000,0.2857,0.0000
1.173843,1.0000,0.5000,0.2857,0.0000
1.173843,1.0000,0.5000,0.3571,0.0000
1.169035,1.0000,0.5000,0.3571,0.0000
1.169035,1.0000,0.5000,0.4286,0.0000
1.163601,1.0000,0.5000,0.4286,0.0000
1.163601,1.0000,0.5000,0.5000,0.0000
1.157237,1.0000,0.5000,0.5000,0.0000
1.157237,1.0000,0.5000,0.5417,0.0000
1.150205,1.0000,0.5000,0.5417,0.0000
1.150205,1.0000,0.5000,0.5833,0.0000
1.142747,1.0000,0.5000,0.5833,0.0000
1.142747,1.0000,0.5000,0.6250,0.0000
1.138346,1.0000,0.5000,0.6250,0.0000
1.138346,1.0000,0.5000,0.6667,0.0000
1.136937,1.0000,0.5000,0.6667,0.0000
1.136937,1.0000,0.5000,0.7083,0.0000
1.134720,1.0000,0.5000,0.7083,0.0000
1.134720,1.0000,0.5000,0.7500,0.0000
1.136277,1.0000,0.5000,0.7500,0.0000
1.136277,1.0000,0.5000,0.8125,0.0000
1.140905,1.0000,0.5000,0.8125,0.0000
1.140905,1.0000,0.5000,0.8750,0.0000
1.143926,1.0000,0.5000,0.8750,0.0000
1.143926,1.0000,0.5000,0.9375,0.0000
1.145416,1.0000,0.5000,0.9375,0.0000
1.145416,1.0000,0.5000,1.0000,0.0000
