<?xml version="1.0"?>
<VTKFile type="UnstructuredGrid" version="0.1" byte_order="LittleEndian" compressor="vtkZLibDataCompressor">
	<UnstructuredGrid>
		<Piece NumberOfPoints="276" NumberOfCells="132">
			<CellData Scalars="scalars">
				<DataArray type="Int64" Name="facetID" format="ascii">
0
1
2
3
4
5
6
7
8
9
10
11
12
13
14
15
16
17
18
19
20
21
22
23
24
25
26
27
28
29
30
31
32
33
34
35
36
37
38
39
40
41
42
43
44
45
46
47
48
49
50
51
52
53
54
55
56
57
58
59
60
61
62
63
64
65
66
67
68
69
70
71
72
73
74
75
76
77
78
79
80
81
82
83
84
85
86
87
88
89
90
91
92
93
94
95
96
97
98
99
100
101
102
103
104
105
106
107
108
109
110
111
112
113
114
115
116
117
118
119
120
121
122
123
124
125
126
127
128
129
130
131
				</DataArray>
				<DataArray type="Int64" Name="fractureID" format="ascii">
1
1
1
1
1
1
1
1
1
1
1
1
1
1
1
1
1
1
1
1
1
1
1
1
1
1
1
1
1
1
1
1
1
1
1
1
1
1
1
1
1
1
1
1
1
1
1
1
1
1
1
1
1
1
1
1
1
1
1
1
1
1
1
1
1
1
1
1
1
1
1
1
1
1
1
1
1
1
1
1
1
1
1
1
1
1
1
1
1
1
1
1
1
1
1
1
1
1
1
1
1
1
1
1
1
1
1
1
1
1
1
1
1
1
1
1
1
1
1
1
1
1
1
1
1
1
1
1
1
1
1
1
				</DataArray>
			</CellData>
			<Points>
				<DataArray type="Float64" Name="Points" NumberOfComponents="3" format="ascii">
0.0000000000000000e+00 5.0000000000000000e-01 0.0000000000000000e+00
0.0000000000000000e+00 5.0000000000000000e-01 1.0000000000000000e+00
2.7027027027026973e-02 5.0000000000000000e-01 1.0000000000000000e+00
2.7027027027027001e-02 5.0000000000000000e-01 0.0000000000000000e+00
5.4054054054054099e-02 5.0000000000000000e-01 1.0000000000000000e+00
5.4054054054054099e-02 5.0000000000000000e-01 0.0000000000000000e+00
8.1081081081081099e-02 5.0000000000000000e-01 1.0000000000000000e+00
8.1081081081081099e-02 5.0000000000000000e-01 0.0000000000000000e+00
1.0810810810810800e-01 5.0000000000000000e-01 1.0000000000000000e+00
1.0810810810810800e-01 5.0000000000000000e-01 0.0000000000000000e+00
1.3513513513513500e-01 5.0000000000000000e-01 1.0000000000000000e+00
1.3513513513513500e-01 5.0000000000000000e-01 0.0000000000000000e+00
1.6216216216216200e-01 5.0000000000000000e-01 1.0000000000000000e+00
1.6216216216216200e-01 5.0000000000000000e-01 0.0000000000000000e+00
1.8918918918918901e-01 5.0000000000000000e-01 1.0000000000000000e+00
1.8918918918918901e-01 5.0000000000000000e-01 0.0000000000000000e+00
2.1621621621621601e-01 5.0000000000000000e-01 1.0000000000000000e+00
2.1621621621621601e-01 5.0000000000000000e-01 0.0000000000000000e+00
2.4324324324324301e-01 5.0000000000000000e-01 1.0000000000000000e+00
2.4324324324324301e-01 5.0000000000000000e-01 0.0000000000000000e+00
2.7027027027027001e-01 5.0000000000000000e-01 1.0000000000000000e+00
2.7027027027027001e-01 5.0000000000000000e-01 0.0000000000000000e+00
2.9729729729729698e-01 5.0000000000000000e-01 1.0000000000000000e+00
2.9729729729729698e-01 5.0000000000000000e-01 0.0000000000000000e+00
3.2432432432432401e-01 5.0000000000000000e-01 1.0000000000000000e+00
3.2432432432432401e-01 5.0000000000000000e-01 0.0000000000000000e+00
3.5135135135135098e-01 5.0000000000000000e-01 1.0000000000000000e+00
3.5135135135135098e-01 5.0000000000000000e-01 0.0000000000000000e+00
3.7837837837837801e-01 5.0000000000000000e-01 1.0000000000000000e+00
3.7837837837837801e-01 5.0000000000000000e-01 0.0000000000000000e+00
4.0540540540540498e-01 5.0000000000000000e-01 1.0000000000000000e+00
4.0540540540540498e-01 5.0000000000000000e-01 0.0000000000000000e+00
4.3243243243243201e-01 5.0000000000000000e-01 1.0000000000000000e+00
4.3243243243243201e-01 5.0000000000000000e-01 0.0000000000000000e+00
4.5945945945945899e-01 5.0000000000000000e-01 1.0000000000000000e+00
4.5945945945945899e-01 5.0000000000000000e-01 0.0000000000000000e+00
4.8648648648648701e-01 5.0000000000000000e-01 1.0000000000000000e+00
4.8648648648648701e-01 5.0000000000000000e-01 0.0000000000000000e+00
5.1351351351351404e-01 5.0000000000000000e-01 1.0000000000000000e+00
5.1351351351351404e-01 5.0000000000000000e-01 0.0000000000000000e+00
5.4054054054054101e-01 5.0000000000000000e-01 1.0000000000000000e+00
5.4054054054054101e-01 5.0000000000000000e-01 0.0000000000000000e+00
5.6756756756756799e-01 5.0000000000000000e-01 1.0000000000000000e+00
5.6756756756756799e-01 5.0000000000000000e-01 0.0000000000000000e+00
5.9459459459459496e-01 5.0000000000000000e-01 1.0000000000000000e+00
5.9459459459459496e-01 5.0000000000000000e-01 0.0000000000000000e+00
6.2162162162162216e-01 5.0000000000000000e-01 1.0000000000000000e+00
6.2162162162162216e-01 5.0000000000000000e-01 0.0000000000000000e+00
6.4864864864864902e-01 5.0000000000000000e-01 1.0000000000000000e+00
6.4864864864864902e-01 5.0000000000000000e-01 0.0000000000000000e+00
6.7567567567567610e-01 5.0000000000000000e-01 1.0000000000000000e+00
6.7567567567567610e-01 5.0000000000000000e-01 0.0000000000000000e+00
7.0270270270270296e-01 5.0000000000000000e-01 1.0000000000000000e+00
7.0270270270270296e-01 5.0000000000000000e-01 0.0000000000000000e+00
7.2972972972973005e-01 5.0000000000000000e-01 1.0000000000000000e+00
7.2972972972973005e-01 5.0000000000000000e-01 0.0000000000000000e+00
7.5675675675675702e-01 5.0000000000000000e-01 1.0000000000000000e+00
7.5675675675675702e-01 5.0000000000000000e-01 0.0000000000000000e+00
7.8378378378378399e-01 5.0000000000000000e-01 1.0000000000000000e+00
7.8378378378378399e-01 5.0000000000000000e-01 0.0000000000000000e+00
8.1081081081081097e-01 5.0000000000000000e-01 1.0000000000000000e+00
8.1081081081081097e-01 5.0000000000000000e-01 0.0000000000000000e+00
8.3783783783783816e-01 5.0000000000000000e-01 1.0000000000000000e+00
8.3783783783783816e-01 5.0000000000000000e-01 0.0000000000000000e+00
8.6486486486486502e-01 5.0000000000000000e-01 1.0000000000000000e+00
8.6486486486486502e-01 5.0000000000000000e-01 0.0000000000000000e+00
8.9189189189189211e-01 5.0000000000000000e-01 1.0000000000000000e+00
8.9189189189189211e-01 5.0000000000000000e-01 0.0000000000000000e+00
9.1891891891891897e-01 5.0000000000000000e-01 1.0000000000000000e+00
9.1891891891891897e-01 5.0000000000000000e-01 0.0000000000000000e+00
9.4594594594594605e-01 5.0000000000000000e-01 1.0000000000000000e+00
9.4594594594594605e-01 5.0000000000000000e-01 0.0000000000000000e+00
9.7297297297297303e-01 5.0000000000000000e-01 1.0000000000000000e+00
9.7297297297297303e-01 5.0000000000000000e-01 0.0000000000000000e+00
1.0000000000000000e+00 5.0000000000000000e-01 1.0000000000000000e+00
1.0000000000000000e+00 5.0000000000000000e-01 0.0000000000000000e+00
5.0000000000000000e-01 0.0000000000000000e+00 0.0000000000000000e+00
5.0000000000000000e-01 0.0000000000000000e+00 1.0000000000000000e+00
5.0000000000000000e-01 2.7027027027027001e-02 1.0000000000000000e+00
5.0000000000000000e-01 2.7027027027027001e-02 0.0000000000000000e+00
5.0000000000000000e-01 5.4054054054054099e-02 1.0000000000000000e+00
5.0000000000000000e-01 5.4054054054054099e-02 0.0000000000000000e+00
5.0000000000000000e-01 8.1081081081081099e-02 1.0000000000000000e+00
5.0000000000000000e-01 8.1081081081081099e-02 0.0000000000000000e+00
5.0000000000000000e-01 1.0810810810810800e-01 1.0000000000000000e+00
5.0000000000000000e-01 1.0810810810810800e-01 0.0000000000000000e+00
5.0000000000000000e-01 1.3513513513513500e-01 1.0000000000000000e+00
5.0000000000000000e-01 1.3513513513513500e-01 0.0000000000000000e+00
5.0000000000000000e-01 1.6216216216216200e-01 1.0000000000000000e+00
5.0000000000000000e-01 1.6216216216216200e-01 0.0000000000000000e+00
5.0000000000000000e-01 1.8918918918918901e-01 1.0000000000000000e+00
5.0000000000000000e-01 1.8918918918918901e-01 0.0000000000000000e+00
5.0000000000000000e-01 2.1621621621621601e-01 1.0000000000000000e+00
5.0000000000000000e-01 2.1621621621621601e-01 0.0000000000000000e+00
5.0000000000000000e-01 2.4324324324324301e-01 1.0000000000000000e+00
5.0000000000000000e-01 2.4324324324324301e-01 0.0000000000000000e+00
5.0000000000000000e-01 2.7027027027027001e-01 1.0000000000000000e+00
5.0000000000000000e-01 2.7027027027027001e-01 0.0000000000000000e+00
5.0000000000000000e-01 2.9729729729729698e-01 1.0000000000000000e+00
5.0000000000000000e-01 2.9729729729729698e-01 0.0000000000000000e+00
5.0000000000000000e-01 3.2432432432432401e-01 1.0000000000000000e+00
5.0000000000000000e-01 3.2432432432432401e-01 0.0000000000000000e+00
5.0000000000000000e-01 3.5135135135135098e-01 1.0000000000000000e+00
5.0000000000000000e-01 3.5135135135135098e-01 0.0000000000000000e+00
5.0000000000000000e-01 3.7837837837837801e-01 1.0000000000000000e+00
5.0000000000000000e-01 3.7837837837837801e-01 0.0000000000000000e+00
5.0000000000000000e-01 4.0540540540540498e-01 1.0000000000000000e+00
5.0000000000000000e-01 4.0540540540540498e-01 0.0000000000000000e+00
5.0000000000000000e-01 4.3243243243243201e-01 1.0000000000000000e+00
5.0000000000000000e-01 4.3243243243243201e-01 0.0000000000000000e+00
5.0000000000000000e-01 4.5945945945945899e-01 1.0000000000000000e+00
5.0000000000000000e-01 4.5945945945945899e-01 0.0000000000000000e+00
5.0000000000000000e-01 4.8648648648648701e-01 1.0000000000000000e+00
5.0000000000000000e-01 4.8648648648648701e-01 0.0000000000000000e+00
5.0000000000000000e-01 5.1351351351351404e-01 1.0000000000000000e+00
5.0000000000000000e-01 5.1351351351351404e-01 0.0000000000000000e+00
5.0000000000000000e-01 5.4054054054054101e-01 1.0000000000000000e+00
5.0000000000000000e-01 5.4054054054054101e-01 0.0000000000000000e+00
5.0000000000000000e-01 5.6756756756756799e-01 1.0000000000000000e+00
5.0000000000000000e-01 5.6756756756756799e-01 0.0000000000000000e+00
5.0000000000000000e-01 5.9459459459459496e-01 1.0000000000000000e+00
5.0000000000000000e-01 5.9459459459459496e-01 0.0000000000000000e+00
5.0000000000000000e-01 6.2162162162162204e-01 1.0000000000000000e+00
5.0000000000000000e-01 6.2162162162162204e-01 0.0000000000000000e+00
5.0000000000000000e-01 6.4864864864864902e-01 1.0000000000000000e+00
5.0000000000000000e-01 6.4864864864864902e-01 0.0000000000000000e+00
5.0000000000000000e-01 6.7567567567567599e-01 1.0000000000000000e+00
5.0000000000000000e-01 6.7567567567567599e-01 0.0000000000000000e+00
5.0000000000000000e-01 7.0270270270270296e-01 1.0000000000000000e+00
5.0000000000000000e-01 7.0270270270270296e-01 0.0000000000000000e+00
5.0000000000000000e-01 7.2972972972973005e-01 1.0000000000000000e+00
5.0000000000000000e-01 7.2972972972973005e-01 0.0000000000000000e+00
5.0000000000000000e-01 7.5675675675675702e-01 1.0000000000000000e+00
5.0000000000000000e-01 7.5675675675675702e-01 0.0000000000000000e+00
5.0000000000000000e-01 7.8378378378378399e-01 1.0000000000000000e+00
5.0000000000000000e-01 7.8378378378378399e-01 0.0000000000000000e+00
5.0000000000000000e-01 8.1081081081081097e-01 1.0000000000000000e+00
5.0000000000000000e-01 8.1081081081081097e-01 0.0000000000000000e+00
5.0000000000000000e-01 8.3783783783783805e-01 1.0000000000000000e+00
5.0000000000000000e-01 8.3783783783783805e-01 0.0000000000000000e+00
5.0000000000000000e-01 8.6486486486486502e-01 1.0000000000000000e+00
5.0000000000000000e-01 8.6486486486486502e-01 0.0000000000000000e+00
5.0000000000000000e-01 8.9189189189189200e-01 1.0000000000000000e+00
5.0000000000000000e-01 8.9189189189189200e-01 0.0000000000000000e+00
5.0000000000000000e-01 9.1891891891891897e-01 1.0000000000000000e+00
5.0000000000000000e-01 9.1891891891891897e-01 0.0000000000000000e+00
5.0000000000000000e-01 9.4594594594594605e-01 1.0000000000000000e+00
5.0000000000000000e-01 9.4594594594594605e-01 0.0000000000000000e+00
5.0000000000000000e-01 9.7297297297297303e-01 1.0000000000000000e+00
5.0000000000000000e-01 9.7297297297297303e-01 0.0000000000000000e+00
5.0000000000000000e-01 1.0000000000000000e+00 1.0000000000000000e+00
5.0000000000000000e-01 1.0000000000000000e+00 0.0000000000000000e+00
7.5000000000000000e-01 4.9999999000000006e-01 0.0000000000000000e+00
7.5000000000000000e-01 4.9999999000000006e-01 1.0000000000000000e+00
7.5000000000000000e-01 5.1351351351351404e-01 1.0000000000000000e+00
7.5000000000000000e-01 5.1351351351351404e-01 0.0000000000000000e+00
7.5000000000000000e-01 5.4054054054054101e-01 1.0000000000000000e+00
7.5000000000000000e-01 5.4054054054054101e-01 0.0000000000000000e+00
7.5000000000000000e-01 5.6756756756756799e-01 1.0000000000000000e+00
7.5000000000000000e-01 5.6756756756756799e-01 0.0000000000000000e+00
7.5000000000000000e-01 5.9459459459459496e-01 1.0000000000000000e+00
7.5000000000000000e-01 5.9459459459459496e-01 0.0000000000000000e+00
7.5000000000000000e-01 6.2162162162162204e-01 1.0000000000000000e+00
7.5000000000000000e-01 6.2162162162162204e-01 0.0000000000000000e+00
7.5000000000000000e-01 6.4864864864864902e-01 1.0000000000000000e+00
7.5000000000000000e-01 6.4864864864864902e-01 0.0000000000000000e+00
7.5000000000000000e-01 6.7567567567567610e-01 1.0000000000000000e+00
7.5000000000000000e-01 6.7567567567567610e-01 0.0000000000000000e+00
7.5000000000000000e-01 7.0270270270270307e-01 1.0000000000000000e+00
7.5000000000000000e-01 7.0270270270270307e-01 0.0000000000000000e+00
7.5000000000000000e-01 7.2972972972973005e-01 1.0000000000000000e+00
7.5000000000000000e-01 7.2972972972973005e-01 0.0000000000000000e+00
7.5000000000000000e-01 7.5675675675675702e-01 1.0000000000000000e+00
7.5000000000000000e-01 7.5675675675675702e-01 0.0000000000000000e+00
7.5000000000000000e-01 7.8378378378378399e-01 1.0000000000000000e+00
7.5000000000000000e-01 7.8378378378378399e-01 0.0000000000000000e+00
7.5000000000000000e-01 8.1081081081081097e-01 1.0000000000000000e+00
7.5000000000000000e-01 8.1081081081081097e-01 0.0000000000000000e+00
7.5000000000000000e-01 8.3783783783783805e-01 1.0000000000000000e+00
7.5000000000000000e-01 8.3783783783783805e-01 0.0000000000000000e+00
7.5000000000000000e-01 8.6486486486486502e-01 1.0000000000000000e+00
7.5000000000000000e-01 8.6486486486486502e-01 0.0000000000000000e+00
7.5000000000000000e-01 8.9189189189189200e-01 1.0000000000000000e+00
7.5000000000000000e-01 8.9189189189189200e-01 0.0000000000000000e+00
7.5000000000000000e-01 9.1891891891891897e-01 1.0000000000000000e+00
7.5000000000000000e-01 9.1891891891891897e-01 0.0000000000000000e+00
7.5000000000000000e-01 9.4594594594594605e-01 1.0000000000000000e+00
7.5000000000000000e-01 9.4594594594594605e-01 0.0000000000000000e+00
7.5000000000000000e-01 9.7297297297297303e-01 1.0000000000000000e+00
7.5000000000000000e-01 9.7297297297297303e-01 0.0000000000000000e+00
7.5000000000000000e-01 1.0000000000000000e+00 1.0000000000000000e+00
7.5000000000000000e-01 1.0000000000000000e+00 0.0000000000000000e+00
4.9999999000000006e-01 7.5000000000000000e-01 0.0000000000000000e+00
4.9999999000000006e-01 7.5000000000000000e-01 1.0000000000000000e+00
5.1351351351351404e-01 7.5000000000000000e-01 1.0000000000000000e+00
5.1351351351351404e-01 7.5000000000000000e-01 0.0000000000000000e+00
5.4054054054054101e-01 7.5000000000000000e-01 1.0000000000000000e+00
5.4054054054054101e-01 7.5000000000000000e-01 0.0000000000000000e+00
5.6756756756756799e-01 7.5000000000000000e-01 1.0000000000000000e+00
5.6756756756756799e-01 7.5000000000000000e-01 0.0000000000000000e+00
5.9459459459459496e-01 7.5000000000000000e-01 1.0000000000000000e+00
5.9459459459459496e-01 7.5000000000000000e-01 0.0000000000000000e+00
6.2162162162162204e-01 7.5000000000000000e-01 1.0000000000000000e+00
6.2162162162162204e-01 7.5000000000000000e-01 0.0000000000000000e+00
6.4864864864864902e-01 7.5000000000000000e-01 1.0000000000000000e+00
6.4864864864864902e-01 7.5000000000000000e-01 0.0000000000000000e+00
6.7567567567567599e-01 7.5000000000000000e-01 1.0000000000000000e+00
6.7567567567567599e-01 7.5000000000000000e-01 0.0000000000000000e+00
7.0270270270270296e-01 7.5000000000000000e-01 1.0000000000000000e+00
7.0270270270270296e-01 7.5000000000000000e-01 0.0000000000000000e+00
7.2972972972973005e-01 7.5000000000000000e-01 1.0000000000000000e+00
7.2972972972973005e-01 7.5000000000000000e-01 0.0000000000000000e+00
7.5675675675675702e-01 7.5000000000000000e-01 1.0000000000000000e+00
7.5675675675675702e-01 7.5000000000000000e-01 0.0000000000000000e+00
7.8378378378378399e-01 7.5000000000000000e-01 1.0000000000000000e+00
7.8378378378378399e-01 7.5000000000000000e-01 0.0000000000000000e+00
8.1081081081081097e-01 7.5000000000000000e-01 1.0000000000000000e+00
8.1081081081081097e-01 7.5000000000000000e-01 0.0000000000000000e+00
8.3783783783783805e-01 7.5000000000000000e-01 1.0000000000000000e+00
8.3783783783783805e-01 7.5000000000000000e-01 0.0000000000000000e+00
8.6486486486486502e-01 7.5000000000000000e-01 1.0000000000000000e+00
8.6486486486486502e-01 7.5000000000000000e-01 0.0000000000000000e+00
8.9189189189189200e-01 7.5000000000000000e-01 1.0000000000000000e+00
8.9189189189189200e-01 7.5000000000000000e-01 0.0000000000000000e+00
9.1891891891891897e-01 7.5000000000000000e-01 1.0000000000000000e+00
9.1891891891891897e-01 7.5000000000000000e-01 0.0000000000000000e+00
9.4594594594594605e-01 7.5000000000000000e-01 1.0000000000000000e+00
9.4594594594594605e-01 7.5000000000000000e-01 0.0000000000000000e+00
9.7297297297297303e-01 7.5000000000000000e-01 1.0000000000000000e+00
9.7297297297297303e-01 7.5000000000000000e-01 0.0000000000000000e+00
1.0000000000000000e+00 7.5000000000000000e-01 1.0000000000000000e+00
1.0000000000000000e+00 7.5000000000000000e-01 0.0000000000000000e+00
6.2500000000000000e-01 4.9999999000000006e-01 0.0000000000000000e+00
6.2500000000000000e-01 4.9999999000000006e-01 1.0000000000000000e+00
6.2500000000000000e-01 5.1351351351351404e-01 1.0000000000000000e+00
6.2500000000000000e-01 5.1351351351351404e-01 0.0000000000000000e+00
6.2500000000000000e-01 5.4054054054054101e-01 1.0000000000000000e+00
6.2500000000000000e-01 5.4054054054054101e-01 0.0000000000000000e+00
6.2500000000000000e-01 5.6756756756756799e-01 1.0000000000000000e+00
6.2500000000000000e-01 5.6756756756756799e-01 0.0000000000000000e+00
6.2500000000000000e-01 5.9459459459459496e-01 1.0000000000000000e+00
6.2500000000000000e-01 5.9459459459459496e-01 0.0000000000000000e+00
6.2500000000000000e-01 6.2162162162162204e-01 1.0000000000000000e+00
6.2500000000000000e-01 6.2162162162162204e-01 0.0000000000000000e+00
6.2500000000000000e-01 6.4864864864864902e-01 1.0000000000000000e+00
6.2500000000000000e-01 6.4864864864864902e-01 0.0000000000000000e+00
6.2500000000000000e-01 6.7567567567567599e-01 1.0000000000000000e+00
6.2500000000000000e-01 6.7567567567567599e-01 0.0000000000000000e+00
6.2500000000000000e-01 7.0270270270270296e-01 1.0000000000000000e+00
6.2500000000000000e-01 7.0270270270270296e-01 0.0000000000000000e+00
6.2500000000000000e-01 7.2972972972973005e-01 1.0000000000000000e+00
6.2500000000000000e-01 7.2972972972973005e-01 0.0000000000000000e+00
6.2500000000000000e-01 7.5000001000000005e-01 1.0000000000000000e+00
6.2500000000000000e-01 7.5000001000000005e-01 0.0000000000000000e+00
4.9999999000000006e-01 6.2500000000000000e-01 0.0000000000000000e+00
4.9999999000000006e-01 6.2500000000000000e-01 1.0000000000000000e+00
5.1351351351351404e-01 6.2500000000000000e-01 1.0000000000000000e+00
5.1351351351351404e-01 6.2500000000000000e-01 0.0000000000000000e+00
5.4054054054054101e-01 6.2500000000000000e-01 1.0000000000000000e+00
5.4054054054054101e-01 6.2500000000000000e-01 0.0000000000000000e+00
5.6756756756756799e-01 6.2500000000000000e-01 1.0000000000000000e+00
5.6756756756756799e-01 6.2500000000000000e-01 0.0000000000000000e+00
5.9459459459459496e-01 6.2500000000000000e-01 1.0000000000000000e+00
5.9459459459459496e-01 6.2500000000000000e-01 0.0000000000000000e+00
6.2162162162162204e-01 6.2500000000000000e-01 1.0000000000000000e+00
6.2162162162162204e-01 6.2500000000000000e-01 0.0000000000000000e+00
6.4864864864864902e-01 6.2500000000000000e-01 1.0000000000000000e+00
6.4864864864864902e-01 6.2500000000000000e-01 0.0000000000000000e+00
6.7567567567567599e-01 6.2500000000000000e-01 1.0000000000000000e+00
6.7567567567567599e-01 6.2500000000000000e-01 0.0000000000000000e+00
7.0270270270270296e-01 6.2500000000000000e-01 1.0000000000000000e+00
7.0270270270270296e-01 6.2500000000000000e-01 0.0000000000000000e+00
7.2972972972973005e-01 6.2500000000000000e-01 1.0000000000000000e+00
7.2972972972973005e-01 6.2500000000000000e-01 0.0000000000000000e+00
7.5000001000000005e-01 6.2500000000000000e-01 1.0000000000000000e+00
7.5000001000000005e-01 6.2500000000000000e-01 0.0000000000000000e+00
				</DataArray>
			</Points>
			<Cells>
				<DataArray type="Int64" Name="connectivity" format="ascii">
0 1 2 3
3 2 4 5
5 4 6 7
7 6 8 9
9 8 10 11
11 10 12 13
13 12 14 15
15 14 16 17
17 16 18 19
19 18 20 21
21 20 22 23
23 22 24 25
25 24 26 27
27 26 28 29
29 28 30 31
31 30 32 33
33 32 34 35
35 34 36 37
37 36 38 39
39 38 40 41
41 40 42 43
43 42 44 45
45 44 46 47
47 46 48 49
49 48 50 51
51 50 52 53
53 52 54 55
55 54 56 57
57 56 58 59
59 58 60 61
61 60 62 63
63 62 64 65
65 64 66 67
67 66 68 69
69 68 70 71
71 70 72 73
73 72 74 75
76 77 78 79
79 78 80 81
81 80 82 83
83 82 84 85
85 84 86 87
87 86 88 89
89 88 90 91
91 90 92 93
93 92 94 95
95 94 96 97
97 96 98 99
99 98 100 101
101 100 102 103
103 102 104 105
105 104 106 107
107 106 108 109
109 108 110 111
111 110 112 113
113 112 114 115
115 114 116 117
117 116 118 119
119 118 120 121
121 120 122 123
123 122 124 125
125 124 126 127
127 126 128 129
129 128 130 131
131 130 132 133
133 132 134 135
135 134 136 137
137 136 138 139
139 138 140 141
141 140 142 143
143 142 144 145
145 144 146 147
147 146 148 149
149 148 150 151
152 153 154 155
155 154 156 157
157 156 158 159
159 158 160 161
161 160 162 163
163 162 164 165
165 164 166 167
167 166 168 169
169 168 170 171
171 170 172 173
173 172 174 175
175 174 176 177
177 176 178 179
179 178 180 181
181 180 182 183
183 182 184 185
185 184 186 187
187 186 188 189
189 188 190 191
192 193 194 195
195 194 196 197
197 196 198 199
199 198 200 201
201 200 202 203
203 202 204 205
205 204 206 207
207 206 208 209
209 208 210 211
211 210 212 213
213 212 214 215
215 214 216 217
217 216 218 219
219 218 220 221
221 220 222 223
223 222 224 225
225 224 226 227
227 226 228 229
229 228 230 231
232 233 234 235
235 234 236 237
237 236 238 239
239 238 240 241
241 240 242 243
243 242 244 245
245 244 246 247
247 246 248 249
249 248 250 251
251 250 252 253
254 255 256 257
257 256 258 259
259 258 260 261
261 260 262 263
263 262 264 265
265 264 266 267
267 266 268 269
269 268 270 271
271 270 272 273
273 272 274 275
				</DataArray>
				<DataArray type="Int64" Name="offsets" format="ascii">
4
8
12
16
20
24
28
32
36
40
44
48
52
56
60
64
68
72
76
80
84
88
92
96
100
104
108
112
116
120
124
128
132
136
140
144
148
152
156
160
164
168
172
176
180
184
188
192
196
200
204
208
212
216
220
224
228
232
236
240
244
248
252
256
260
264
268
272
276
280
284
288
292
296
300
304
308
312
316
320
324
328
332
336
340
344
348
352
356
360
364
368
372
376
380
384
388
392
396
400
404
408
412
416
420
424
428
432
436
440
444
448
452
456
460
464
468
472
476
480
484
488
492
496
500
504
508
512
516
520
524
528
				</DataArray>
				<DataArray type="UInt8" Name="types" format="ascii">
7
7
7
7
7
7
7
7
7
7
7
7
7
7
7
7
7
7
7
7
7
7
7
7
7
7
7
7
7
7
7
7
7
7
7
7
7
7
7
7
7
7
7
7
7
7
7
7
7
7
7
7
7
7
7
7
7
7
7
7
7
7
7
7
7
7
7
7
7
7
7
7
7
7
7
7
7
7
7
7
7
7
7
7
7
7
7
7
7
7
7
7
7
7
7
7
7
7
7
7
7
7
7
7
7
7
7
7
7
7
7
7
7
7
7
7
7
7
7
7
7
7
7
7
7
7
7
7
7
7
7
7
				</DataArray>
			</Cells>
		</Piece>
	</UnstructuredGrid>
	</VTKFile>
