# vtk DataFile Version 2.0
Unstructured Grid Example
ASCII
DATASET UNSTRUCTURED_GRID
POINTS 707 float
0.000000 0.000000 0.000000 
1.000000 0.000000 0.000000 
1.000000 1.000000 0.000000 
0.000000 1.000000 0.000000 
0.050000 0.416000 0.000000 
0.220000 0.062400 0.000000 
0.050000 0.275000 0.000000 
0.250000 0.135000 0.000000 
0.150000 0.630000 0.000000 
0.450000 0.090000 0.000000 
0.150000 0.916700 0.000000 
0.400000 0.500000 0.000000 
0.650000 0.833300 0.000000 
0.700000 0.235000 0.000000 
0.600000 0.380000 0.000000 
0.850000 0.267500 0.000000 
0.350000 0.971400 0.000000 
0.800000 0.714300 0.000000 
0.750000 0.957400 0.000000 
0.950000 0.815500 0.000000 
0.150000 0.836300 0.000000 
0.400000 0.972700 0.000000 
0.152174 0.203478 0.000000 
0.186341 0.856127 0.000000 
0.373260 0.958111 0.000000 
0.662058 0.793111 0.000000 
0.815036 0.283234 0.000000 
0.849723 0.167625 0.000000 
0.050000 0.000000 0.000000 
0.100000 0.000000 0.000000 
0.150000 0.000000 0.000000 
0.200000 0.000000 0.000000 
0.250000 0.000000 0.000000 
0.300000 0.000000 0.000000 
0.350000 0.000000 0.000000 
0.400000 0.000000 0.000000 
0.450000 0.000000 0.000000 
0.500000 0.000000 0.000000 
0.550000 0.000000 0.000000 
0.600000 0.000000 0.000000 
0.650000 0.000000 0.000000 
0.700000 0.000000 0.000000 
0.750000 0.000000 0.000000 
0.800000 0.000000 0.000000 
0.850000 0.000000 0.000000 
0.900000 0.000000 0.000000 
0.950000 0.000000 0.000000 
1.000000 0.050000 0.000000 
1.000000 0.100000 0.000000 
1.000000 0.150000 0.000000 
1.000000 0.200000 0.000000 
1.000000 0.250000 0.000000 
1.000000 0.300000 0.000000 
1.000000 0.350000 0.000000 
1.000000 0.400000 0.000000 
1.000000 0.450000 0.000000 
1.000000 0.500000 0.000000 
1.000000 0.550000 0.000000 
1.000000 0.600000 0.000000 
1.000000 0.650000 0.000000 
1.000000 0.700000 0.000000 
1.000000 0.750000 0.000000 
1.000000 0.800000 0.000000 
1.000000 0.850000 0.000000 
1.000000 0.900000 0.000000 
1.000000 0.950000 0.000000 
0.950000 1.000000 0.000000 
0.900000 1.000000 0.000000 
0.850000 1.000000 0.000000 
0.800000 1.000000 0.000000 
0.750000 1.000000 0.000000 
0.700000 1.000000 0.000000 
0.650000 1.000000 0.000000 
0.600000 1.000000 0.000000 
0.550000 1.000000 0.000000 
0.500000 1.000000 0.000000 
0.450000 1.000000 0.000000 
0.400000 1.000000 0.000000 
0.350000 1.000000 0.000000 
0.300000 1.000000 0.000000 
0.250000 1.000000 0.000000 
0.200000 1.000000 0.000000 
0.150000 1.000000 0.000000 
0.100000 1.000000 0.000000 
0.050000 1.000000 0.000000 
0.000000 0.950000 0.000000 
0.000000 0.900000 0.000000 
0.000000 0.850000 0.000000 
0.000000 0.800000 0.000000 
0.000000 0.750000 0.000000 
0.000000 0.700000 0.000000 
0.000000 0.650000 0.000000 
0.000000 0.600000 0.000000 
0.000000 0.550000 0.000000 
0.000000 0.500000 0.000000 
0.000000 0.450000 0.000000 
0.000000 0.400000 0.000000 
0.000000 0.350000 0.000000 
0.000000 0.300000 0.000000 
0.000000 0.250000 0.000000 
0.000000 0.200000 0.000000 
0.000000 0.150000 0.000000 
0.000000 0.100000 0.000000 
0.000000 0.050000 0.000000 
0.070435 0.373496 0.000000 
0.090870 0.330991 0.000000 
0.111304 0.288487 0.000000 
0.131739 0.245982 0.000000 
0.084058 0.251159 0.000000 
0.118116 0.227319 0.000000 
0.173077 0.588462 0.000000 
0.196154 0.546923 0.000000 
0.219231 0.505385 0.000000 
0.242308 0.463846 0.000000 
0.265385 0.422308 0.000000 
0.288462 0.380769 0.000000 
0.311538 0.339231 0.000000 
0.334615 0.297692 0.000000 
0.357692 0.256154 0.000000 
0.380769 0.214615 0.000000 
0.403846 0.173077 0.000000 
0.426923 0.131538 0.000000 
0.168170 0.886414 0.000000 
0.737431 0.218156 0.000000 
0.774861 0.201313 0.000000 
0.812292 0.184469 0.000000 
0.643007 0.360647 0.000000 
0.686014 0.341294 0.000000 
0.729022 0.321940 0.000000 
0.772029 0.302587 0.000000 
0.790000 0.929020 0.000000 
0.830000 0.900640 0.000000 
0.870000 0.872260 0.000000 
0.910000 0.843880 0.000000 
0.203044 0.097669 0.000000 
0.186087 0.132939 0.000000 
0.169131 0.168208 0.000000 
0.217391 0.157826 0.000000 
0.184783 0.180652 0.000000 
0.376260 0.539570 0.000000 
0.352520 0.579139 0.000000 
0.328780 0.618709 0.000000 
0.305040 0.658279 0.000000 
0.281301 0.697848 0.000000 
0.257561 0.737418 0.000000 
0.233821 0.776988 0.000000 
0.210081 0.816557 0.000000 
0.223725 0.876524 0.000000 
0.261109 0.896921 0.000000 
0.298492 0.917317 0.000000 
0.335876 0.937714 0.000000 
0.620801 0.816682 0.000000 
0.579544 0.840254 0.000000 
0.538287 0.863825 0.000000 
0.497031 0.887397 0.000000 
0.455774 0.910968 0.000000 
0.414517 0.934540 0.000000 
0.801129 0.329586 0.000000 
0.787222 0.375939 0.000000 
0.773315 0.422291 0.000000 
0.759408 0.468644 0.000000 
0.745501 0.514996 0.000000 
0.731593 0.561349 0.000000 
0.717686 0.607701 0.000000 
0.703779 0.654054 0.000000 
0.689872 0.700406 0.000000 
0.675965 0.746759 0.000000 
0.765515 0.734003 0.000000 
0.731029 0.753705 0.000000 
0.696544 0.773408 0.000000 
0.826598 0.244698 0.000000 
0.838161 0.206161 0.000000 
0.511580 0.670197 0.000000 
0.551412 0.525686 0.000000 
0.232148 0.271598 0.000000 
0.545086 0.242196 0.000000 
0.411232 0.774148 0.000000 
0.457766 0.369610 0.000000 
0.859862 0.596667 0.000000 
0.087386 0.149128 0.000000 
0.626232 0.126144 0.000000 
0.585195 0.728385 0.000000 
0.898875 0.356250 0.000000 
0.880726 0.476051 0.000000 
0.755502 0.092498 0.000000 
0.604484 0.631598 0.000000 
0.113874 0.728838 0.000000 
0.736687 0.865367 0.000000 
0.194489 0.371448 0.000000 
0.471096 0.584118 0.000000 
0.647635 0.480742 0.000000 
0.405714 0.676603 0.000000 
0.497617 0.766127 0.000000 
0.907941 0.689778 0.000000 
0.324690 0.824091 0.000000 
0.673864 0.912725 0.000000 
0.921036 0.221431 0.000000 
0.099741 0.501963 0.000000 
0.354041 0.087627 0.000000 
0.132496 0.087671 0.000000 
0.277383 0.208823 0.000000 
0.456050 0.273736 0.000000 
0.487403 0.458670 0.000000 
0.528801 0.142257 0.000000 
0.825941 0.796538 0.000000 
0.908222 0.088438 0.000000 
0.381890 0.415015 0.000000 
0.622779 0.275722 0.000000 
0.081523 0.885685 0.000000 
0.532683 0.322779 0.000000 
0.162120 0.443389 0.000000 
0.172991 0.291979 0.000000 
0.399023 0.850736 0.000000 
0.649444 0.560653 0.000000 
0.787706 0.634980 0.000000 
0.604643 0.921339 0.000000 
0.825493 0.092484 0.000000 
0.699401 0.156377 0.000000 
0.223704 0.218991 0.000000 
0.188398 0.705022 0.000000 
0.321816 0.479999 0.000000 
0.915882 0.289101 0.000000 
0.562637 0.451298 0.000000 
0.083978 0.579599 0.000000 
0.275988 0.560130 0.000000 
0.679815 0.078815 0.000000 
0.633486 0.202448 0.000000 
0.534369 0.603434 0.000000 
0.080687 0.798793 0.000000 
0.478727 0.197256 0.000000 
0.231321 0.638081 0.000000 
0.352069 0.718706 0.000000 
0.821318 0.529077 0.000000 
0.079146 0.661712 0.000000 
0.892361 0.769379 0.000000 
0.567210 0.075273 0.000000 
0.696293 0.417761 0.000000 
0.914416 0.546132 0.000000 
0.331694 0.164980 0.000000 
0.136250 0.129095 0.000000 
0.919595 0.922009 0.000000 
0.069775 0.197759 0.000000 
0.461306 0.826355 0.000000 
0.850772 0.403341 0.000000 
0.927554 0.416176 0.000000 
0.397232 0.325518 0.000000 
0.061876 0.096113 0.000000 
0.930753 0.623751 0.000000 
0.918103 0.159188 0.000000 
0.244067 0.332794 0.000000 
0.460556 0.715761 0.000000 
0.525735 0.393301 0.000000 
0.278972 0.078671 0.000000 
0.211157 0.936317 0.000000 
0.162159 0.772011 0.000000 
0.091011 0.937948 0.000000 
0.409112 0.609459 0.000000 
0.182738 0.245889 0.000000 
0.555960 0.788368 0.000000 
0.629509 0.688795 0.000000 
0.490045 0.521626 0.000000 
0.764661 0.803119 0.000000 
0.854335 0.323037 0.000000 
0.343062 0.880087 0.000000 
0.288149 0.264753 0.000000 
0.568964 0.674808 0.000000 
0.461628 0.642965 0.000000 
0.843481 0.667662 0.000000 
0.625452 0.757535 0.000000 
0.588680 0.572690 0.000000 
0.575194 0.182906 0.000000 
0.758482 0.675319 0.000000 
0.283025 0.832902 0.000000 
0.798293 0.852545 0.000000 
0.314630 0.764994 0.000000 
0.525912 0.729700 0.000000 
0.395999 0.062021 0.000000 
0.125101 0.176256 0.000000 
0.778776 0.239905 0.000000 
0.132566 0.390257 0.000000 
0.536278 0.937694 0.000000 
0.425302 0.443354 0.000000 
0.689433 0.864274 0.000000 
0.805469 0.461446 0.000000 
0.770736 0.138117 0.000000 
0.732783 0.907465 0.000000 
0.507229 0.062835 0.000000 
0.369213 0.907877 0.000000 
0.634368 0.885197 0.000000 
0.853551 0.724872 0.000000 
0.942535 0.734357 0.000000 
0.948953 0.485645 0.000000 
0.672068 0.288519 0.000000 
0.709448 0.818980 0.000000 
0.877447 0.231526 0.000000 
0.582880 0.313077 0.000000 
0.634259 0.048142 0.000000 
0.609563 0.509642 0.000000 
0.104710 0.449795 0.000000 
0.173058 0.064595 0.000000 
0.788789 0.575285 0.000000 
0.659992 0.616653 0.000000 
0.687729 0.520386 0.000000 
0.161649 0.495794 0.000000 
0.210003 0.417467 0.000000 
0.791141 0.059403 0.000000 
0.512017 0.809075 0.000000 
0.642096 0.414526 0.000000 
0.422615 0.538147 0.000000 
0.055904 0.757408 0.000000 
0.868373 0.941911 0.000000 
0.358567 0.666805 0.000000 
0.050388 0.475688 0.000000 
0.133398 0.680934 0.000000 
0.946483 0.333080 0.000000 
0.872160 0.047483 0.000000 
0.730009 0.280999 0.000000 
0.320034 0.429011 0.000000 
0.123497 0.880205 0.000000 
0.725867 0.051213 0.000000 
0.296988 0.134338 0.000000 
0.125090 0.556215 0.000000 
0.136503 0.336233 0.000000 
0.056952 0.539960 0.000000 
0.322979 0.534510 0.000000 
0.364320 0.360500 0.000000 
0.509990 0.274847 0.000000 
0.828600 0.355856 0.000000 
0.730919 0.379654 0.000000 
0.055464 0.160571 0.000000 
0.327696 0.211495 0.000000 
0.272935 0.506617 0.000000 
0.276861 0.614355 0.000000 
0.099791 0.116902 0.000000 
0.256896 0.944799 0.000000 
0.949205 0.663055 0.000000 
0.476301 0.321429 0.000000 
0.255515 0.241682 0.000000 
0.942985 0.118975 0.000000 
0.412941 0.724204 0.000000 
0.642318 0.947686 0.000000 
0.226912 0.587158 0.000000 
0.192033 0.215464 0.000000 
0.210476 0.194305 0.000000 
0.084941 0.039318 0.000000 
0.432686 0.224998 0.000000 
0.945398 0.054602 0.000000 
0.315123 0.049196 0.000000 
0.373544 0.138558 0.000000 
0.470127 0.145021 0.000000 
0.599746 0.236734 0.000000 
0.345215 0.788478 0.000000 
0.815776 0.142199 0.000000 
0.883569 0.642627 0.000000 
0.866357 0.122813 0.000000 
0.705657 0.469080 0.000000 
0.514676 0.559048 0.000000 
0.578095 0.271543 0.000000 
0.951970 0.259005 0.000000 
0.452948 0.757858 0.000000 
0.948415 0.191157 0.000000 
0.802639 0.758951 0.000000 
0.165268 0.109067 0.000000 
0.950876 0.878553 0.000000 
0.525289 0.473409 0.000000 
0.405697 0.271408 0.000000 
0.356525 0.458523 0.000000 
0.207793 0.311860 0.000000 
0.253426 0.180798 0.000000 
0.868835 0.525714 0.000000 
0.596553 0.784056 0.000000 
0.872929 0.810643 0.000000 
0.448012 0.491593 0.000000 
0.267803 0.299399 0.000000 
0.229841 0.680451 0.000000 
0.745576 0.174571 0.000000 
0.704207 0.956815 0.000000 
0.049422 0.835486 0.000000 
0.533150 0.191237 0.000000 
0.658417 0.242768 0.000000 
0.890059 0.190426 0.000000 
0.046455 0.622029 0.000000 
0.043833 0.325264 0.000000 
0.298792 0.877524 0.000000 
0.047229 0.914841 0.000000 
0.675956 0.198902 0.000000 
0.585207 0.119711 0.000000 
0.408835 0.374948 0.000000 
0.045657 0.232549 0.000000 
0.374652 0.980442 0.000000 
0.172158 0.957950 0.000000 
0.487052 0.958220 0.000000 
0.051103 0.701377 0.000000 
0.481813 0.410345 0.000000 
0.771419 0.886874 0.000000 
0.108722 0.842927 0.000000 
0.954388 0.579837 0.000000 
0.107175 0.195805 0.000000 
0.727122 0.791166 0.000000 
0.241740 0.379843 0.000000 
0.272993 0.795022 0.000000 
0.805671 0.222544 0.000000 
0.644310 0.727054 0.000000 
0.959239 0.381751 0.000000 
0.600204 0.473802 0.000000 
0.501117 0.634895 0.000000 
0.640993 0.317711 0.000000 
0.289830 0.171725 0.000000 
0.195335 0.747721 0.000000 
0.258363 0.042432 0.000000 
0.447479 0.862348 0.000000 
0.560412 0.359534 0.000000 
0.130217 0.797853 0.000000 
0.187260 0.657073 0.000000 
0.735047 0.711545 0.000000 
0.419273 0.817098 0.000000 
0.131036 0.040868 0.000000 
0.886644 0.265747 0.000000 
0.541729 0.646317 0.000000 
0.435954 0.045000 0.000000 
0.652744 0.160777 0.000000 
0.242312 0.096472 0.000000 
0.622299 0.852948 0.000000 
0.711395 0.106090 0.000000 
0.499818 0.115089 0.000000 
0.839564 0.839066 0.000000 
0.300202 0.958641 0.000000 
0.104590 0.623551 0.000000 
0.433456 0.960558 0.000000 
0.407051 0.897562 0.000000 
0.522043 0.433714 0.000000 
0.824238 0.958932 0.000000 
0.129800 0.954398 0.000000 
0.572599 0.958702 0.000000 
0.890689 0.390688 0.000000 
0.668592 0.120929 0.000000 
0.212691 0.247536 0.000000 
0.198506 0.465760 0.000000 
0.158619 0.265656 0.000000 
0.564486 0.404954 0.000000 
0.836747 0.627697 0.000000 
0.903852 0.591734 0.000000 
0.764064 0.341941 0.000000 
0.801157 0.673797 0.000000 
0.044420 0.055741 0.000000 
0.661764 0.665419 0.000000 
0.370898 0.620728 0.000000 
0.357018 0.840197 0.000000 
0.741065 0.641290 0.000000 
0.192479 0.155524 0.000000 
0.621759 0.593482 0.000000 
0.852068 0.760401 0.000000 
0.406815 0.568022 0.000000 
0.689438 0.573755 0.000000 
0.153701 0.731581 0.000000 
0.506776 0.228748 0.000000 
0.964049 0.772350 0.000000 
0.831761 0.044911 0.000000 
0.363082 0.496584 0.000000 
0.037477 0.578318 0.000000 
0.792034 0.107059 0.000000 
0.788492 0.501993 0.000000 
0.037501 0.126726 0.000000 
0.954421 0.527616 0.000000 
0.160872 0.141189 0.000000 
0.590544 0.879232 0.000000 
0.598915 0.428622 0.000000 
0.476834 0.677182 0.000000 
0.166852 0.401011 0.000000 
0.284466 0.460088 0.000000 
0.307665 0.731577 0.000000 
0.037203 0.788337 0.000000 
0.505296 0.353864 0.000000 
0.890330 0.319377 0.000000 
0.499845 0.702683 0.000000 
0.311426 0.581369 0.000000 
0.675000 0.035590 0.000000 
0.237830 0.542897 0.000000 
0.052817 0.957284 0.000000 
0.436900 0.405270 0.000000 
0.607345 0.165087 0.000000 
0.836063 0.566161 0.000000 
0.329875 0.383973 0.000000 
0.445155 0.173745 0.000000 
0.956920 0.956920 0.000000 
0.564710 0.751819 0.000000 
0.607151 0.083336 0.000000 
0.264798 0.659845 0.000000 
0.199818 0.903212 0.000000 
0.733118 0.431486 0.000000 
0.873024 0.293144 0.000000 
0.200810 0.277588 0.000000 
0.551099 0.907440 0.000000 
0.132076 0.469606 0.000000 
0.679666 0.382776 0.000000 
0.542321 0.038301 0.000000 
0.736522 0.133531 0.000000 
0.398338 0.103032 0.000000 
0.595266 0.698717 0.000000 
0.905886 0.885002 0.000000 
0.646222 0.521484 0.000000 
0.910600 0.800259 0.000000 
0.433269 0.307420 0.000000 
0.035635 0.877202 0.000000 
0.564717 0.496042 0.000000 
0.094138 0.405769 0.000000 
0.358248 0.040266 0.000000 
0.541333 0.111398 0.000000 
0.841177 0.493197 0.000000 
0.473999 0.035270 0.000000 
0.583490 0.040842 0.000000 
0.165190 0.229365 0.000000 
0.115630 0.913789 0.000000 
0.574228 0.609077 0.000000 
0.492545 0.849047 0.000000 
0.819796 0.427062 0.000000 
0.472361 0.789993 0.000000 
0.763325 0.770344 0.000000 
0.127347 0.595565 0.000000 
0.562628 0.710705 0.000000 
0.909185 0.039717 0.000000 
0.177119 0.329172 0.000000 
0.320928 0.694643 0.000000 
0.370357 0.295018 0.000000 
0.038360 0.664052 0.000000 
0.173481 0.808456 0.000000 
0.376307 0.751105 0.000000 
0.383526 0.701689 0.000000 
0.891701 0.733460 0.000000 
0.068907 0.129048 0.000000 
0.913553 0.502832 0.000000 
0.037954 0.195528 0.000000 
0.886185 0.433129 0.000000 
0.631885 0.783397 0.000000 
0.968019 0.223018 0.000000 
0.681336 0.831290 0.000000 
0.758025 0.598703 0.000000 
0.501643 0.596181 0.000000 
0.197154 0.619256 0.000000 
0.705619 0.733413 0.000000 
0.090762 0.699633 0.000000 
0.643210 0.091473 0.000000 
0.658550 0.863289 0.000000 
0.101352 0.766822 0.000000 
0.736607 0.825705 0.000000 
0.669156 0.445307 0.000000 
0.196976 0.036867 0.000000 
0.325384 0.980354 0.000000 
0.107950 0.249043 0.000000 
0.446235 0.611565 0.000000 
0.950625 0.295900 0.000000 
0.215219 0.129239 0.000000 
0.426638 0.645773 0.000000 
0.319436 0.255909 0.000000 
0.363510 0.180545 0.000000 
0.084956 0.220918 0.000000 
0.960463 0.448712 0.000000 
0.613120 0.726058 0.000000 
0.030797 0.375000 0.000000 
0.299930 0.297972 0.000000 
0.553950 0.561442 0.000000 
0.775139 0.536540 0.000000 
0.906207 0.960627 0.000000 
0.919572 0.460424 0.000000 
0.916531 0.255096 0.000000 
0.551783 0.821138 0.000000 
0.600414 0.664903 0.000000 
0.867942 0.356056 0.000000 
0.711740 0.196535 0.000000 
0.091440 0.544434 0.000000 
0.883897 0.154408 0.000000 
0.964838 0.918150 0.000000 
0.277556 0.325707 0.000000 
0.969878 0.625000 0.000000 
0.077037 0.298176 0.000000 
0.704203 0.891439 0.000000 
0.233381 0.842791 0.000000 
0.332501 0.124176 0.000000 
0.218042 0.967813 0.000000 
0.638798 0.916737 0.000000 
0.767348 0.841778 0.000000 
0.471988 0.239077 0.000000 
0.796424 0.817057 0.000000 
0.786011 0.965776 0.000000 
0.917314 0.655501 0.000000 
0.194975 0.784346 0.000000 
0.670382 0.969535 0.000000 
0.420864 0.983315 0.000000 
0.919092 0.190344 0.000000 
0.332645 0.908814 0.000000 
0.849100 0.230446 0.000000 
0.136165 0.275550 0.000000 
0.375201 0.876850 0.000000 
0.231794 0.913024 0.000000 
0.831377 0.701572 0.000000 
0.963727 0.085232 0.000000 
0.432911 0.342343 0.000000 
0.649827 0.762722 0.000000 
0.245114 0.809966 0.000000 
0.179612 0.927327 0.000000 
0.142996 0.302074 0.000000 
0.116503 0.148154 0.000000 
0.161749 0.534681 0.000000 
0.273515 0.108828 0.000000 
0.092836 0.075179 0.000000 
0.441579 0.683637 0.000000 
0.826901 0.732947 0.000000 
0.862884 0.084622 0.000000 
0.212171 0.342791 0.000000 
0.811257 0.602874 0.000000 
0.842266 0.295428 0.000000 
0.114508 0.360292 0.000000 
0.487376 0.734426 0.000000 
0.144870 0.158384 0.000000 
0.577964 0.645340 0.000000 
0.250739 0.214943 0.000000 
0.405308 0.956477 0.000000 
0.260132 0.269974 0.000000 
0.131079 0.425395 0.000000 
0.580465 0.536355 0.000000 
0.876606 0.565281 0.000000 
0.385070 0.926729 0.000000 
0.903913 0.128764 0.000000 
0.538276 0.687161 0.000000 
0.878825 0.905491 0.000000 
0.173545 0.207240 0.000000 
0.359213 0.927849 0.000000 
0.615262 0.550804 0.000000 
0.597573 0.751368 0.000000 
0.463775 0.545759 0.000000 
0.227388 0.030549 0.000000 
0.529551 0.767854 0.000000 
0.440725 0.791847 0.000000 
0.525000 0.972842 0.000000 
0.148343 0.865252 0.000000 
0.226014 0.723665 0.000000 
0.293636 0.236532 0.000000 
0.131004 0.196952 0.000000 
0.580928 0.810100 0.000000 
0.868603 0.693328 0.000000 
0.771242 0.703996 0.000000 
0.520154 0.515122 0.000000 
0.965018 0.153476 0.000000 
0.793281 0.261396 0.000000 
0.707271 0.297099 0.000000 
0.690911 0.800055 0.000000 
0.089188 0.176506 0.000000 
0.921830 0.381308 0.000000 
0.458797 0.437991 0.000000 
0.384678 0.803627 0.000000 
0.783848 0.168134 0.000000 
0.495561 0.490726 0.000000 
0.327483 0.961037 0.000000 
0.546957 0.286345 0.000000 
0.761050 0.920190 0.000000 
0.725000 0.978700 0.000000 
0.747620 0.246419 0.000000 
0.355613 0.323592 0.000000 
0.864920 0.206243 0.000000 
0.926432 0.766480 0.000000 
0.308523 0.097139 0.000000 
0.970756 0.029244 0.000000 
0.705997 0.922527 0.000000 
0.234469 0.198589 0.000000 
0.628101 0.449531 0.000000 
0.144456 0.180656 0.000000 
0.505565 0.921198 0.000000 
0.631233 0.653474 0.000000 
0.598222 0.200810 0.000000 
0.260006 0.865332 0.000000 
0.394322 0.644782 0.000000 
0.760227 0.035636 0.000000 
0.076288 0.725303 0.000000 
0.153673 0.364736 0.000000 
0.569822 0.213921 0.000000 
0.711483 0.847167 0.000000 
0.341200 0.750996 0.000000 
0.031301 0.729995 0.000000 
0.383103 0.587783 0.000000 
0.436208 0.580024 0.000000 
0.023605 0.026435 0.000000 
0.280150 0.763164 0.000000 
0.476056 0.614114 0.000000 
0.270320 0.353803 0.000000 
0.702656 0.265604 0.000000 
0.723573 0.679970 0.000000 
0.346655 0.957066 0.000000 
0.605458 0.346194 0.000000 
0.399583 0.467060 0.000000 
0.504708 0.165037 0.000000 
0.759983 0.275476 0.000000 
0.611407 0.966586 0.000000 
0.324499 0.855688 0.000000 
0.305784 0.796040 0.000000 
0.067409 0.445216 0.000000 
0.236924 0.300040 0.000000 
0.849081 0.451223 0.000000 
0.561838 0.152099 0.000000 
0.968649 0.416251 0.000000 
0.660284 0.705687 0.000000 
0.168689 0.028503 0.000000 
0.966446 0.700016 0.000000 
0.133042 0.757214 0.000000 
0.790598 0.789202 0.000000 
0.828273 0.317428 0.000000 
0.813108 0.395368 0.000000 
0.034402 0.505574 0.000000 
CELLS 1332 5328
3  335 701 193 
3  193 701 290 
3  671 305 184 
3  319 671 184 
3  197 694 298 
3  112 111 602 
3  312 694 197 
3  198 276 497 
3  233 427 313 
3  200 407 330 
3  102 444 246 
3  131 394 273 
3  190 355 302 
3  19 63 363 
3  208 512 255 
3  159 283 160 
3  195 542 282 
3  8 313 427 
3  26 129 643 
3  197 303 602 
3  4 694 95 
3  197 706 312 
3  323 706 197 
3  303 112 602 
3  195 288 542 
3  197 602 321 
3  207 350 379 
3  184 423 319 
3  206 479 281 
3  226 379 350 
3  67 68 562 
3  106 548 107 
3  243 567 434 
3  198 506 276 
3  80 334 426 
3  131 273 425 
3  33 347 409 
3  699 166 402 
3  485 628 370 
3  95 694 312 
3  102 246 462 
3  188 399 304 
3  562 68 310 
3  3 85 478 
3  199 239 333 
3  83 478 255 
3  161 302 355 
3  225 319 423 
3  243 327 567 
3  11 308 139 
3  221 314 473 
3  119 345 365 
3  129 690 643 
3  329 531 101 
3  161 162 302 
3  177 472 393 
3  194 692 272 
3  308 372 629 
3  7 320 407 
3  629 372 260 
3  56 291 556 
3  3 478 84 
3  27 352 354 
3  238 330 407 
3  208 255 384 
3  166 169 25 
3  25 12 151 
3  9 509 286 
3  272 692 383 
3  216 354 352 
3  187 285 575 
3  251 393 472 
3  199 362 239 
3  9 349 121 
3  182 473 314 
3  206 281 688 
3  5 409 421 
3  315 607 457 
3  218 436 342 
3  252 409 347 
3  35 419 276 
3  662 285 18 
3  220 317 366 
3  137 343 138 
3  206 366 317 
3  207 295 357 
3  113 304 114 
3  9 424 349 
3  219 313 413 
3  159 515 283 
3  194 272 693 
3  162 453 302 
3  135 449 136 
3  218 337 436 
3  138 343 342 
3  263 447 592 
3  14 126 307 
3  39 40 296 
3  5 134 299 
3  9 497 276 
3  220 324 331 
3  7 407 368 
3  607 216 457 
3  207 406 295 
3  8 413 313 
3  208 377 395 
3  137 138 449 
3  285 654 18 
3  209 336 326 
3  83 255 432 
3  322 105 600 
3  35 276 506 
3  159 489 328 
3  26 157 129 
3  224 331 324 
3  118 119 365 
3  188 608 399 
3  201 326 336 
3  128 690 129 
3  209 653 295 
3  79 80 426 
3  139 308 452 
3  52 550 358 
3  130 394 131 
3  158 159 328 
3  9 286 424 
3  55 56 556 
3  9 276 419 
3  163 164 301 
3  635 143 144 
3  119 120 345 
3  335 59 701 
3  253 578 390 
3  207 379 292 
3  94 95 706 
3  706 95 312 
3  600 105 106 
3  198 497 348 
3  342 511 625 
3  701 59 60 
3  338 48 642 
3  10 318 122 
3  258 485 370 
3  141 311 142 
3  37 495 286 
3  252 421 409 
3  187 575 675 
3  263 692 447 
3  99 6 98 
3  44 45 315 
3  28 344 444 
3  25 151 533 
3  19 363 133 
3  113 437 304 
3  213 302 453 
3  51 52 358 
3  124 278 656 
3  52 53 314 
3  228 395 377 
3  124 401 278 
3  374 143 635 
3  196 294 380 
3  206 387 479 
3  235 507 286 
3  127 128 328 
3  250 359 339 
3  604 416 199 
3  13 379 385 
3  120 483 345 
3  386 480 697 
3  295 653 357 
3  247 353 441 
3  178 441 353 
3  224 332 341 
3  206 688 366 
3  135 136 464 
3  23 488 122 
3  192 612 275 
3  155 391 428 
3  132 371 133 
3  190 545 355 
3  187 394 285 
3  131 310 431 
3  18 376 662 
3  642 48 49 
3  81 390 578 
3  28 29 344 
3  214 443 271 
3  193 290 528 
3  230 341 332 
3  114 115 317 
3  195 376 586 
3  180 480 386 
3  195 586 340 
3  195 282 575 
3  160 161 355 
3  131 425 132 
3  316 690 128 
3  126 494 307 
3  132 425 371 
3  235 286 495 
3  267 443 440 
3  184 305 460 
3  160 283 461 
3  241 555 388 
3  89 309 471 
3  225 296 476 
3  15 590 294 
3  174 436 337 
3  215 433 492 
3  12 25 535 
3  216 460 305 
3  257 491 438 
3  101 531 100 
3  216 305 457 
3  108 388 555 
3  272 400 693 
3  154 410 514 
3  96 4 95 
3  192 275 631 
3  41 42 319 
3  232 369 481 
3  110 111 341 
3  209 295 411 
3  207 357 350 
3  214 440 443 
3  280 492 433 
3  236 328 489 
3  15 294 417 
3  137 663 343 
3  176 339 359 
3  6 99 388 
3  155 428 156 
3  210 304 437 
3  76 428 391 
3  52 314 550 
3  172 467 405 
3  37 286 509 
3  179 646 329 
3  75 76 391 
3  195 579 288 
3  123 124 656 
3  83 84 478 
3  225 541 296 
3  112 113 331 
3  40 476 296 
3  245 387 325 
3  127 406 292 
3  127 328 494 
3  239 362 464 
3  139 140 324 
3  11 372 308 
3  213 453 301 
3  108 555 109 
3  9 419 509 
3  157 327 158 
3  226 385 379 
3  62 63 19 
3  87 88 377 
3  207 292 406 
3  198 347 506 
3  369 620 481 
3  45 520 315 
3  196 564 294 
3  134 362 299 
3  201 365 345 
3  165 166 699 
3  154 155 410 
3  102 103 444 
3  192 631 306 
3  6 382 98 
3  57 396 463 
3  214 271 448 
3  205 346 595 
3  205 595 338 
3  294 564 417 
3  82 83 432 
3  179 601 646 
3  190 297 404 
3  141 142 332 
3  41 319 476 
3  163 301 453 
3  154 492 666 
3  153 492 154 
3  189 629 356 
3  283 508 461 
3  185 301 667 
3  258 306 631 
3  175 350 357 
3  210 437 303 
3  26 704 157 
3  179 329 529 
3  266 405 467 
3  23 147 488 
3  20 525 23 
3  236 307 494 
3  192 306 516 
3  242 410 415 
3  225 476 319 
3  277 646 601 
3  185 450 301 
3  148 149 334 
3  112 303 437 
3  120 348 121 
3  219 413 374 
3  186 313 454 
3  233 381 427 
3  230 374 413 
3  257 342 436 
3  289 528 451 
3  114 304 399 
3  219 454 313 
3  208 318 512 
3  61 290 701 
3  99 100 388 
3  53 403 314 
3  104 382 105 
3  201 581 326 
3  182 314 647 
3  118 330 119 
3  124 375 650 
3  33 34 347 
3  344 416 604 
3  214 536 609 
3  206 325 387 
3  88 471 377 
3  223 427 381 
3  262 327 704 
3  123 375 124 
3  27 125 352 
3  212 415 410 
3  170 15 26 
3  32 33 409 
3  13 684 379 
3  213 301 450 
3  213 500 302 
3  157 704 327 
3  85 86 384 
3  23 525 146 
3  199 299 362 
3  46 346 520 
3  138 342 625 
3  182 434 567 
3  114 317 469 
3  21 616 428 
3  189 356 537 
3  127 292 644 
3  232 461 508 
3  444 604 246 
3  206 317 482 
3  242 516 306 
3  141 446 311 
3  85 384 478 
3  27 171 125 
3  63 64 363 
3  88 89 471 
3  232 300 561 
3  175 653 326 
3  130 131 431 
3  190 302 500 
3  112 331 477 
3  236 494 328 
3  56 463 291 
3  287 626 589 
3  61 456 290 
3  162 561 300 
3  197 298 493 
3  270 697 480 
3  292 379 684 
3  205 315 520 
3  689 424 203 
3  528 234 451 
3  143 470 144 
3  229 345 483 
3  220 469 317 
3  257 511 342 
3  238 407 320 
3  100 531 388 
3  190 500 297 
3  228 309 543 
3  14 307 466 
3  232 481 300 
3  206 482 325 
3  238 554 330 
3  237 463 396 
3  2 484 65 
3  2 66 484 
3  39 296 510 
3  104 558 382 
3  349 424 689 
3  162 300 536 
3  267 353 639 
3  17 361 167 
3  197 493 303 
3  170 401 171 
3  21 389 24 
3  447 649 212 
3  144 470 681 
3  13 656 684 
3  164 445 301 
3  119 330 554 
3  344 604 444 
3  199 416 299 
3  23 576 147 
3  211 438 491 
3  284 650 375 
3  188 304 468 
3  233 313 540 
3  282 675 575 
3  7 603 320 
3  25 645 535 
3  193 639 353 
3  649 415 212 
3  210 303 493 
3  297 619 504 
3  224 477 331 
3  151 422 152 
3  241 329 646 
3  205 520 346 
3  195 340 579 
3  339 526 527 
3  175 357 653 
3  326 581 455 
3  184 460 284 
3  23 146 576 
3  281 648 372 
3  210 468 304 
3  110 341 538 
3  50 360 642 
3  89 677 309 
3  35 36 419 
3  208 395 318 
3  239 601 333 
3  68 431 310 
3  110 321 602 
3  220 458 324 
3  37 38 495 
3  248 622 338 
3  66 562 484 
3  191 311 670 
3  227 560 513 
3  223 321 518 
3  191 527 311 
3  215 288 579 
3  177 596 336 
3  318 395 634 
3  107 511 438 
3  91 92 381 
3  155 156 429 
3  151 152 638 
3  204 361 451 
3  139 324 458 
3  202 372 648 
3  122 318 634 
3  300 609 536 
3  221 550 314 
3  170 171 590 
3  228 471 309 
3  501 659 19 
3  166 597 402 
3  278 401 643 
3  45 46 520 
3  140 475 324 
3  266 605 552 
3  263 287 589 
3  125 650 352 
3  316 684 656 
3  16 389 78 
3  177 336 472 
3  29 416 344 
3  7 368 137 
3  131 624 310 
3  204 451 371 
3  16 24 389 
3  224 475 332 
3  295 687 411 
3  248 338 642 
3  242 514 410 
3  240 310 624 
3  43 305 671 
3  218 342 343 
3  165 539 166 
3  277 397 646 
3  224 324 475 
3  236 545 307 
3  93 706 323 
3  205 607 315 
3  57 58 396 
3  43 457 305 
3  19 659 456 
3  20 634 395 
3  281 372 688 
3  231 311 527 
3  34 35 506 
3  202 430 364 
3  141 332 475 
3  200 330 636 
3  222 364 430 
3  240 562 310 
3  258 565 306 
3  267 440 353 
3  158 328 442 
3  212 592 447 
3  688 11 458 
3  142 487 332 
3  148 383 149 
3  116 325 482 
3  128 442 328 
3  66 67 562 
3  278 643 690 
3  13 123 656 
3  20 395 412 
3  201 502 365 
3  264 553 559 
3  275 612 474 
3  205 338 622 
3  184 284 496 
3  275 474 623 
3  150 589 626 
3  153 514 306 
3  222 430 439 
3  173 504 619 
3  166 539 169 
3  220 331 469 
3  366 688 458 
3  186 540 313 
3  53 54 403 
3  247 573 335 
3  49 50 642 
3  34 506 347 
3  231 522 311 
3  260 356 629 
3  215 465 288 
3  230 332 487 
3  252 347 660 
3  245 365 502 
3  250 339 605 
3  135 464 362 
3  42 671 319 
3  196 534 358 
3  251 439 430 
3  179 333 601 
3  251 472 411 
3  104 611 505 
3  5 299 546 
3  234 371 451 
3  113 469 331 
3  209 411 472 
3  209 326 653 
3  314 403 647 
3  175 326 455 
3  142 311 522 
3  81 82 390 
3  152 465 153 
3  231 527 526 
3  196 360 534 
3  21 77 389 
3  242 306 514 
3  117 559 553 
3  168 169 539 
3  223 459 323 
3  14 411 687 
3  11 688 372 
3  249 399 608 
3  110 518 321 
3  191 605 339 
3  59 335 573 
3  194 693 351 
3  287 429 621 
3  170 643 401 
3  144 145 635 
3  226 420 385 
3  214 448 536 
3  295 406 687 
3  115 482 317 
3  121 348 497 
3  168 398 169 
3  216 352 460 
3  145 408 635 
3  235 510 486 
3  176 526 339 
3  175 455 378 
3  270 378 697 
3  134 135 362 
3  297 504 404 
3  27 658 171 
3  248 642 360 
3  126 406 127 
3  140 446 141 
3  149 426 334 
3  197 569 323 
3  44 315 457 
3  93 323 459 
3  368 663 137 
3  296 486 510 
3  270 674 378 
3  274 351 693 
3  178 353 440 
3  124 125 401 
3  9 121 497 
3  10 122 599 
3  269 450 513 
3  224 341 477 
3  28 444 680 
3  153 306 565 
3  227 356 560 
3  185 513 450 
3  197 321 569 
3  193 584 335 
3  223 323 569 
3  268 402 597 
3  82 432 390 
3  223 569 321 
3  10 512 318 
3  164 448 685 
3  238 320 577 
3  254 454 408 
3  155 429 410 
3  263 589 383 
3  238 348 554 
3  169 398 645 
3  194 351 447 
3  198 660 347 
3  204 371 425 
3  260 372 651 
3  641 504 173 
3  116 657 325 
3  361 606 451 
3  219 408 454 
3  245 325 657 
3  229 378 455 
3  269 513 560 
3  111 477 341 
3  6 388 108 
3  97 98 382 
3  151 370 533 
3  187 580 394 
3  10 390 432 
3  5 421 134 
3  230 538 341 
3  209 472 336 
3  271 685 448 
3  181 628 485 
3  215 579 340 
3  217 496 375 
3  262 567 327 
3  202 393 430 
3  294 658 380 
3  149 150 426 
3  121 349 483 
3  167 361 517 
3  172 623 474 
3  153 465 492 
3  217 385 420 
3  218 615 337 
3  163 448 164 
3  156 621 429 
3  27 354 570 
3  47 595 346 
3  291 463 530 
3  309 672 543 
3  228 412 395 
3  6 108 574 
3  227 513 418 
3  114 399 115 
3  364 504 641 
3  106 108 548 
3  237 530 463 
3  167 168 414 
3  149 383 589 
3  336 596 502 
3  551 449 135 
3  164 165 445 
3  251 430 393 
3  29 30 416 
3  697 203 507 
3  200 368 407 
3  175 378 674 
3  286 507 424 
3  243 696 515 
3  386 697 507 
3  106 574 108 
3  244 532 434 
3  695 491 174 
3  148 334 593 
3  18 583 70 
3  279 505 611 
3  60 61 701 
3  239 613 601 
3  247 335 584 
3  195 662 376 
3  203 697 378 
3  15 170 590 
3  137 449 551 
3  97 382 558 
3  284 460 352 
3  69 70 583 
3  90 524 392 
3  93 94 706 
3  20 412 525 
3  19 456 62 
3  266 467 605 
3  201 336 502 
3  116 683 572 
3  110 602 111 
3  217 375 568 
3  194 447 692 
3  173 356 641 
3  196 380 588 
3  196 358 564 
3  418 513 614 
3  120 554 348 
3  38 39 510 
3  72 691 340 
3  229 483 349 
3  215 340 691 
3  139 678 140 
3  223 381 459 
3  260 641 356 
3  157 158 442 
3  178 440 609 
3  217 568 385 
3  27 380 658 
3  10 599 390 
3  109 555 397 
3  125 171 401 
3  245 596 387 
3  217 423 496 
3  229 581 345 
3  172 405 418 
3  236 355 545 
3  201 345 581 
3  284 352 650 
3  127 644 128 
3  80 578 334 
3  178 609 481 
3  158 705 159 
3  191 339 527 
3  293 645 398 
3  186 543 672 
3  290 659 528 
3  238 577 348 
3  90 91 524 
3  136 449 138 
3  202 651 372 
3  236 489 355 
3  241 531 329 
3  258 370 638 
3  196 588 360 
3  226 350 668 
3  244 563 532 
3  47 346 661 
3  46 661 346 
3  247 441 396 
3  220 366 458 
3  92 459 381 
3  139 452 678 
3  229 349 689 
3  228 377 471 
3  237 396 441 
3  155 666 391 
3  12 422 151 
3  12 542 422 
3  148 669 383 
3  143 374 487 
3  180 435 420 
3  273 394 580 
3  198 348 577 
3  221 490 417 
3  115 683 116 
3  115 116 482 
3  175 674 350 
3  180 386 486 
3  192 359 612 
3  26 643 170 
3  20 23 634 
3  257 436 491 
3  223 518 427 
3  253 593 334 
3  160 355 489 
3  221 564 358 
3  105 322 611 
3  268 533 370 
3  280 666 492 
3  68 69 431 
3  230 487 374 
3  73 74 433 
3  91 381 524 
3  351 526 649 
3  222 504 364 
3  250 612 359 
3  204 425 582 
3  233 540 392 
3  133 363 499 
3  6 574 382 
3  42 43 671 
3  38 510 495 
3  61 62 456 
3  159 705 515 
3  117 553 118 
3  118 553 330 
3  227 537 356 
3  4 96 558 
3  142 522 143 
3  192 516 359 
3  222 466 404 
3  128 644 316 
3  153 154 514 
3  23 122 634 
3  258 638 565 
3  219 374 635 
3  649 526 176 
3  14 466 439 
3  128 129 442 
3  122 488 599 
3  86 87 503 
3  13 385 568 
3  272 383 669 
3  112 437 113 
3  288 465 422 
3  8 110 538 
3  251 411 439 
3  191 552 605 
3  329 462 529 
3  183 369 508 
3  179 529 333 
3  259 402 557 
3  156 428 616 
3  235 486 386 
3  248 360 588 
3  56 57 463 
3  109 397 637 
3  273 582 425 
3  154 666 155 
3  274 676 351 
3  205 354 607 
3  240 499 363 
3  161 561 162 
3  181 485 519 
3  254 525 412 
3  280 433 633 
3  263 592 287 
3  101 462 329 
3  118 365 523 
3  74 633 433 
3  177 393 479 
3  227 418 405 
3  221 473 490 
3  14 439 411 
3  183 530 369 
3  140 678 446 
3  120 121 483 
3  8 538 413 
3  173 560 356 
3  232 508 369 
3  145 681 400 
3  237 620 369 
3  259 557 498 
3  43 44 457 
3  193 353 584 
3  284 375 496 
3  234 501 371 
3  274 681 470 
3  162 163 453 
3  177 479 387 
3  217 420 435 
3  217 435 423 
3  245 523 365 
3  70 71 655 
3  212 410 429 
3  233 524 381 
3  87 377 503 
3  72 73 691 
3  144 681 145 
3  247 396 573 
3  104 105 611 
3  208 503 377 
3  277 665 637 
3  255 478 384 
3  221 358 550 
3  129 157 442 
3  271 443 640 
3  18 654 130 
3  240 363 571 
3  47 48 595 
3  283 515 696 
3  226 480 420 
3  133 371 501 
3  4 104 505 
3  72 340 586 
3  48 338 595 
3  11 139 458 
3  64 571 363 
3  237 369 530 
3  92 93 459 
3  160 461 161 
3  225 423 435 
3  202 364 651 
3  275 485 631 
3  367 491 695 
3  205 622 354 
3  174 337 617 
3  200 636 337 
3  124 650 125 
3  131 132 624 
3  438 600 591 
3  17 606 361 
3  25 169 645 
3  168 517 398 
3  208 384 503 
3  123 568 375 
3  58 573 396 
3  113 114 469 
3  165 699 445 
3  17 640 443 
3  101 102 462 
3  229 689 378 
3  264 337 636 
3  86 503 384 
3  180 541 435 
3  13 568 123 
3  253 334 578 
3  275 519 485 
3  140 141 475 
3  247 584 353 
3  211 521 600 
3  152 153 565 
3  216 607 354 
3  233 392 524 
3  10 432 512 
3  143 522 470 
3  167 414 640 
3  211 491 367 
3  4 558 104 
3  116 117 657 
3  243 705 327 
3  111 112 477 
3  149 589 150 
3  40 41 476 
3  219 635 408 
3  222 404 504 
3  268 370 628 
3  285 394 654 
3  64 65 571 
3  105 382 574 
3  277 637 397 
3  235 386 507 
3  151 638 370 
3  211 600 438 
3  261 398 517 
3  158 327 705 
3  54 55 698 
3  51 358 534 
3  15 610 26 
3  130 654 394 
3  22 625 511 
3  21 24 616 
3  232 561 461 
3  17 443 594 
3  178 481 620 
3  142 143 487 
3  280 633 391 
3  134 421 551 
3  215 691 433 
3  132 133 499 
3  116 559 117 
3  18 655 376 
3  19 133 501 
3  263 383 692 
3  152 422 465 
3  234 528 659 
3  16 78 547 
3  176 359 632 
3  150 652 426 
3  15 417 490 
3  159 160 489 
3  18 130 583 
3  239 464 613 
3  240 484 562 
3  211 367 521 
3  107 438 591 
3  126 127 494 
3  117 118 523 
3  7 551 421 
3  222 439 466 
3  4 505 694 
3  31 32 630 
3  183 563 530 
3  203 378 689 
3  288 422 542 
3  322 521 673 
3  8 518 110 
3  172 418 623 
3  75 391 633 
3  36 37 509 
3  322 600 521 
3  126 687 406 
3  265 623 418 
3  27 570 380 
3  271 640 414 
3  200 615 368 
3  50 51 534 
3  172 474 467 
3  177 387 596 
3  50 534 360 
3  71 586 376 
3  162 536 163 
3  210 618 468 
3  280 391 666 
3  242 415 632 
3  30 31 700 
3  167 517 168 
3  180 420 480 
3  257 438 511 
3  241 388 531 
3  188 673 521 
3  200 337 615 
3  301 445 667 
3  134 551 135 
3  71 72 586 
3  291 530 563 
3  249 683 399 
3  204 703 361 
3  107 548 109 
3  262 473 567 
3  253 390 599 
3  90 392 677 
3  277 601 613 
3  210 493 618 
3  308 629 679 
3  272 598 400 
3  240 624 499 
3  244 647 403 
3  202 648 393 
3  298 618 493 
3  12 535 542 
3  264 373 617 
3  279 468 618 
3  249 367 695 
3  168 539 414 
3  297 500 627 
3  80 81 578 
3  136 613 464 
3  203 424 507 
3  174 491 436 
3  184 496 423 
3  268 557 402 
3  105 574 106 
3  147 148 593 
3  237 441 620 
3  250 467 474 
3  119 554 120 
3  7 137 551 
3  36 509 419 
3  213 627 500 
3  293 535 645 
3  96 97 558 
3  249 695 373 
3  181 519 498 
3  230 413 538 
3  264 559 373 
3  215 492 465 
3  289 451 606 
3  244 556 563 
3  89 90 677 
3  269 627 450 
3  8 427 518 
3  267 594 443 
3  361 703 517 
3  58 59 573 
3  145 146 585 
3  174 617 695 
3  164 685 165 
3  248 380 570 
3  227 405 537 
3  298 694 505 
3  181 498 557 
3  254 408 585 
3  291 563 556 
3  249 373 572 
3  287 592 429 
3  264 617 337 
3  21 428 587 
3  145 598 146 
3  243 532 696 
3  65 484 571 
3  293 398 544 
3  320 660 577 
3  1 661 46 
3  1 47 661 
3  249 608 367 
3  145 400 598 
3  248 588 380 
3  244 403 698 
3  180 486 541 
3  254 412 702 
3  228 543 412 
3  246 333 529 
3  213 450 627 
3  400 681 693 
3  145 585 408 
3  681 274 693 
3  235 495 510 
3  199 333 604 
3  243 434 532 
3  245 657 523 
3  74 75 633 
3  55 556 698 
3  71 376 655 
3  231 470 522 
3  275 623 519 
3  225 435 541 
3  14 687 126 
3  189 679 629 
3  261 544 398 
3  311 446 670 
3  116 572 559 
3  5 630 409 
3  0 680 103 
3  0 28 680 
3  182 567 473 
3  115 399 683 
3  176 632 415 
3  262 490 473 
3  308 679 452 
3  198 577 660 
3  256 670 446 
3  289 639 528 
3  17 167 640 
3  242 632 516 
3  282 542 535 
3  147 669 148 
3  265 498 519 
3  130 431 583 
3  69 583 431 
3  7 421 603 
3  256 452 679 
3  165 414 539 
3  246 529 462 
3  229 455 581 
3  54 698 403 
3  21 587 77 
3  266 682 405 
3  244 434 647 
3  246 604 333 
3  190 404 664 
3  163 536 448 
3  259 667 445 
3  190 664 545 
3  307 545 664 
3  265 418 614 
3  193 528 639 
3  393 648 479 
3  309 677 672 
3  392 540 672 
3  18 70 655 
3  296 541 486 
3  176 415 649 
3  299 416 700 
3  392 672 677 
3  255 512 432 
3  404 466 664 
3  221 417 564 
3  256 446 678 
3  293 544 675 
3  31 546 700 
3  252 603 421 
3  259 445 699 
3  373 559 572 
3  161 461 561 
3  16 686 24 
3  271 414 685 
3  368 615 663 
3  147 593 488 
3  214 609 440 
3  22 637 665 
3  234 659 501 
3  274 470 676 
3  182 647 434 
3  231 676 470 
3  373 695 617 
3  178 620 441 
3  188 468 673 
3  412 543 702 
3  165 685 414 
3  212 429 592 
3  183 532 563 
3  261 580 544 
3  218 343 663 
3  281 479 648 
3  241 397 555 
3  300 481 609 
3  259 498 566 
3  279 618 505 
3  152 565 638 
3  293 675 535 
3  320 603 660 
3  240 571 484 
3  279 673 468 
3  252 660 603 
3  268 597 533 
3  354 622 570 
3  32 409 630 
3  261 582 580 
3  298 505 618 
3  266 552 549 
3  265 566 498 
3  256 679 549 
3  15 490 610 
3  256 552 670 
3  290 456 659 
3  79 426 547 
3  351 649 447 
3  73 433 691 
3  24 626 621 
3  270 480 668 
3  367 608 521 
3  282 535 675 
3  187 675 544 
3  250 605 467 
3  256 678 452 
3  351 676 526 
3  226 668 480 
3  254 585 525 
3  186 454 702 
3  26 610 704 
3  256 549 552 
3  259 566 667 
3  25 533 597 
3  254 702 454 
3  241 646 397 
3  261 517 703 
3  243 515 705 
3  146 525 585 
3  330 553 636 
3  250 474 612 
3  272 576 598 
3  183 508 696 
3  31 630 546 
3  181 557 628 
3  259 699 402 
3  30 700 416 
3  245 502 596 
3  268 628 557 
3  185 614 513 
3  283 696 508 
3  307 664 466 
3  132 499 624 
3  248 570 622 
3  17 594 606 
3  187 544 580 
3  103 680 444 
3  265 614 566 
3  188 521 608 
3  253 488 593 
3  171 658 590 
3  173 619 560 
3  16 652 686 
3  322 673 611 
3  359 516 632 
3  258 631 485 
3  269 560 619 
3  273 580 582 
3  265 519 623 
3  264 636 553 
3  244 698 556 
3  146 598 576 
3  253 599 488 
3  289 594 639 
3  426 652 547 
3  5 546 630 
3  136 665 613 
3  186 672 540 
3  279 611 673 
3  267 639 594 
3  405 682 537 
3  262 610 490 
3  117 523 657 
3  231 526 676 
3  289 606 594 
3  185 566 614 
3  294 590 658 
3  189 537 682 
3  16 547 652 
3  183 696 532 
3  269 619 627 
3  299 700 546 
3  189 682 549 
3  204 582 703 
3  266 549 682 
3  186 702 543 
3  297 627 619 
3  191 670 552 
3  189 549 679 
3  106 591 600 
3  278 690 656 
3  147 576 669 
3  260 651 641 
3  218 663 615 
3  364 641 651 
3  261 703 582 
3  249 572 683 
3  195 575 662 
3  272 669 576 
3  185 667 566 
3  76 587 428 
3  285 662 575 
3  316 656 690 
3  287 621 626 
3  292 684 644 
3  350 674 668 
3  270 668 674 
3  316 644 684 
3  262 704 610 
3  150 686 652 
3  277 613 665 
3  22 511 107 
3  22 109 637 
3  22 665 136 
3  22 138 625 
3  24 150 626 
3  24 686 150 
3  24 156 616 
3  24 621 156 
3  25 597 166 
3  76 77 587 
3  77 78 389 
3  78 79 547 
3  106 107 591 
3  108 109 548 
3  22 107 109 
3  136 138 22 
CELL_TYPES 1332
5
5
5
5
5
5
5
5
5
5
5
5
5
5
5
5
5
5
5
5
5
5
5
5
5
5
5
5
5
5
5
5
5
5
5
5
5
5
5
5
5
5
5
5
5
5
5
5
5
5
5
5
5
5
5
5
5
5
5
5
5
5
5
5
5
5
5
5
5
5
5
5
5
5
5
5
5
5
5
5
5
5
5
5
5
5
5
5
5
5
5
5
5
5
5
5
5
5
5
5
5
5
5
5
5
5
5
5
5
5
5
5
5
5
5
5
5
5
5
5
5
5
5
5
5
5
5
5
5
5
5
5
5
5
5
5
5
5
5
5
5
5
5
5
5
5
5
5
5
5
5
5
5
5
5
5
5
5
5
5
5
5
5
5
5
5
5
5
5
5
5
5
5
5
5
5
5
5
5
5
5
5
5
5
5
5
5
5
5
5
5
5
5
5
5
5
5
5
5
5
5
5
5
5
5
5
5
5
5
5
5
5
5
5
5
5
5
5
5
5
5
5
5
5
5
5
5
5
5
5
5
5
5
5
5
5
5
5
5
5
5
5
5
5
5
5
5
5
5
5
5
5
5
5
5
5
5
5
5
5
5
5
5
5
5
5
5
5
5
5
5
5
5
5
5
5
5
5
5
5
5
5
5
5
5
5
5
5
5
5
5
5
5
5
5
5
5
5
5
5
5
5
5
5
5
5
5
5
5
5
5
5
5
5
5
5
5
5
5
5
5
5
5
5
5
5
5
5
5
5
5
5
5
5
5
5
5
5
5
5
5
5
5
5
5
5
5
5
5
5
5
5
5
5
5
5
5
5
5
5
5
5
5
5
5
5
5
5
5
5
5
5
5
5
5
5
5
5
5
5
5
5
5
5
5
5
5
5
5
5
5
5
5
5
5
5
5
5
5
5
5
5
5
5
5
5
5
5
5
5
5
5
5
5
5
5
5
5
5
5
5
5
5
5
5
5
5
5
5
5
5
5
5
5
5
5
5
5
5
5
5
5
5
5
5
5
5
5
5
5
5
5
5
5
5
5
5
5
5
5
5
5
5
5
5
5
5
5
5
5
5
5
5
5
5
5
5
5
5
5
5
5
5
5
5
5
5
5
5
5
5
5
5
5
5
5
5
5
5
5
5
5
5
5
5
5
5
5
5
5
5
5
5
5
5
5
5
5
5
5
5
5
5
5
5
5
5
5
5
5
5
5
5
5
5
5
5
5
5
5
5
5
5
5
5
5
5
5
5
5
5
5
5
5
5
5
5
5
5
5
5
5
5
5
5
5
5
5
5
5
5
5
5
5
5
5
5
5
5
5
5
5
5
5
5
5
5
5
5
5
5
5
5
5
5
5
5
5
5
5
5
5
5
5
5
5
5
5
5
5
5
5
5
5
5
5
5
5
5
5
5
5
5
5
5
5
5
5
5
5
5
5
5
5
5
5
5
5
5
5
5
5
5
5
5
5
5
5
5
5
5
5
5
5
5
5
5
5
5
5
5
5
5
5
5
5
5
5
5
5
5
5
5
5
5
5
5
5
5
5
5
5
5
5
5
5
5
5
5
5
5
5
5
5
5
5
5
5
5
5
5
5
5
5
5
5
5
5
5
5
5
5
5
5
5
5
5
5
5
5
5
5
5
5
5
5
5
5
5
5
5
5
5
5
5
5
5
5
5
5
5
5
5
5
5
5
5
5
5
5
5
5
5
5
5
5
5
5
5
5
5
5
5
5
5
5
5
5
5
5
5
5
5
5
5
5
5
5
5
5
5
5
5
5
5
5
5
5
5
5
5
5
5
5
5
5
5
5
5
5
5
5
5
5
5
5
5
5
5
5
5
5
5
5
5
5
5
5
5
5
5
5
5
5
5
5
5
5
5
5
5
5
5
5
5
5
5
5
5
5
5
5
5
5
5
5
5
5
5
5
5
5
5
5
5
5
5
5
5
5
5
5
5
5
5
5
5
5
5
5
5
5
5
5
5
5
5
5
5
5
5
5
5
5
5
5
5
5
5
5
5
5
5
5
5
5
5
5
5
5
5
5
5
5
5
5
5
5
5
5
5
5
5
5
5
5
5
5
5
5
5
5
5
5
5
5
5
5
5
5
5
5
5
5
5
5
5
5
5
5
5
5
5
5
5
5
5
5
5
5
5
5
5
5
5
5
5
5
5
5
5
5
5
5
5
5
5
5
5
5
5
5
5
5
5
5
5
5
5
5
5
5
5
5
5
5
5
5
5
5
5
5
5
5
5
5
5
5
5
5
5
5
5
5
5
5
5
5
5
5
5
5
5
5
5
5
5
5
5
5
5
5
5
5
5
5
5
5
5
5
5
5
5
5
5
5
5
5
5
5
5
5
5
5
5
5
5
5
5
5
5
5
5
5
5
5
5
5
5
5
5
5
5
5
5
5
5
5
5
5
5
5
5
5
5
5
5
5
5
5
5
5
5
5
5
5
5
5
5
5
5
5
5
5
5
5
5
5
5
5
5
5
5
5
5
5
5
5
5
5
5
5
5
5
5
5
5
5
5
5
5
5
5
5
5
5
5
5
5
5
5
5
5
5
5
5
5
5
5
5
5
5
5
5
5
5
5
5
5
5
5
5
5
5
5
5
5
5
5
5
5
5
5
5
5
5
5
5
5
5
5
5
5
5
5
5
5
5
5
5
5
5
5
5
5
5
5
5
5
5
5
5
5
5
5
5
5
5
5
5
5
5
5
5
5
5
5
5
5
5
5
5
5
5
5
5
5
5
5
5
5
5
5
5
5
5
5
5
5
5
5
5
5
5
5
5
5
5
5
5
5
5
5
5
5
5
5
5
5
5
5
5
5
5
5
5
5
5
5
5
5
5
5
5
5
5
5
5
5
5
5
5
5
5
5
5
5
5
5
5
5
5
5
5
5
5
5
5
5
5
5
5
5
5
5
5
5
5
5
5
5
5
5
5
5
5
5
5
5
5
5
5
5
5
5
5
5
5
5
5
5
5
5
5
5
5
5
5
5
5
5
5
CELL_DATA 1332
SCALARS P float 1
LOOKUP_TABLE default
1.121468
1.134109
2.001342
2.069762
3.747427
3.471304
3.792498
3.293303
3.715962
3.464374
3.944774
1.405806
2.404994
1.113909
3.665462
1.336151
1.866799
3.650116
2.253013
3.600997
3.878676
3.830704
3.826561
3.500749
1.972189
3.621807
2.465978
2.150207
2.994172
2.456522
1.224316
3.749223
1.243657
3.318605
2.723723
1.383267
3.516267
2.401036
2.456027
3.873559
3.943947
3.498143
1.245693
3.923289
3.813965
3.673782
2.366483
2.227144
1.279557
2.792131
1.203717
3.171664
2.232169
3.941790
2.363149
2.823864
2.624064
2.762734
3.539376
2.732762
1.055266
3.871912
1.767734
3.434338
3.744529
1.539730
2.372093
2.997692
2.621028
1.772631
1.610121
2.764036
3.787828
3.143824
1.198824
3.025564
3.632659
1.645310
3.624362
3.525227
3.203995
1.591982
3.224452
3.699229
3.178590
2.543870
3.422718
3.038711
3.586613
1.317658
2.637247
2.382108
3.732213
3.578743
3.681201
2.584864
2.393999
2.466432
3.730129
3.222112
3.291350
3.574134
1.711098
2.488522
3.584411
3.781302
3.720767
1.516399
2.810157
3.550192
3.705361
3.273366
2.313185
2.292558
3.327390
3.224941
3.508974
2.895187
2.285806
2.656967
2.695445
2.758431
1.086850
1.385758
2.295171
2.968747
1.031106
3.176460
2.386458
3.488727
3.201483
1.058335
2.956912
2.406921
3.953684
3.911418
3.725698
3.317467
3.685660
1.028266
1.130209
3.584545
2.460297
2.707928
2.838431
3.590918
1.648304
2.597795
3.951590
1.553447
3.903603
2.410714
1.221551
3.457786
2.413167
1.052559
2.098786
1.045474
3.793185
2.067718
3.489766
1.364868
3.020180
2.776483
2.329616
2.581755
3.824412
2.297038
3.154337
2.613806
2.622024
1.178593
1.217684
3.393331
3.097494
3.741358
2.783057
2.527602
2.465855
1.316190
2.407531
1.539705
1.310670
1.636294
1.062778
3.008917
3.877056
1.407475
1.184637
3.425021
3.328176
1.820181
2.549848
1.903609
1.790283
2.339990
1.350411
2.274911
2.377581
1.336706
2.763010
1.335854
1.955010
1.331252
3.846384
3.922068
2.359365
1.468990
3.559613
2.248309
1.758141
1.875464
3.635778
3.969380
1.805156
3.815871
2.651787
2.492882
3.939667
2.512592
2.164556
1.264103
3.442992
2.631389
2.540463
1.353768
2.294467
2.338558
1.403557
3.657912
2.583409
3.913987
2.497466
3.518396
2.454385
1.083066
2.579218
2.915508
3.863910
2.420638
2.006384
2.089546
3.736230
2.393459
3.389758
2.386193
3.108235
2.372858
2.342607
3.772162
3.246785
2.825571
2.421595
3.772934
3.068029
1.353213
2.374132
1.055166
3.956315
2.421888
3.383696
1.241773
1.479766
1.318726
3.748361
3.070022
2.387169
2.494235
3.973108
2.503367
3.915812
1.055323
1.420589
1.269221
1.270778
1.332035
3.408982
3.833777
2.486624
3.369412
2.241460
2.393924
2.410950
2.418686
2.666080
1.300114
2.451118
2.483463
2.618955
3.540057
1.389069
3.880101
2.597286
2.707809
3.629390
2.379265
2.516287
2.535714
2.268041
3.816319
2.459757
2.650473
3.494675
3.264450
3.535555
3.683045
3.789527
3.496966
3.635157
1.299754
3.436567
3.625070
3.650029
1.072723
3.961760
1.062189
3.799491
2.913564
1.162942
3.309366
2.060649
3.441832
3.844422
1.368943
3.108649
3.928416
3.778450
1.331076
2.080260
1.963447
2.545711
1.475530
3.559289
2.294285
2.445711
2.431514
1.353023
3.944546
3.607748
3.774033
1.298090
3.693214
1.222412
3.323710
2.517129
2.639054
2.343756
1.297077
3.896685
3.203693
2.515222
2.704492
3.891373
2.015090
1.050125
3.964770
1.326568
2.736267
1.338038
2.430641
3.390898
2.349996
1.061467
2.574187
1.083640
1.367122
3.681880
2.625379
2.335944
1.457729
2.888241
1.286044
2.700151
3.062759
3.279250
3.665378
3.462363
3.943170
2.469419
3.814738
2.457603
1.308126
3.176910
3.370014
1.107224
1.038555
1.071977
2.530664
3.846024
2.949552
1.380107
1.269290
1.473401
3.620567
1.868236
2.550948
2.581970
2.689074
2.195117
2.399812
3.322602
3.886272
3.788328
2.650396
3.630876
2.057425
3.542944
3.746725
1.698715
3.546619
1.676926
1.230363
2.570578
3.582779
2.537609
3.368369
2.360379
3.867618
1.345477
1.976543
2.625644
2.664701
2.874300
2.005836
2.670552
2.880235
3.550086
3.454059
1.109675
3.919166
3.143009
3.701907
3.818012
1.291492
3.547705
3.232711
2.778562
1.323343
1.139858
2.665188
2.553245
3.668643
2.656097
2.108317
2.929183
3.666077
3.699480
3.958456
2.518735
2.422675
1.386927
3.212462
2.816710
3.609634
1.358423
1.167812
1.721622
3.854780
1.212244
2.405148
2.075009
1.363303
3.289428
2.626535
2.579823
1.995005
2.223156
2.568970
2.858753
3.840626
3.656040
1.294674
1.348673
2.556755
3.359392
2.553028
1.239954
2.508497
1.241129
1.924721
3.643713
1.538131
3.810764
3.322925
2.394582
3.912741
1.528819
1.028073
1.834846
1.158249
3.667925
2.929622
2.661442
3.318728
2.700127
3.349316
3.450012
2.643112
1.219913
2.469887
1.283686
2.297514
2.576150
3.082473
3.403882
2.612371
3.248049
2.314166
1.164838
2.165990
2.122797
3.695246
3.046886
3.393989
2.538316
1.352439
2.068736
2.530860
2.576754
2.474289
2.623084
2.563758
1.531891
3.309739
3.117135
3.728905
1.026391
1.097991
1.050139
3.397938
2.675723
2.677167
2.179151
3.429327
3.485885
3.092694
2.599183
3.753033
2.100119
1.176802
2.655190
3.839200
2.694883
3.727822
3.719956
1.311222
3.357535
2.701372
2.746230
1.118376
2.794090
2.697152
3.128865
2.382677
2.639615
1.187238
2.541206
2.502750
3.356590
1.523562
3.832343
2.516517
2.927905
3.486130
3.568737
2.620455
1.061007
2.632107
2.552610
2.040231
3.522026
2.383366
1.406923
2.481941
3.289075
3.272102
1.530006
1.860072
3.551024
2.606240
2.601999
2.779072
2.702693
3.739652
2.532045
1.540631
1.217147
2.371083
2.722389
2.658162
3.777074
1.643059
3.906282
3.642572
2.540844
2.681679
2.643864
1.261829
2.034199
3.236307
2.980334
2.503223
3.395516
3.932038
2.464285
2.584447
2.491005
3.685017
1.142886
3.783320
2.417983
3.269266
3.704930
3.565108
1.470369
3.435542
3.627382
2.519201
2.597058
3.350117
1.561771
2.613730
3.425212
1.363408
2.729821
2.609749
3.242128
1.382894
3.604697
3.170188
2.864372
2.536476
3.421289
3.812964
3.958376
2.424674
1.512909
3.261174
3.695702
3.452620
2.795109
1.457013
2.463607
2.070938
2.153618
1.299831
2.747328
1.437902
2.609581
3.135456
1.479143
2.544531
2.355209
2.311367
3.572046
1.463559
2.538213
1.613116
1.133498
1.109496
3.811293
3.746807
3.781772
2.544219
3.390985
2.627927
3.760799
1.128753
1.507705
2.599762
2.970948
3.720466
2.386418
2.725546
3.812468
2.750284
3.532229
2.714411
2.851670
1.269407
2.694069
3.769818
1.179208
3.552401
2.695865
1.460071
3.694270
1.031969
3.794059
1.129252
1.757349
2.763412
1.536221
3.715629
3.919026
1.954749
1.424850
3.921445
3.964097
3.663125
1.080297
2.608368
2.963690
3.383205
3.485242
2.169598
2.610538
2.618579
1.330752
1.221645
2.523191
3.297358
2.624787
2.030169
3.037396
2.095933
2.740981
3.836508
2.657140
2.281045
1.294576
2.242260
1.504680
3.123627
3.790517
1.971607
3.052210
2.196389
3.004590
2.561762
2.380190
3.012089
1.993384
2.327657
2.812534
1.287861
1.338433
2.630771
1.588579
3.775356
1.193812
3.378006
3.963430
3.728494
2.758989
2.356356
3.894137
2.449937
1.247629
2.514331
1.158777
1.130009
1.215940
1.132455
3.193096
3.922878
2.740511
2.976200
3.859006
1.139513
2.444227
2.266729
2.092222
2.622729
3.462408
2.405254
1.464843
3.361634
1.296728
3.360411
3.306104
2.631214
2.544689
2.543181
2.116659
3.632059
3.615465
3.693150
2.782668
2.335588
1.213841
3.705172
2.429512
2.374247
1.333069
3.464193
2.224232
3.928086
2.611411
2.610195
2.560812
1.401014
3.816837
1.232724
3.844073
1.989266
2.680449
1.033847
1.320184
3.319482
3.343783
2.601826
3.905874
2.706473
2.537738
2.538190
2.292455
2.467274
3.614841
2.452409
3.532405
2.598944
2.523721
2.310221
2.902087
3.966145
2.219094
2.628248
3.438952
2.199269
3.474689
2.635144
2.635259
3.908901
1.228972
3.863249
2.434420
2.514754
2.618341
1.261829
1.030504
3.777552
1.411411
2.459496
2.643864
1.545637
1.193670
1.375535
2.479975
3.658274
2.309655
2.575627
3.941915
3.217190
2.287465
2.883736
2.567868
1.271668
2.559539
1.193364
2.721784
3.197152
3.512798
2.594588
1.262571
2.681905
1.196077
2.450407
1.745158
1.194462
2.091222
1.284880
2.671179
2.372224
2.963139
2.325174
2.264067
3.151543
1.629378
2.540284
3.850545
3.923956
2.083540
2.695330
1.093816
3.742958
3.833929
3.774816
3.768915
1.173899
2.294932
1.431878
1.392800
1.140925
1.060971
1.286309
2.457840
1.294514
3.763364
1.957967
1.147273
3.146528
1.070373
1.176398
3.962673
1.355215
2.290492
2.705896
2.494891
3.555663
1.485256
3.525288
3.490593
2.041627
1.310573
3.682238
1.422829
1.556246
1.516568
3.828033
2.119428
1.049796
3.367756
2.398124
1.430449
3.976073
2.883745
3.470181
3.916760
2.416214
2.121877
2.831605
2.494544
3.310432
1.169195
3.635606
2.440696
1.693120
3.853781
3.448270
2.694228
1.489279
3.592768
3.817460
3.286267
1.298799
3.420537
2.589742
2.317401
3.564614
2.561274
2.439766
1.500135
1.028018
3.805298
3.788281
2.686485
2.430278
3.659450
1.513197
1.331270
1.017808
1.084608
1.420702
1.424021
3.711728
2.544158
1.324412
1.387718
1.248910
3.422380
2.367417
3.689344
2.171069
1.289614
3.338405
1.630389
1.279560
2.603521
2.311710
1.232590
2.592080
2.565828
2.606810
1.362435
2.309764
1.375855
3.777589
1.153762
3.596806
3.706203
2.353659
3.271065
3.662247
2.564160
3.775461
3.655776
1.166064
2.825633
2.094299
3.633656
3.520592
2.540893
2.376413
3.000787
3.649988
2.417626
2.521221
1.507236
1.469130
3.553785
1.036808
2.564625
2.980485
1.110289
1.779823
1.419139
3.602407
2.387592
2.543393
3.746591
1.506708
2.468854
3.672314
3.886147
3.593331
3.526149
2.426089
3.720578
1.853924
1.128887
3.445263
1.421458
3.749659
1.274684
2.974797
3.923128
3.794750
3.620918
2.724003
2.660567
1.238128
1.117044
2.798766
3.656846
1.885873
3.457985
3.629393
3.518216
1.513860
2.481267
2.899000
3.759115
2.834607
3.577982
2.131247
2.430807
3.765113
2.662826
1.181475
2.571658
3.277185
3.702343
3.072810
2.463271
1.650877
3.968872
3.478005
2.475874
3.488918
3.428603
2.261322
1.344306
1.115589
3.971068
2.493343
3.616915
1.348054
1.463946
1.019388
3.576657
3.514355
1.502616
1.413170
2.591376
3.738686
2.460558
3.611780
1.104157
3.447995
2.560202
3.481395
2.511275
2.689174
1.239134
1.059193
1.576499
3.455331
1.116811
1.042044
3.522134
2.678379
1.355675
1.089597
2.486641
3.683718
3.756277
3.878888
2.470049
2.663555
3.576613
2.660651
2.685349
3.835762
1.221072
3.187538
2.333698
1.040838
1.704861
2.675395
2.511848
2.361254
2.397844
2.691150
1.536435
2.686894
3.377051
3.644943
3.990042
3.961419
1.240739
3.400710
2.564553
1.298673
2.728764
3.414108
2.688892
1.276983
1.490983
2.535751
1.831569
2.631267
2.487114
1.358529
1.365765
3.599461
2.706530
1.513972
3.910265
2.917815
1.043253
2.521517
2.614033
1.164033
3.868990
2.476051
1.428609
2.431489
2.437501
2.431478
2.512719
1.234943
2.871971
3.863240
3.820192
1.554879
2.473445
2.575942
3.771449
3.865404
3.536696
2.498183
1.280980
2.706144
1.614218
3.724246
3.571661
2.417428
3.413952
1.351606
2.561114
1.473686
3.587259
2.723755
1.342068
3.758815
1.244224
2.660084
1.186500
2.662429
3.490204
1.215971
3.588551
3.722876
1.500770
2.556718
1.182381
1.518185
3.631894
2.915323
3.821102
1.313305
2.460396
3.675499
2.439854
1.673051
3.502413
1.123828
3.623991
3.517677
2.417436
1.504182
3.617206
1.479351
3.694230
2.644275
2.480010
2.683042
1.370976
2.670652
1.140932
2.644088
2.603742
2.173273
2.556061
2.583382
3.563002
1.735117
1.595058
2.590508
2.714478
2.630459
2.514387
3.625929
3.693929
1.387659
2.665272
2.452267
2.406622
3.663544
3.830372
1.480301
1.293618
3.603259
3.402229
2.558632
2.656715
1.242145
3.687487
2.454431
2.421738
3.780978
3.041904
2.441484
2.499249
1.277210
2.461191
1.279060
1.415878
1.384169
1.547353
3.965975
2.491118
3.563290
2.803280
1.578664
2.563949
2.586697
3.665197
2.546767
2.479660
2.538935
1.454295
2.505003
3.420574
1.088269
2.672783
2.884123
1.313728
2.620933
3.684322
3.760254
3.772685
3.661038
1.312253
2.611593
1.337880
3.248653
2.643745
1.348156
2.483218
1.505390
2.633366
2.595856
1.219398
2.515570
3.739289
2.650157
1.427584
2.636312
3.733209
2.509994
2.655117
2.671894
3.714845
2.164842
2.641302
2.683456
3.597114
2.670001
1.464577
3.428754
1.729806
2.645150
2.464172
2.483447
1.649539
2.216429
2.560334
2.318447
2.587280
2.616548
2.280342
1.351358
2.588749
3.778234
3.728283
3.752824
3.744019
3.724619
2.565385
2.567062
2.537500
2.541475
2.390130
2.502199
2.554874
2.616192
3.738447
3.756801
3.743083
3.734012
