# vtk DataFile Version 2.0
Unstructured Grid Example
ASCII
DATASET UNSTRUCTURED_GRID
POINTS 93 float
0.050000 0.416000 0.000000 
0.069500 0.375000 0.000000 
0.087900 0.337000 0.000000 
0.105000 0.301000 0.000000 
0.122000 0.267000 0.000000 
0.137000 0.234000 0.000000 
0.152000 0.203000 0.000000 
0.167000 0.173000 0.000000 
0.183000 0.139000 0.000000 
0.201000 0.102000 0.000000 
0.220000 0.062400 0.000000 
0.050000 0.275000 0.000000 
0.087900 0.248000 0.000000 
0.122000 0.225000 0.000000 
0.181000 0.183000 0.000000 
0.214000 0.160000 0.000000 
0.250000 0.135000 0.000000 
0.150000 0.630000 0.000000 
0.173000 0.588000 0.000000 
0.196000 0.547000 0.000000 
0.219000 0.505000 0.000000 
0.242000 0.464000 0.000000 
0.265000 0.422000 0.000000 
0.288000 0.381000 0.000000 
0.312000 0.339000 0.000000 
0.335000 0.298000 0.000000 
0.358000 0.256000 0.000000 
0.381000 0.215000 0.000000 
0.404000 0.173000 0.000000 
0.427000 0.132000 0.000000 
0.450000 0.090000 0.000000 
0.150000 0.917000 0.000000 
0.169000 0.885000 0.000000 
0.186000 0.856000 0.000000 
0.211000 0.816000 0.000000 
0.235000 0.775000 0.000000 
0.259000 0.735000 0.000000 
0.283000 0.696000 0.000000 
0.306000 0.656000 0.000000 
0.330000 0.617000 0.000000 
0.353000 0.578000 0.000000 
0.377000 0.539000 0.000000 
0.400000 0.500000 0.000000 
0.650000 0.833000 0.000000 
0.662000 0.793000 0.000000 
0.676000 0.747000 0.000000 
0.690000 0.700000 0.000000 
0.704000 0.654000 0.000000 
0.718000 0.608000 0.000000 
0.732000 0.561000 0.000000 
0.746000 0.515000 0.000000 
0.759000 0.469000 0.000000 
0.773000 0.422000 0.000000 
0.787000 0.376000 0.000000 
0.801000 0.330000 0.000000 
0.815000 0.283000 0.000000 
0.827000 0.244000 0.000000 
0.838000 0.206000 0.000000 
0.850000 0.168000 0.000000 
0.700000 0.235000 0.000000 
0.737000 0.218000 0.000000 
0.775000 0.201000 0.000000 
0.812000 0.184000 0.000000 
0.600000 0.380000 0.000000 
0.642000 0.361000 0.000000 
0.685000 0.342000 0.000000 
0.728000 0.323000 0.000000 
0.771000 0.303000 0.000000 
0.850000 0.268000 0.000000 
0.350000 0.971000 0.000000 
0.373000 0.958000 0.000000 
0.404000 0.940000 0.000000 
0.437000 0.922000 0.000000 
0.470000 0.903000 0.000000 
0.506000 0.883000 0.000000 
0.542000 0.862000 0.000000 
0.581000 0.840000 0.000000 
0.620000 0.817000 0.000000 
0.705000 0.768000 0.000000 
0.751000 0.742000 0.000000 
0.800000 0.714000 0.000000 
0.750000 0.957000 0.000000 
0.790000 0.929000 0.000000 
0.830000 0.901000 0.000000 
0.870000 0.872000 0.000000 
0.910000 0.844000 0.000000 
0.950000 0.816000 0.000000 
0.150000 0.836000 0.000000 
0.229000 0.879000 0.000000 
0.269000 0.901000 0.000000 
0.306000 0.921000 0.000000 
0.341000 0.940000 0.000000 
0.400000 0.973000 0.000000 
CELLS 89 267
2  0 1 
2  1 2 
2  2 3 
2  3 4 
2  4 5 
2  5 6 
2  6 7 
2  7 8 
2  8 9 
2  9 10 
2  11 12 
2  12 13 
2  13 6 
2  6 14 
2  14 15 
2  15 16 
2  17 18 
2  18 19 
2  19 20 
2  20 21 
2  21 22 
2  22 23 
2  23 24 
2  24 25 
2  25 26 
2  26 27 
2  27 28 
2  28 29 
2  29 30 
2  31 32 
2  32 33 
2  33 34 
2  34 35 
2  35 36 
2  36 37 
2  37 38 
2  38 39 
2  39 40 
2  40 41 
2  41 42 
2  43 44 
2  44 45 
2  45 46 
2  46 47 
2  47 48 
2  48 49 
2  49 50 
2  50 51 
2  51 52 
2  52 53 
2  53 54 
2  54 55 
2  55 56 
2  56 57 
2  57 58 
2  59 60 
2  60 61 
2  61 62 
2  62 58 
2  63 64 
2  64 65 
2  65 66 
2  66 67 
2  67 55 
2  55 68 
2  69 70 
2  70 71 
2  71 72 
2  72 73 
2  73 74 
2  74 75 
2  75 76 
2  76 77 
2  77 44 
2  44 78 
2  78 79 
2  79 80 
2  81 82 
2  82 83 
2  83 84 
2  84 85 
2  85 86 
2  87 33 
2  33 88 
2  88 89 
2  89 90 
2  90 91 
2  91 70 
2  70 92 
CELL_TYPES 89
3
3
3
3
3
3
3
3
3
3
3
3
3
3
3
3
3
3
3
3
3
3
3
3
3
3
3
3
3
3
3
3
3
3
3
3
3
3
3
3
3
3
3
3
3
3
3
3
3
3
3
3
3
3
3
3
3
3
3
3
3
3
3
3
3
3
3
3
3
3
3
3
3
3
3
3
3
3
3
3
3
3
3
3
3
3
3
3
3
CELL_DATA 89
SCALARS P float 1
LOOKUP_TABLE default
3.783375
3.777435
3.769441
3.761865
3.755986
3.751961
3.749300
3.746364
3.742371
3.738502
3.774070
3.766205
3.755851
3.745019
3.734814
3.727287
3.493972
3.482798
3.465462
3.444778
3.422249
3.399022
3.375943
3.353567
3.332204
3.312118
3.293744
3.278026
3.267524
3.287350
3.195443
3.152170
3.147697
3.132083
3.110048
3.087452
3.066820
3.049143
3.032222
3.013669
2.057609
1.981504
1.984122
1.971092
1.948723
1.924496
1.900860
1.878486
1.858848
1.845162
1.841953
1.851887
1.805044
1.785013
1.807442
2.243406
2.232806
2.217980
2.206176
2.472280
2.462551
2.448680
2.435343
2.426644
1.295708
2.578799
2.567157
2.543994
2.520149
2.496228
2.473130
2.452349
2.436595
2.429048
1.529308
1.520656
1.511420
1.372468
1.357973
1.338255
1.319016
1.305532
3.626590
2.668726
2.655897
2.636058
2.613317
2.589985
2.578039
