lc = 2.0e1;
lcf = 1.2e1;
lcfiner = 0.6e1;

Point(1) = {0.000000, 333.733200, 0, lcfiner};
Point(2) = {13.438900, 342.692400, 0, lcf};
Point(3) = {22.398200, 450.203800, 0, lcf};
Point(4) = {26.877800, 506.199200, 0, lcf};
Point(5) = {29.502700, 300.724600, 0, lcf};
Point(6) = {32.204200, 309.375700, 0, lcf};
Point(7) = {44.796400, 528.597400, 0, lcf};
Point(8) = {47.036200, 181.425400, 0, lcf};
Point(9) = {51.659200, 371.678200, 0, lcf};
Point(10) = {53.046200, 293.612000, 0, lcf};
Point(11) = {53.755600, 306.855400, 0, lcf};
Point(12) = {68.292400, 424.944200, 0, lcf};
Point(13) = {82.973600, 471.959000, 0, lcf};
Point(14) = {92.088400, 501.148200, 0, lcf};
Point(15) = {96.360000, 514.827400, 0, lcf};
Point(16) = {99.353100, 407.848800, 0, lcf};
Point(17) = {138.886300, 437.830400, 0, lcf};
Point(18) = {151.278500, 261.724600, 0, lcf};
Point(19) = {152.379100, 378.663900, 0, lcf};
Point(20) = {152.855700, 429.303600, 0, lcf};
Point(21) = {153.037000, 448.562100, 0, lcf};
Point(22) = {153.198100, 465.678900, 0, lcf};
Point(23) = {154.462300, 600.000000, 0, lcf};
Point(24) = {165.891900, 458.311200, 0, lcf};
Point(25) = {175.156200, 597.603000, 0, lcf};
Point(26) = {182.936700, 471.237700, 0, lcf};
Point(27) = {184.393800, 447.572300, 0, lcf};
Point(28) = {186.794100, 408.588000, 0, lcf};
Point(29) = {189.908300, 358.008300, 0, lcf};
Point(30) = {198.237900, 222.724400, 0, lcf};
Point(31) = {199.343800, 400.927800, 0, lcf};
Point(32) = {249.511700, 514.990800, 0, lcf};
Point(33) = {258.359100, 515.574600, 0, lcf};
Point(34) = {269.134700, 147.781400, 0, lcf};
Point(35) = {269.611200, 152.052400, 0, lcf};
Point(36) = {269.808500, 314.032200, 0, lcf};
Point(37) = {270.148000, 397.798900, 0, lcf};
Point(38) = {270.458400, 474.383700, 0, lcf};
Point(39) = {270.536200, 493.584800, 0, lcf};
Point(40) = {270.662300, 524.702600, 0, lcf};
Point(41) = {271.985200, 490.968200, 0, lcf};
Point(42) = {272.218900, 470.970800, 0, lcf};
Point(43) = {295.102500, 114.746600, 0, lcf};
Point(44) = {297.180600, 237.621000, 0, lcf};
Point(45) = {309.203000, 223.737500, 0, lcf};
Point(46) = {311.334800, 291.176600, 0, lcf};
Point(47) = {312.526500, 272.016800, 0, lcf};
Point(48) = {312.961900, 93.315400, 0, lcf};
Point(49) = {314.778900, 95.651600, 0, lcf};
Point(50) = {322.533900, 380.769400, 0, lcf};
Point(51) = {322.883800, 120.699800, 0, lcf};
Point(52) = {326.323400, 254.735800, 0, lcf};
Point(53) = {330.518200, 298.475200, 0, lcf};
Point(54) = {337.568200, 253.256200, 0, lcf};
Point(55) = {337.581100, 600.000000, 0, lcf};
Point(56) = {338.370700, 589.117300, 0, lcf};
Point(57) = {340.245500, 187.889700, 0, lcf};
Point(58) = {340.572400, 320.700200, 0, lcf};
Point(59) = {342.134300, 283.363000, 0, lcf};
Point(60) = {344.932100, 481.561200, 0, lcf};
Point(61) = {346.144100, 481.979200, 0, lcf};
Point(62) = {347.171900, 374.050000, 0, lcf};
Point(63) = {347.171900, 595.792000, 0, lcf};
Point(64) = {351.262500, 411.434800, 0, lcf};
Point(65) = {353.591400, 304.107300, 0, lcf};
Point(66) = {354.184700, 371.159200, 0, lcf};
Point(67) = {355.830200, 348.479800, 0, lcf};
Point(68) = {356.924000, 310.141200, 0, lcf};
Point(69) = {357.444300, 215.756100, 0, lcf};
Point(70) = {357.574200, 167.878600, 0, lcf};
Point(71) = {357.808900, 216.346800, 0, lcf};
Point(72) = {362.571400, 174.674800, 0, lcf};
Point(73) = {364.623800, 159.737700, 0, lcf};
Point(74) = {365.090500, 342.692400, 0, lcf};
Point(75) = {366.143300, 226.665600, 0, lcf};
Point(76) = {366.973100, 338.133000, 0, lcf};
Point(77) = {367.559900, 286.304400, 0, lcf};
Point(78) = {371.809900, 468.122200, 0, lcf};
Point(79) = {372.778700, 363.494500, 0, lcf};
Point(80) = {374.477600, 211.187400, 0, lcf};
Point(81) = {375.007800, 240.595500, 0, lcf};
Point(82) = {378.529400, 309.095200, 0, lcf};
Point(83) = {382.018300, 561.866800, 0, lcf};
Point(84) = {382.415300, 424.151000, 0, lcf};
Point(85) = {383.150800, 183.558100, 0, lcf};
Point(86) = {386.006300, 421.278200, 0, lcf};
Point(87) = {386.080800, 33.362200, 0, lcf};
Point(88) = {386.780900, 264.765600, 0, lcf};
Point(89) = {387.690700, 40.505100, 0, lcf};
Point(90) = {388.735600, 262.167800, 0, lcf};
Point(91) = {391.940200, 561.470000, 0, lcf};
Point(92) = {392.493400, 455.445200, 0, lcf};
Point(93) = {393.663500, 454.728100, 0, lcf};
Point(94) = {394.259100, 457.330100, 0, lcf};
Point(95) = {397.893300, 554.326200, 0, lcf};
Point(96) = {399.484700, 279.059300, 0, lcf};
Point(97) = {401.105600, 206.642900, 0, lcf};
Point(98) = {402.258900, 283.418800, 0, lcf};
Point(99) = {403.052700, 592.029400, 0, lcf};
Point(100) = {404.250100, 113.977300, 0, lcf};
Point(101) = {404.508800, 502.104900, 0, lcf};
Point(102) = {409.886800, 503.959400, 0, lcf};
Point(103) = {411.834900, 147.630500, 0, lcf};
Point(104) = {415.355900, 585.679400, 0, lcf};
Point(105) = {416.053400, 225.861500, 0, lcf};
Point(106) = {417.301700, 140.783200, 0, lcf};
Point(107) = {417.340200, 578.535600, 0, lcf};
Point(108) = {418.530900, 229.046800, 0, lcf};
Point(109) = {419.687000, 182.469100, 0, lcf};
Point(110) = {420.912100, 159.196600, 0, lcf};
Point(111) = {426.375100, 212.143600, 0, lcf};
Point(112) = {426.918500, 600.000000, 0, lcf};
Point(113) = {430.997200, 167.754800, 0, lcf};
Point(114) = {431.208400, 233.588600, 0, lcf};
Point(115) = {432.285000, 510.678800, 0, lcf};
Point(116) = {439.526700, 156.658200, 0, lcf};
Point(117) = {439.719000, 505.854600, 0, lcf};
Point(118) = {440.585100, 275.191800, 0, lcf};
Point(119) = {441.152800, 159.593600, 0, lcf};
Point(120) = {441.244400, 0.000000, 0, lcf};
Point(121) = {447.899700, 371.763400, 0, lcf};
Point(122) = {448.560300, 182.658700, 0, lcf};
Point(123) = {453.852800, 326.916400, 0, lcf};
Point(124) = {455.481100, 329.403400, 0, lcf};
Point(125) = {455.839500, 172.984500, 0, lcf};
Point(126) = {459.635100, 40.241400, 0, lcf};
Point(127) = {459.759000, 49.875700, 0, lcf};
Point(128) = {459.980000, 192.349300, 0, lcf};
Point(129) = {461.249900, 165.793900, 0, lcf};
Point(130) = {461.402700, 253.099600, 0, lcf};
Point(131) = {461.407600, 178.061300, 0, lcf};
Point(132) = {461.562200, 190.081400, 0, lcf};
Point(133) = {461.609200, 193.731900, 0, lcf};
Point(134) = {461.751700, 204.812600, 0, lcf};
Point(135) = {466.627700, 182.820800, 0, lcf};
Point(136) = {467.346600, 315.803800, 0, lcf};
Point(137) = {468.101800, 40.241400, 0, lcf};
Point(138) = {468.140300, 481.301200, 0, lcf};
Point(139) = {471.712200, 253.653200, 0, lcf};
Point(140) = {472.130300, 484.821800, 0, lcf};
Point(141) = {472.241500, 322.494500, 0, lcf};
Point(142) = {473.299700, 278.656400, 0, lcf};
Point(143) = {483.618500, 315.407000, 0, lcf};
Point(144) = {484.677400, 213.307400, 0, lcf};
Point(145) = {484.983300, 317.242200, 0, lcf};
Point(146) = {489.571600, 395.179000, 0, lcf};
Point(147) = {489.783800, 395.815700, 0, lcf};
Point(148) = {490.029200, 204.157500, 0, lcf};
Point(149) = {490.520400, 268.778400, 0, lcf};
Point(150) = {492.972600, 312.762800, 0, lcf};
Point(151) = {493.553300, 220.839400, 0, lcf};
Point(152) = {493.674100, 313.659700, 0, lcf};
Point(153) = {495.127900, 505.113600, 0, lcf};
Point(154) = {496.334200, 391.801000, 0, lcf};
Point(155) = {499.132400, 212.457400, 0, lcf};
Point(156) = {504.900600, 230.468600, 0, lcf};
Point(157) = {505.672700, 309.058600, 0, lcf};
Point(158) = {508.621700, 221.109400, 0, lcf};
Point(159) = {509.812300, 101.252800, 0, lcf};
Point(160) = {510.602900, 235.307600, 0, lcf};
Point(161) = {510.678700, 383.009200, 0, lcf};
Point(162) = {511.036700, 459.574100, 0, lcf};
Point(163) = {511.796700, 461.854200, 0, lcf};
Point(164) = {512.918500, 116.470600, 0, lcf};
Point(165) = {521.877800, 593.552200, 0, lcf};
Point(166) = {527.528600, 600.000000, 0, lcf};
Point(167) = {527.671700, 313.819400, 0, lcf};
Point(168) = {530.837100, 134.389200, 0, lcf};
Point(169) = {531.859600, 446.061300, 0, lcf};
Point(170) = {533.624800, 254.843800, 0, lcf};
Point(171) = {533.624800, 295.960200, 0, lcf};
Point(172) = {533.624800, 448.757400, 0, lcf};
Point(173) = {534.341300, 296.896100, 0, lcf};
Point(174) = {534.418600, 407.482200, 0, lcf};
Point(175) = {537.422800, 297.946000, 0, lcf};
Point(176) = {549.103000, 362.635200, 0, lcf};
Point(177) = {554.659300, 129.034200, 0, lcf};
Point(178) = {557.040500, 285.006400, 0, lcf};
Point(179) = {558.931300, 286.759700, 0, lcf};
Point(180) = {559.024900, 219.125000, 0, lcf};
Point(181) = {561.009200, 144.909200, 0, lcf};
Point(182) = {564.434400, 145.588400, 0, lcf};
Point(183) = {564.858500, 424.647200, 0, lcf};
Point(184) = {565.374900, 283.022000, 0, lcf};
Point(185) = {565.374900, 425.341600, 0, lcf};
Point(186) = {566.156600, 283.781400, 0, lcf};
Point(187) = {567.359300, 153.640400, 0, lcf};
Point(188) = {567.756100, 214.759400, 0, lcf};
Point(189) = {573.709300, 162.371800, 0, lcf};
Point(190) = {574.899900, 215.553000, 0, lcf};
Point(191) = {574.899900, 498.763600, 0, lcf};
Point(192) = {575.224600, 417.920300, 0, lcf};
Point(193) = {576.052000, 405.367200, 0, lcf};
Point(194) = {576.581100, 419.654600, 0, lcf};
Point(195) = {579.662400, 173.881000, 0, lcf};
Point(196) = {586.409300, 490.032400, 0, lcf};
Point(197) = {587.996800, 394.782200, 0, lcf};
Point(198) = {589.981200, 393.591600, 0, lcf};
Point(199) = {597.125000, 378.907200, 0, lcf};
Point(200) = {600.696900, 325.487600, 0, lcf};
Point(201) = {602.681200, 476.538600, 0, lcf};
Point(202) = {607.046800, 323.503200, 0, lcf};
Point(203) = {623.318800, 376.684600, 0, lcf};
Point(204) = {626.673000, 527.003600, 0, lcf};
Point(205) = {627.287500, 527.338800, 0, lcf};
Point(206) = {640.294200, 516.974900, 0, lcf};
Point(207) = {640.588200, 253.099600, 0, lcf};
Point(208) = {642.828000, 374.050000, 0, lcf};
Point(209) = {644.353200, 519.004400, 0, lcf};
Point(210) = {655.862600, 502.335600, 0, lcf};
Point(211) = {700.000000, 473.015600, 0, lcf};
Point(212) = {0, 0, 0, lcfiner};
Point(213) = {700, 0, 0, lc};
Point(214) = {700, 600, 0, lc};
Point(215) = {0, 600, 0, lcfiner};

Line(1) = {35, 45};
Line(2) = {32, 38};
Line(3) = {33, 39};
Line(4) = {40, 39};
Line(5) = {67, 66};
Line(6) = {76, 79};
Line(7) = {30, 29};
Line(8) = {18, 19};
Line(9) = {5, 6};
Line(10) = {87, 89};
Line(11) = {126, 127};
Line(12) = {44, 45};
Line(13) = {47, 52};
Line(14) = {53, 59};
Line(15) = {58, 65};
Line(16) = {150, 152};
Line(17) = {157, 193};
Line(18) = {175, 203};
Line(19) = {50, 64};
Line(20) = {60, 61};
Line(21) = {78, 92};
Line(22) = {115, 117};
Line(23) = {166, 204};
Line(24) = {1, 6};
Line(25) = {2, 9};
Line(26) = {3, 12};
Line(27) = {4, 13};
Line(28) = {7, 14};
Line(29) = {82, 96};
Line(30) = {130, 144};
Line(31) = {62, 66};
Line(32) = {149, 160};
Line(33) = {8, 10};
Line(34) = {84, 86};
Line(35) = {197, 176};
Line(36) = {198, 167};
Line(37) = {199, 173};
Line(38) = {172, 169};
Line(39) = {163, 162};
Line(40) = {185, 183};
Line(41) = {174, 141};
Line(42) = {205, 204};
Line(43) = {209, 206};
Line(44) = {210, 201};
Line(45) = {104, 91};
Line(46) = {107, 95};
Line(47) = {99, 83};
Line(48) = {153, 140};
Line(49) = {170, 160};
Line(50) = {158, 155};
Line(51) = {108, 105};
Line(52) = {72, 70};
Line(53) = {71, 69};
Line(54) = {98, 96};
Line(55) = {54, 80};
Line(56) = {88, 90};
Line(57) = {142, 156};
Line(58) = {139, 151};
Line(59) = {180, 187};
Line(60) = {188, 189};
Line(61) = {190, 195};
Line(62) = {178, 179};
Line(63) = {184, 186};
Line(64) = {68, 65};
Line(65) = {137, 127};
Line(66) = {42, 38};
Line(67) = {34, 36};
Line(68) = {41, 39};
Line(69) = {38, 39};
Line(70) = {55, 56};
Line(71) = {165, 117};
Line(72) = {64, 66};
Line(73) = {207, 186};
Line(74) = {112, 101};
Line(75) = {102, 101};
Line(76) = {101, 94};
Line(77) = {161, 154};
Line(78) = {93, 86};
Line(79) = {121, 86};
Line(80) = {86, 79};
Line(81) = {66, 79};
Line(82) = {25, 26};
Line(83) = {63, 56};
Line(84) = {26, 27};
Line(85) = {46, 36};
Line(86) = {23, 22};
Line(87) = {26, 24};
Line(88) = {21, 20};
Line(89) = {29, 19};
Line(90) = {15, 14};
Line(91) = {120, 89};
Line(92) = {118, 114};
Line(93) = {106, 103};
Line(94) = {103, 100};
Line(95) = {45, 57};
Line(96) = {100, 89};
Line(97) = {6, 10};
Line(98) = {134, 133};
Line(99) = {164, 135};
Line(100) = {132, 131};
Line(101) = {119, 125};
Line(102) = {131, 129};
Line(103) = {159, 129};
Line(104) = {129, 127};
Line(105) = {100, 127};
Line(106) = {103, 85};
Line(107) = {48, 49};
Line(108) = {85, 69};
Line(109) = {43, 57};
Line(110) = {69, 52};
Line(111) = {45, 52};
Line(112) = {116, 113};
Line(113) = {110, 113};
Line(114) = {113, 109};
Line(115) = {85, 97};
Line(116) = {97, 81};
Line(117) = {75, 81};
Line(118) = {81, 59};
Line(119) = {52, 59};
Line(120) = {77, 65};
Line(121) = {59, 65};
Line(122) = {194, 192};
Line(123) = {208, 192};
Line(124) = {192, 152};
Line(125) = {79, 124};
Line(126) = {101, 61};
Line(127) = {64, 61};
Line(128) = {93, 92};
Line(129) = {64, 92};
Line(130) = {192, 183};
Line(131) = {123, 124};
Line(132) = {169, 162};
Line(133) = {146, 147};
Line(134) = {162, 140};
Line(135) = {138, 140};
Line(136) = {140, 117};
Line(137) = {92, 94};
Line(138) = {211, 206};
Line(139) = {191, 204};
Line(140) = {21, 17};
Line(141) = {19, 16};
Line(142) = {16, 9};
Line(143) = {6, 9};
Line(144) = {16, 12};
Line(145) = {9, 12};
Line(146) = {31, 28};
Line(147) = {29, 28};
Line(148) = {28, 20};
Line(149) = {19, 20};
Line(150) = {20, 17};
Line(151) = {12, 13};
Line(152) = {74, 37};
Line(153) = {38, 37};
Line(154) = {37, 27};
Line(155) = {28, 27};
Line(156) = {27, 24};
Line(157) = {21, 22};
Line(158) = {22, 14};
Line(159) = {13, 14};
Line(160) = {132, 128};
Line(161) = {113, 122};
Line(162) = {128, 114};
Line(163) = {81, 90};
Line(164) = {168, 148};
Line(165) = {128, 133};
Line(166) = {182, 160};
Line(167) = {144, 151};
Line(168) = {11, 10};
Line(169) = {89, 49};
Line(170) = {171, 173};
Line(171) = {152, 173};
Line(172) = {143, 145};
Line(173) = {152, 145};
Line(174) = {145, 183};
Line(175) = {169, 183};
Line(176) = {136, 141};
Line(177) = {145, 141};
Line(178) = {196, 206};
Line(179) = {204, 206};
Line(180) = {131, 135};
Line(181) = {177, 155};
Line(182) = {97, 105};
Line(183) = {129, 125};
Line(184) = {51, 70};
Line(185) = {100, 73};
Line(186) = {105, 90};
Line(187) = {96, 90};
Line(188) = {181, 156};
Line(189) = {160, 156};
Line(190) = {155, 151};
Line(191) = {156, 151};
Line(192) = {200, 179};
Line(193) = {173, 179};
Line(194) = {202, 186};
Line(195) = {179, 186};
Line(196) = {37, 36};
Line(197) = {29, 36};
Line(198) = {61, 56};
Line(199) = {26, 56};
Line(200) = {93, 94};
Line(201) = {117, 94};
Line(202) = {93, 147};
Line(203) = {169, 154};
Line(204) = {21, 24};
Line(205) = {22, 24};
Line(206) = {103, 109};
Line(207) = {97, 109};
Line(208) = {109, 111};
Line(209) = {96, 114};
Line(210) = {70, 57};
Line(211) = {69, 57};
Line(212) = {132, 133};
Line(213) = {144, 133};
Line(214) = {132, 135};
Line(215) = {155, 148};
Line(216) = {131, 125};
Line(217) = {105, 111};
Line(218) = {85, 73};
Line(219) = {10, 49};
Line(220) = {141, 124};
Line(221) = {154, 124};
Line(222) = {162, 147};
Line(223) = {154, 147};
Line(224) = {16, 17};
Line(225) = {13, 17};
Line(226) = {128, 122};
Line(227) = {125, 122};
Line(228) = {144, 148};
Line(229) = {135, 148};
Line(230) = {70, 73};
Line(231) = {49, 73};
Line(232) = {114, 111};
Line(233) = {122, 111};
Line(234) = {212, 120};
Line(235) = {120, 213};
Line(236) = {213, 211};
Line(237) = {211, 214};
Line(238) = {214, 166};
Line(239) = {166, 112};
Line(240) = {112, 55};
Line(241) = {55, 23};
Line(242) = {23, 215};
Line(243) = {215, 1};
Line(244) = {1, 212};

Line Loop(1) = {234, 235, 236, 237, 238, 239, 240, 241, 242, 243, 244};

Plane Surface(1) = {1};
Line{1} In Surface{1};
Line{2} In Surface{1};
Line{3} In Surface{1};
Line{4} In Surface{1};
Line{5} In Surface{1};
Line{6} In Surface{1};
Line{7} In Surface{1};
Line{8} In Surface{1};
Line{9} In Surface{1};
Line{10} In Surface{1};
Line{11} In Surface{1};
Line{12} In Surface{1};
Line{13} In Surface{1};
Line{14} In Surface{1};
Line{15} In Surface{1};
Line{16} In Surface{1};
Line{17} In Surface{1};
Line{18} In Surface{1};
Line{19} In Surface{1};
Line{20} In Surface{1};
Line{21} In Surface{1};
Line{22} In Surface{1};
Line{23} In Surface{1};
Line{24} In Surface{1};
Line{25} In Surface{1};
Line{26} In Surface{1};
Line{27} In Surface{1};
Line{28} In Surface{1};
Line{29} In Surface{1};
Line{30} In Surface{1};
Line{31} In Surface{1};
Line{32} In Surface{1};
Line{33} In Surface{1};
Line{34} In Surface{1};
Line{35} In Surface{1};
Line{36} In Surface{1};
Line{37} In Surface{1};
Line{38} In Surface{1};
Line{39} In Surface{1};
Line{40} In Surface{1};
Line{41} In Surface{1};
Line{42} In Surface{1};
Line{43} In Surface{1};
Line{44} In Surface{1};
Line{45} In Surface{1};
Line{46} In Surface{1};
Line{47} In Surface{1};
Line{48} In Surface{1};
Line{49} In Surface{1};
Line{50} In Surface{1};
Line{51} In Surface{1};
Line{52} In Surface{1};
Line{53} In Surface{1};
Line{54} In Surface{1};
Line{55} In Surface{1};
Line{56} In Surface{1};
Line{57} In Surface{1};
Line{58} In Surface{1};
Line{59} In Surface{1};
Line{60} In Surface{1};
Line{61} In Surface{1};
Line{62} In Surface{1};
Line{63} In Surface{1};
Line{64} In Surface{1};
Line{65} In Surface{1};
Line{66} In Surface{1};
Line{67} In Surface{1};
Line{68} In Surface{1};
Line{69} In Surface{1};
Line{70} In Surface{1};
Line{71} In Surface{1};
Line{72} In Surface{1};
Line{73} In Surface{1};
Line{74} In Surface{1};
Line{75} In Surface{1};
Line{76} In Surface{1};
Line{77} In Surface{1};
Line{78} In Surface{1};
Line{79} In Surface{1};
Line{80} In Surface{1};
Line{81} In Surface{1};
Line{82} In Surface{1};
Line{83} In Surface{1};
Line{84} In Surface{1};
Line{85} In Surface{1};
Line{86} In Surface{1};
Line{87} In Surface{1};
Line{88} In Surface{1};
Line{89} In Surface{1};
Line{90} In Surface{1};
Line{91} In Surface{1};
Line{92} In Surface{1};
Line{93} In Surface{1};
Line{94} In Surface{1};
Line{95} In Surface{1};
Line{96} In Surface{1};
Line{97} In Surface{1};
Line{98} In Surface{1};
Line{99} In Surface{1};
Line{100} In Surface{1};
Line{101} In Surface{1};
Line{102} In Surface{1};
Line{103} In Surface{1};
Line{104} In Surface{1};
Line{105} In Surface{1};
Line{106} In Surface{1};
Line{107} In Surface{1};
Line{108} In Surface{1};
Line{109} In Surface{1};
Line{110} In Surface{1};
Line{111} In Surface{1};
Line{112} In Surface{1};
Line{113} In Surface{1};
Line{114} In Surface{1};
Line{115} In Surface{1};
Line{116} In Surface{1};
Line{117} In Surface{1};
Line{118} In Surface{1};
Line{119} In Surface{1};
Line{120} In Surface{1};
Line{121} In Surface{1};
Line{122} In Surface{1};
Line{123} In Surface{1};
Line{124} In Surface{1};
Line{125} In Surface{1};
Line{126} In Surface{1};
Line{127} In Surface{1};
Line{128} In Surface{1};
Line{129} In Surface{1};
Line{130} In Surface{1};
Line{131} In Surface{1};
Line{132} In Surface{1};
Line{133} In Surface{1};
Line{134} In Surface{1};
Line{135} In Surface{1};
Line{136} In Surface{1};
Line{137} In Surface{1};
Line{138} In Surface{1};
Line{139} In Surface{1};
Line{140} In Surface{1};
Line{141} In Surface{1};
Line{142} In Surface{1};
Line{143} In Surface{1};
Line{144} In Surface{1};
Line{145} In Surface{1};
Line{146} In Surface{1};
Line{147} In Surface{1};
Line{148} In Surface{1};
Line{149} In Surface{1};
Line{150} In Surface{1};
Line{151} In Surface{1};
Line{152} In Surface{1};
Line{153} In Surface{1};
Line{154} In Surface{1};
Line{155} In Surface{1};
Line{156} In Surface{1};
Line{157} In Surface{1};
Line{158} In Surface{1};
Line{159} In Surface{1};
Line{160} In Surface{1};
Line{161} In Surface{1};
Line{162} In Surface{1};
Line{163} In Surface{1};
Line{164} In Surface{1};
Line{165} In Surface{1};
Line{166} In Surface{1};
Line{167} In Surface{1};
Line{168} In Surface{1};
Line{169} In Surface{1};
Line{170} In Surface{1};
Line{171} In Surface{1};
Line{172} In Surface{1};
Line{173} In Surface{1};
Line{174} In Surface{1};
Line{175} In Surface{1};
Line{176} In Surface{1};
Line{177} In Surface{1};
Line{178} In Surface{1};
Line{179} In Surface{1};
Line{180} In Surface{1};
Line{181} In Surface{1};
Line{182} In Surface{1};
Line{183} In Surface{1};
Line{184} In Surface{1};
Line{185} In Surface{1};
Line{186} In Surface{1};
Line{187} In Surface{1};
Line{188} In Surface{1};
Line{189} In Surface{1};
Line{190} In Surface{1};
Line{191} In Surface{1};
Line{192} In Surface{1};
Line{193} In Surface{1};
Line{194} In Surface{1};
Line{195} In Surface{1};
Line{196} In Surface{1};
Line{197} In Surface{1};
Line{198} In Surface{1};
Line{199} In Surface{1};
Line{200} In Surface{1};
Line{201} In Surface{1};
Line{202} In Surface{1};
Line{203} In Surface{1};
Line{204} In Surface{1};
Line{205} In Surface{1};
Line{206} In Surface{1};
Line{207} In Surface{1};
Line{208} In Surface{1};
Line{209} In Surface{1};
Line{210} In Surface{1};
Line{211} In Surface{1};
Line{212} In Surface{1};
Line{213} In Surface{1};
Line{214} In Surface{1};
Line{215} In Surface{1};
Line{216} In Surface{1};
Line{217} In Surface{1};
Line{218} In Surface{1};
Line{219} In Surface{1};
Line{220} In Surface{1};
Line{221} In Surface{1};
Line{222} In Surface{1};
Line{223} In Surface{1};
Line{224} In Surface{1};
Line{225} In Surface{1};
Line{226} In Surface{1};
Line{227} In Surface{1};
Line{228} In Surface{1};
Line{229} In Surface{1};
Line{230} In Surface{1};
Line{231} In Surface{1};
Line{232} In Surface{1};
Line{233} In Surface{1};

Field[1] = Attractor;
Field[1].NodesList = {55,67,74,157,166};
// We then define a Threshold field, which uses the return value of the
// Attractor Field[1] in order to define a simple change in element size around
// the attractors (i.e., around point 5 and line 1)
//
// LcMax -                         /------------------
//                               /
//                             /
//                           /
// LcMin -o----------------/
//        |                |       |
//     Attractor       DistMin   DistMax
Field[2] = Threshold;
Field[2].IField = 1;
Field[2].LcMin = 0.2;
Field[2].LcMax = lc;
Field[2].DistMin = 0.5;
Field[2].DistMax = 1;

Physical Line(0) = {234, 235, 236, 237, 238, 239, 240, 241, 242, 243, 244};
Physical Line(1) = {1, 2, 3, 4, 5, 6, 7, 8, 9, 10, 11, 12, 13, 14, 15, 16, 17, 18, 19, 20, 21, 22, 23, 24, 25, 26, 27, 28, 29, 30, 31, 32, 33, 34, 35, 36, 37, 38, 39, 40, 41, 42, 43, 44, 45, 46, 47, 48, 49, 50, 51, 52, 53, 54, 55, 56, 57, 58, 59, 60, 61, 62, 63, 64, 65, 66, 67, 68, 69, 70, 71, 72, 73, 74, 75, 76, 77, 78, 79, 80, 81, 82, 83, 84, 85, 86, 87, 88, 89, 90, 91, 92, 93, 94, 95, 96, 97, 98, 99, 100, 101, 102, 103, 104, 105, 106, 107, 108, 109, 110, 111, 112, 113, 114, 115, 116, 117, 118, 119, 120, 121, 122, 123, 124, 125, 126, 127, 128, 129, 130, 131, 132, 133, 134, 135, 136, 137, 138, 139, 140, 141, 142, 143, 144, 145, 146, 147, 148, 149, 150, 151, 152, 153, 154, 155, 156, 157, 158, 159, 160, 161, 162, 163, 164, 165, 166, 167, 168, 169, 170, 171, 172, 173, 174, 175, 176, 177, 178, 179, 180, 181, 182, 183, 184, 185, 186, 187, 188, 189, 190, 191, 192, 193, 194, 195, 196, 197, 198, 199, 200, 201, 202, 203, 204, 205, 206, 207, 208, 209, 210, 211, 212, 213, 214, 215, 216, 217, 218, 219, 220, 221, 222, 223, 224, 225, 226, 227, 228, 229, 230, 231, 232, 233};
Physical Surface(0) = {1};

Mesh.Algorithm = 8;
Background Field = 2;
