"Sn","Sw","pn","pw","pc","rhoW","rhoN","mobW","mobN","porosity","temperature","isFracture","process rank","vtkValidPointMask","arc_length","Points:0","Points:1","Points:2"
0,1,2118.6,118.65,2000,1,1,1,0,0.1,293.15,0,0,1,0,0,-200,0
0,1,2118.6,118.64,2000,1,1,1,0,0.1,293.15,0,0,1,1.5952,1.5952,-200,0
0,1,2118.6,118.64,2000,1,1,1,0,0.1,293.15,0,0,1,3.1904,3.1904,-200,0
0,1,2118.6,118.64,2000,1,1,1,0,0.1,293.15,0,0,1,4.7856,4.7856,-200,0
0,1,2118.6,118.63,2000,1,1,1,0,0.1,293.15,0,0,1,6.3809,6.3809,-200,0
0,1,2118.6,118.63,2000,1,1,1,0,0.1,293.15,0,0,1,7.9761,7.9761,-200,0
0,1,2118.6,118.63,2000,1,1,1,0,0.1,293.15,0,0,1,9.5713,9.5713,-200,0
0,1,2118.6,118.62,2000,1,1,1,0,0.1,293.15,0,0,1,11.167,11.167,-200,0
0,1,2118.6,118.62,2000,1,1,1,0,0.1,293.15,0,0,1,12.762,12.762,-200,0
0,1,2118.6,118.62,2000,1,1,1,0,0.1,293.15,0,0,1,14.357,14.357,-200,0
0,1,2118.6,118.61,2000,1,1,1,0,0.1,293.15,0,0,1,15.952,15.952,-200,0
0,1,2118.6,118.61,2000,1,1,1,0,0.1,293.15,0,0,1,17.547,17.547,-200,0
0,1,2118.6,118.61,2000,1,1,1,0,0.1,293.15,0,0,1,19.143,19.143,-200,0
0,1,2118.6,118.6,2000,1,1,1,0,0.1,293.15,0,0,1,20.738,20.738,-200,0
0,1,2118.6,118.6,2000,1,1,1,0,0.1,293.15,0,0,1,22.333,22.333,-200,0
0,1,2118.6,118.6,2000,1,1,1,0,0.1,293.15,0,0,1,23.928,23.928,-200,0
0,1,2118.6,118.6,2000,1,1,1,0,0.1,293.15,0,0,1,25.523,25.523,-200,0
0,1,2118.6,118.59,2000,1,1,1,0,0.1,293.15,0,0,1,27.119,27.119,-200,0
0,1,2118.6,118.59,2000,1,1,1,0,0.1,293.15,0,0,1,28.714,28.714,-200,0
0,1,2118.6,118.59,2000,1,1,1,0,0.1,293.15,0,0,1,30.309,30.309,-200,0
0,1,2118.6,118.58,2000,1,1,1,0,0.1,293.15,0,0,1,31.904,31.904,-200,0
0,1,2118.6,118.58,2000,1,1,1,0,0.1,293.15,0,0,1,33.5,33.5,-200,0
0,1,2118.6,118.58,2000,1,1,1,0,0.1,293.15,0,0,1,35.095,35.095,-200,0
0,1,2118.6,118.57,2000,1,1,1,0,0.1,293.15,0,0,1,36.69,36.69,-200,0
0,1,2118.6,118.57,2000,1,1,1,0,0.1,293.15,0,0,1,38.285,38.285,-200,0
0,1,2118.6,118.57,2000,1,1,1,0,0.1,293.15,0,0,1,39.88,39.88,-200,0
0,1,2118.6,118.56,2000,1,1,1,0,0.1,293.15,0,0,1,41.476,41.476,-200,0
0,1,2118.6,118.56,2000,1,1,1,0,0.1,293.15,0,0,1,43.071,43.071,-200,0
0,1,2118.6,118.56,2000,1,1,1,0,0.1,293.15,0,0,1,44.666,44.666,-200,0
0,1,2118.5,118.55,2000,1,1,1,0,0.1,293.15,0,0,1,46.261,46.261,-200,0
0,1,2118.5,118.55,2000,1,1,1,0,0.1,293.15,0,0,1,47.856,47.856,-200,0
0,1,2118.5,118.53,2000,1,1,1,0,0.1,293.15,0,0,1,49.452,49.452,-200,0
0,1,2118.5,118.52,2000,1,1,1,0,0.1,293.15,0,0,1,51.047,51.047,-200,0
0,1,2118.5,118.5,2000,1,1,1,0,0.1,293.15,0,0,1,52.642,52.642,-200,0
0,1,2118.5,118.49,2000,1,1,1,0,0.1,293.15,0,0,1,54.237,54.237,-200,0
0,1,2118.5,118.48,2000,1,1,1,0,0.1,293.15,0,0,1,55.833,55.833,-200,0
0,1,2118.5,118.46,2000,1,1,1,0,0.1,293.15,0,0,1,57.428,57.428,-200,0
0,1,2118.4,118.45,2000,1,1,1,0,0.1,293.15,0,0,1,59.023,59.023,-200,0
0,1,2118.4,118.43,2000,1,1,1,0,0.1,293.15,0,0,1,60.618,60.618,-200,0
0,1,2118.4,118.42,2000,1,1,1,0,0.1,293.15,0,0,1,62.213,62.213,-200,0
0,1,2118.4,118.4,2000,1,1,1,0,0.1,293.15,0,0,1,63.809,63.809,-200,0
0,1,2118.4,118.39,2000,1,1,1,0,0.1,293.15,0,0,1,65.404,65.404,-200,0
0,1,2118.4,118.37,2000,1,1,1,0,0.1,293.15,0,0,1,66.999,66.999,-200,0
0,1,2118.4,118.36,2000,1,1,1,0,0.1,293.15,0,0,1,68.594,68.594,-200,0
0,1,2118.3,118.34,2000,1,1,1,0,0.1,293.15,0,0,1,70.189,70.189,-200,0
0,1,2118.3,118.33,2000,1,1,1,0,0.1,293.15,0,0,1,71.785,71.785,-200,0
0,1,2118.3,118.31,2000,1,1,1,0,0.1,293.15,0,0,1,73.38,73.38,-200,0
0,1,2118.3,118.3,2000,1,1,1,0,0.1,293.15,0,0,1,74.975,74.975,-200,0
0,1,2118.3,118.28,2000,1,1,1,0,0.1,293.15,0,0,1,76.57,76.57,-200,0
0,1,2118.3,118.27,2000,1,1,1,0,0.1,293.15,0,0,1,78.166,78.166,-200,0
0,1,2118.3,118.25,2000,1,1,1,0,0.1,293.15,0,0,1,79.761,79.761,-200,0
0,1,2118.2,118.24,2000,1,1,1,0,0.1,293.15,0,0,1,81.356,81.356,-200,0
0,1,2118.2,118.22,2000,1,1,1,0,0.1,293.15,0,0,1,82.951,82.951,-200,0
0,1,2118.2,118.21,2000,1,1,1,0,0.1,293.15,0,0,1,84.546,84.546,-200,0
0,1,2118.2,118.19,2000,1,1,1,0,0.1,293.15,0,0,1,86.142,86.142,-200,0
0,1,2118.2,118.17,2000,1,1,1,0,0.1,293.15,0,0,1,87.737,87.737,-200,0
0,1,2118.2,118.15,2000,1,1,1,0,0.1,293.15,0,0,1,89.332,89.332,-200,0
0,1,2118.1,118.13,2000,1,1,1,0,0.1,293.15,0,0,1,90.927,90.927,-200,0
0,1,2118.1,118.11,2000,1,1,1,0,0.1,293.15,0,0,1,92.522,92.522,-200,0
0,1,2118.1,118.09,2000,1,1,1,0,0.1,293.15,0,0,1,94.118,94.118,-200,0
0,1,2118.1,118.07,2000,1,1,1,0,0.1,293.15,0,0,1,95.713,95.713,-200,0
0,1,2118,118.05,2000,1,1,1,0,0.1,293.15,0,0,1,97.308,97.308,-200,0
0,1,2118,118.02,2000,1,1,1,0,0.1,293.15,0,0,1,98.903,98.903,-200,0
0,1,2118,118,2000,1,1,1,0,0.1,293.15,0,0,1,100.5,100.5,-200,0
0,1,2118,117.98,2000,1,1,1,0,0.1,293.15,0,0,1,102.09,102.09,-200,0
0,1,2118,117.96,2000,1,1,1,0,0.1,293.15,0,0,1,103.69,103.69,-200,0
0,1,2117.9,117.94,2000,1,1,1,0,0.1,293.15,0,0,1,105.28,105.28,-200,0
0,1,2117.9,117.92,2000,1,1,1,0,0.1,293.15,0,0,1,106.88,106.88,-200,0
0,1,2117.9,117.89,2000,1,1,1,0,0.1,293.15,0,0,1,108.47,108.47,-200,0
0,1,2117.9,117.87,2000,1,1,1,0,0.1,293.15,0,0,1,110.07,110.07,-200,0
0,1,2117.9,117.85,2000,1,1,1,0,0.1,293.15,0,0,1,111.67,111.67,-200,0
0,1,2117.8,117.84,2000,1,1,1,0,0.1,293.15,0,0,1,113.26,113.26,-200,0
0,1,2117.8,117.82,2000,1,1,1,0,0.1,293.15,0,0,1,114.86,114.86,-200,0
0,1,2117.8,117.8,2000,1,1,1,0,0.1,293.15,0,0,1,116.45,116.45,-200,0
0,1,2117.8,117.78,2000,1,1,1,0,0.1,293.15,0,0,1,118.05,118.05,-200,0
0,1,2117.8,117.77,2000,1,1,1,0,0.1,293.15,0,0,1,119.64,119.64,-200,0
0,1,2117.7,117.75,2000,1,1,1,0,0.1,293.15,0,0,1,121.24,121.24,-200,0
0,1,2117.7,117.73,2000,1,1,1,0,0.1,293.15,0,0,1,122.83,122.83,-200,0
0,1,2117.7,117.7,2000,1,1,1,0,0.1,293.15,0,0,1,124.43,124.43,-200,0
0,1,2117.7,117.68,2000,1,1,1,0,0.1,293.15,0,0,1,126.02,126.02,-200,0
0,1,2117.7,117.66,2000,1,1,1,0,0.1,293.15,0,0,1,127.62,127.62,-200,0
0,1,2117.6,117.64,2000,1,1,1,0,0.1,293.15,0,0,1,129.21,129.21,-200,0
0,1,2117.6,117.61,2000,1,1,1,0,0.1,293.15,0,0,1,130.81,130.81,-200,0
0,1,2117.6,117.59,2000,1,1,1,0,0.1,293.15,0,0,1,132.4,132.4,-200,0
0,1,2117.6,117.57,2000,1,1,1,0,0.1,293.15,0,0,1,134,134,-200,0
0,1,2117.5,117.54,2000,1,1,1,0,0.1,293.15,0,0,1,135.59,135.59,-200,0
0,1,2117.5,117.51,2000,1,1,1,0,0.1,293.15,0,0,1,137.19,137.19,-200,0
0,1,2117.5,117.49,2000,1,1,1,0,0.1,293.15,0,0,1,138.78,138.78,-200,0
0,1,2117.5,117.46,2000,1,1,1,0,0.1,293.15,0,0,1,140.38,140.38,-200,0
0,1,2117.4,117.44,2000,1,1,1,0,0.1,293.15,0,0,1,141.97,141.97,-200,0
0,1,2117.4,117.41,2000,1,1,1,0,0.1,293.15,0,0,1,143.57,143.57,-200,0
0,1,2117.4,117.39,2000,1,1,1,0,0.1,293.15,0,0,1,145.16,145.16,-200,0
0,1,2117.4,117.36,2000,1,1,1,0,0.1,293.15,0,0,1,146.76,146.76,-200,0
0,1,2117.3,117.33,2000,1,1,1,0,0.1,293.15,0,0,1,148.35,148.35,-200,0
0,1,2117.3,117.31,2000,1,1,1,0,0.1,293.15,0,0,1,149.95,149.95,-200,0
0,1,2117.3,117.28,2000,1,1,1,0,0.1,293.15,0,0,1,151.55,151.55,-200,0
0,1,2117.3,117.26,2000,1,1,1,0,0.1,293.15,0,0,1,153.14,153.14,-200,0
0,1,2117.2,117.23,2000,1,1,1,0,0.1,293.15,0,0,1,154.74,154.74,-200,0
0,1,2117.2,117.2,2000,1,1,1,0,0.1,293.15,0,0,1,156.33,156.33,-200,0
0,1,2117.2,117.18,2000,1,1,1,0,0.1,293.15,0,0,1,157.93,157.93,-200,0
0,1,2117.2,117.15,2000,1,1,1,0,0.1,293.15,0,0,1,159.52,159.52,-200,0
0,1,2117.1,117.13,2000,1,1,1,0,0.1,293.15,0,0,1,161.12,161.12,-200,0
0,1,2117.1,117.1,2000,1,1,1,0,0.1,293.15,0,0,1,162.71,162.71,-200,0
0,1,2117.1,117.07,2000,1,1,1,0,0.1,293.15,0,0,1,164.31,164.31,-200,0
0,1,2117,117.04,2000,1,1,1,0,0.1,293.15,0,0,1,165.9,165.9,-200,0
0,1,2117,117.01,2000,1,1,1,0,0.1,293.15,0,0,1,167.5,167.5,-200,0
0,1,2117,116.97,2000,1,1,1,0,0.1,293.15,0,0,1,169.09,169.09,-200,0
0,1,2116.9,116.94,2000,1,1,1,0,0.1,293.15,0,0,1,170.69,170.69,-200,0
0,1,2116.9,116.91,2000,1,1,1,0,0.1,293.15,0,0,1,172.28,172.28,-200,0
0,1,2116.9,116.88,2000,1,1,1,0,0.1,293.15,0,0,1,173.88,173.88,-200,0
0,1,2116.8,116.85,2000,1,1,1,0,0.1,293.15,0,0,1,175.47,175.47,-200,0
0,1,2116.8,116.82,2000,1,1,1,0,0.1,293.15,0,0,1,177.07,177.07,-200,0
0,1,2116.8,116.78,2000,1,1,1,0,0.1,293.15,0,0,1,178.66,178.66,-200,0
0,1,2116.7,116.75,2000,1,1,1,0,0.1,293.15,0,0,1,180.26,180.26,-200,0
0,1,2116.7,116.72,2000,1,1,1,0,0.1,293.15,0,0,1,181.85,181.85,-200,0
0,1,2116.7,116.69,2000,1,1,1,0,0.1,293.15,0,0,1,183.45,183.45,-200,0
0,1,2116.7,116.66,2000,1,1,1,0,0.1,293.15,0,0,1,185.04,185.04,-200,0
0,1,2116.6,116.63,2000,1,1,1,0,0.1,293.15,0,0,1,186.64,186.64,-200,0
0,1,2116.6,116.6,2000,1,1,1,0,0.1,293.15,0,0,1,188.24,188.24,-200,0
0,1,2116.6,116.58,2000,1,1,1,0,0.1,293.15,0,0,1,189.83,189.83,-200,0
0,1,2116.5,116.55,2000,1,1,1,0,0.1,293.15,0,0,1,191.43,191.43,-200,0
0,1,2116.5,116.52,2000,1,1,1,0,0.1,293.15,0,0,1,193.02,193.02,-200,0
0,1,2116.5,116.5,2000,1,1,1,0,0.1,293.15,0,0,1,194.62,194.62,-200,0
0,1,2116.5,116.47,2000,1,1,1,0,0.1,293.15,0,0,1,196.21,196.21,-200,0
0,1,2116.4,116.44,2000,1,1,1,0,0.1,293.15,0,0,1,197.81,197.81,-200,0
0,1,2116.4,116.42,2000,1,1,1,0,0.1,293.15,0,0,1,199.4,199.4,-200,0
0,1,2116.4,116.39,2000,1,1,1,0,0.1,293.15,0,0,1,201,201,-200,0
0,1,2116.4,116.36,2000,1,1,1,0,0.1,293.15,0,0,1,202.59,202.59,-200,0
0,1,2116.3,116.33,2000,1,1,1,0,0.1,293.15,0,0,1,204.19,204.19,-200,0
0,1,2116.3,116.3,2000,1,1,1,0,0.1,293.15,0,0,1,205.78,205.78,-200,0
0,1,2116.3,116.27,2000,1,1,1,0,0.1,293.15,0,0,1,207.38,207.38,-200,0
0,1,2116.2,116.23,2000,1,1,1,0,0.1,293.15,0,0,1,208.97,208.97,-200,0
0,1,2116.2,116.2,2000,1,1,1,0,0.1,293.15,0,0,1,210.57,210.57,-200,0
0,1,2116.2,116.17,2000,1,1,1,0,0.1,293.15,0,0,1,212.16,212.16,-200,0
0,1,2116.1,116.14,2000,1,1,1,0,0.1,293.15,0,0,1,213.76,213.76,-200,0
0,1,2116.1,116.1,2000,1,1,1,0,0.1,293.15,0,0,1,215.35,215.35,-200,0
0,1,2116.1,116.07,2000,1,1,1,0,0.1,293.15,0,0,1,216.95,216.95,-200,0
0,1,2116,116.04,2000,1,1,1,0,0.1,293.15,0,0,1,218.54,218.54,-200,0
0,1,2116,116.01,2000,1,1,1,0,0.1,293.15,0,0,1,220.14,220.14,-200,0
0,1,2116,115.98,2000,1,1,1,0,0.1,293.15,0,0,1,221.73,221.73,-200,0
0,1,2115.9,115.94,2000,1,1,1,0,0.1,293.15,0,0,1,223.33,223.33,-200,0
0,1,2115.9,115.91,2000,1,1,1,0,0.1,293.15,0,0,1,224.93,224.93,-200,0
0,1,2115.9,115.88,2000,1,1,1,0,0.1,293.15,0,0,1,226.52,226.52,-200,0
0,1,2115.8,115.84,2000,1,1,1,0,0.1,293.15,0,0,1,228.12,228.12,-200,0
0,1,2115.8,115.81,2000,1,1,1,0,0.1,293.15,0,0,1,229.71,229.71,-200,0
0,1,2115.8,115.78,2000,1,1,1,0,0.1,293.15,0,0,1,231.31,231.31,-200,0
0,1,2115.7,115.74,2000,1,1,1,0,0.1,293.15,0,0,1,232.9,232.9,-200,0
0,1,2115.7,115.71,2000,1,1,1,0,0.1,293.15,0,0,1,234.5,234.5,-200,0
0,1,2115.7,115.67,2000,1,1,1,0,0.1,293.15,0,0,1,236.09,236.09,-200,0
0,1,2115.6,115.64,2000,1,1,1,0,0.1,293.15,0,0,1,237.69,237.69,-200,0
0,1,2115.6,115.6,2000,1,1,1,0,0.1,293.15,0,0,1,239.28,239.28,-200,0
0,1,2115.6,115.57,2000,1,1,1,0,0.1,293.15,0,0,1,240.88,240.88,-200,0
0,1,2115.5,115.53,2000,1,1,1,0,0.1,293.15,0,0,1,242.47,242.47,-200,0
0,1,2115.5,115.5,2000,1,1,1,0,0.1,293.15,0,0,1,244.07,244.07,-200,0
0,1,2115.5,115.46,2000,1,1,1,0,0.1,293.15,0,0,1,245.66,245.66,-200,0
0,1,2115.4,115.43,2000,1,1,1,0,0.1,293.15,0,0,1,247.26,247.26,-200,0
0,1,2115.4,115.39,2000,1,1,1,0,0.1,293.15,0,0,1,248.85,248.85,-200,0
0,1,2115.4,115.36,2000,1,1,1,0,0.1,293.15,0,0,1,250.45,250.45,-200,0
0,1,2115.3,115.33,2000,1,1,1,0,0.1,293.15,0,0,1,252.04,252.04,-200,0
0,1,2115.3,115.29,2000,1,1,1,0,0.1,293.15,0,0,1,253.64,253.64,-200,0
0,1,2115.3,115.26,2000,1,1,1,0,0.1,293.15,0,0,1,255.23,255.23,-200,0
0,1,2115.2,115.22,2000,1,1,1,0,0.1,293.15,0,0,1,256.83,256.83,-200,0
0,1,2115.2,115.19,2000,1,1,1,0,0.1,293.15,0,0,1,258.42,258.42,-200,0
0,1,2115.2,115.16,2000,1,1,1,0,0.1,293.15,0,0,1,260.02,260.02,-200,0
0,1,2115.1,115.12,2000,1,1,1,0,0.1,293.15,0,0,1,261.62,261.62,-200,0
0,1,2115.1,115.09,2000,1,1,1,0,0.1,293.15,0,0,1,263.21,263.21,-200,0
0,1,2115.1,115.06,2000,1,1,1,0,0.1,293.15,0,0,1,264.81,264.81,-200,0
0,1,2115,115.02,2000,1,1,1,0,0.1,293.15,0,0,1,266.4,266.4,-200,0
0,1,2115,114.99,2000,1,1,1,0,0.1,293.15,0,0,1,268,268,-200,0
0,1,2115,114.95,2000,1,1,1,0,0.1,293.15,0,0,1,269.59,269.59,-200,0
0,1,2114.9,114.92,2000,1,1,1,0,0.1,293.15,0,0,1,271.19,271.19,-200,0
0,1,2114.9,114.9,2000,1,1,1,0,0.1,293.15,0,0,1,272.78,272.78,-200,0
0,1,2114.9,114.87,2000,1,1,1,0,0.1,293.15,0,0,1,274.38,274.38,-200,0
0,1,2114.8,114.84,2000,1,1,1,0,0.1,293.15,0,0,1,275.97,275.97,-200,0
0,1,2114.8,114.81,2000,1,1,1,0,0.1,293.15,0,0,1,277.57,277.57,-200,0
0,1,2114.8,114.78,2000,1,1,1,0,0.1,293.15,0,0,1,279.16,279.16,-200,0
0,1,2114.7,114.75,2000,1,1,1,0,0.1,293.15,0,0,1,280.76,280.76,-200,0
0,1,2114.7,114.71,2000,1,1,1,0,0.1,293.15,0,0,1,282.35,282.35,-200,0
0,1,2114.7,114.68,2000,1,1,1,0,0.1,293.15,0,0,1,283.95,283.95,-200,0
0,1,2114.6,114.64,2000,1,1,1,0,0.1,293.15,0,0,1,285.54,285.54,-200,0
0,1,2114.6,114.61,2000,1,1,1,0,0.1,293.15,0,0,1,287.14,287.14,-200,0
0,1,2114.6,114.57,2000,1,1,1,0,0.1,293.15,0,0,1,288.73,288.73,-200,0
0,1,2114.5,114.54,2000,1,1,1,0,0.1,293.15,0,0,1,290.33,290.33,-200,0
0,1,2114.5,114.51,2000,1,1,1,0,0.1,293.15,0,0,1,291.92,291.92,-200,0
0,1,2114.5,114.47,2000,1,1,1,0,0.1,293.15,0,0,1,293.52,293.52,-200,0
0,1,2114.4,114.44,2000,1,1,1,0,0.1,293.15,0,0,1,295.11,295.11,-200,0
0,1,2114.4,114.4,2000,1,1,1,0,0.1,293.15,0,0,1,296.71,296.71,-200,0
0,1,2114.4,114.37,2000,1,1,1,0,0.1,293.15,0,0,1,298.31,298.31,-200,0
0,1,2114.3,114.34,2000,1,1,1,0,0.1,293.15,0,0,1,299.9,299.9,-200,0
0,1,2114.3,114.3,2000,1,1,1,0,0.1,293.15,0,0,1,301.5,301.5,-200,0
0,1,2114.3,114.27,2000,1,1,1,0,0.1,293.15,0,0,1,303.09,303.09,-200,0
0,1,2114.2,114.23,2000,1,1,1,0,0.1,293.15,0,0,1,304.69,304.69,-200,0
0,1,2114.2,114.2,2000,1,1,1,0,0.1,293.15,0,0,1,306.28,306.28,-200,0
0,1,2114.2,114.16,2000,1,1,1,0,0.1,293.15,0,0,1,307.88,307.88,-200,0
0,1,2114.1,114.14,2000,1,1,1,0,0.1,293.15,0,0,1,309.47,309.47,-200,0
0,1,2114.1,114.11,2000,1,1,1,0,0.1,293.15,0,0,1,311.07,311.07,-200,0
0,1,2114.1,114.08,2000,1,1,1,0,0.1,293.15,0,0,1,312.66,312.66,-200,0
0,1,2114,114.05,2000,1,1,1,0,0.1,293.15,0,0,1,314.26,314.26,-200,0
0,1,2114,114.02,2000,1,1,1,0,0.1,293.15,0,0,1,315.85,315.85,-200,0
0,1,2114,113.98,2000,1,1,1,0,0.1,293.15,0,0,1,317.45,317.45,-200,0
0,1,2113.9,113.95,2000,1,1,1,0,0.1,293.15,0,0,1,319.04,319.04,-200,0
0,1,2113.9,113.92,2000,1,1,1,0,0.1,293.15,0,0,1,320.64,320.64,-200,0
0,1,2113.9,113.89,2000,1,1,1,0,0.1,293.15,0,0,1,322.23,322.23,-200,0
0,1,2113.8,113.85,2000,1,1,1,0,0.1,293.15,0,0,1,323.83,323.83,-200,0
0,1,2113.8,113.82,2000,1,1,1,0,0.1,293.15,0,0,1,325.42,325.42,-200,0
0,1,2113.8,113.79,2000,1,1,1,0,0.1,293.15,0,0,1,327.02,327.02,-200,0
0,1,2113.8,113.75,2000,1,1,1,0,0.1,293.15,0,0,1,328.61,328.61,-200,0
0,1,2113.7,113.72,2000,1,1,1,0,0.1,293.15,0,0,1,330.21,330.21,-200,0
0,1,2113.7,113.69,2000,1,1,1,0,0.1,293.15,0,0,1,331.8,331.8,-200,0
0,1,2113.7,113.66,2000,1,1,1,0,0.1,293.15,0,0,1,333.4,333.4,-200,0
0,1,2113.6,113.62,2000,1,1,1,0,0.1,293.15,0,0,1,335,335,-200,0
0,1,2113.6,113.59,2000,1,1,1,0,0.1,293.15,0,0,1,336.59,336.59,-200,0
0,1,2113.6,113.56,2000,1,1,1,0,0.1,293.15,0,0,1,338.19,338.19,-200,0
0,1,2113.5,113.52,2000,1,1,1,0,0.1,293.15,0,0,1,339.78,339.78,-200,0
0,1,2113.5,113.49,2000,1,1,1,0,0.1,293.15,0,0,1,341.38,341.38,-200,0
0,1,2113.5,113.46,2000,1,1,1,0,0.1,293.15,0,0,1,342.97,342.97,-200,0
0,1,2113.4,113.43,2000,1,1,1,0,0.1,293.15,0,0,1,344.57,344.57,-200,0
0,1,2113.4,113.4,2000,1,1,1,0,0.1,293.15,0,0,1,346.16,346.16,-200,0
0,1,2113.4,113.38,2000,1,1,1,0,0.1,293.15,0,0,1,347.76,347.76,-200,0
0,1,2113.3,113.35,2000,1,1,1,0,0.1,293.15,0,0,1,349.35,349.35,-200,0
0,1,2113.3,113.32,2000,1,1,1,0,0.1,293.15,0,0,1,350.95,350.95,-200,0
0,1,2113.3,113.3,2000,1,1,1,0,0.1,293.15,0,0,1,352.54,352.54,-200,0
0,1,2113.3,113.27,2000,1,1,1,0,0.1,293.15,0,0,1,354.14,354.14,-200,0
0,1,2113.2,113.24,2000,1,1,1,0,0.1,293.15,0,0,1,355.73,355.73,-200,0
0,1,2113.2,113.22,2000,1,1,1,0,0.1,293.15,0,0,1,357.33,357.33,-200,0
0,1,2113.2,113.19,2000,1,1,1,0,0.1,293.15,0,0,1,358.92,358.92,-200,0
0,1,2113.2,113.17,2000,1,1,1,0,0.1,293.15,0,0,1,360.52,360.52,-200,0
0,1,2113.1,113.14,2000,1,1,1,0,0.1,293.15,0,0,1,362.11,362.11,-200,0
0,1,2113.1,113.11,2000,1,1,1,0,0.1,293.15,0,0,1,363.71,363.71,-200,0
0,1,2113.1,113.09,2000,1,1,1,0,0.1,293.15,0,0,1,365.3,365.3,-200,0
0,1,2113.1,113.06,2000,1,1,1,0,0.1,293.15,0,0,1,366.9,366.9,-200,0
0,1,2113,113.03,2000,1,1,1,0,0.1,293.15,0,0,1,368.49,368.49,-200,0
0,1,2113,113.01,2000,1,1,1,0,0.1,293.15,0,0,1,370.09,370.09,-200,0
0,1,2113,112.98,2000,1,1,1,0,0.1,293.15,0,0,1,371.68,371.68,-200,0
0,1,2113,112.95,2000,1,1,1,0,0.1,293.15,0,0,1,373.28,373.28,-200,0
0,1,2112.9,112.93,2000,1,1,1,0,0.1,293.15,0,0,1,374.88,374.88,-200,0
0,1,2112.9,112.9,2000,1,1,1,0,0.1,293.15,0,0,1,376.47,376.47,-200,0
0,1,2112.9,112.87,2000,1,1,1,0,0.1,293.15,0,0,1,378.07,378.07,-200,0
0,1,2112.8,112.84,2000,1,1,1,0,0.1,293.15,0,0,1,379.66,379.66,-200,0
0,1,2112.8,112.81,2000,1,1,1,0,0.1,293.15,0,0,1,381.26,381.26,-200,0
0,1,2112.8,112.78,2000,1,1,1,0,0.1,293.15,0,0,1,382.85,382.85,-200,0
0,1,2112.8,112.75,2000,1,1,1,0,0.1,293.15,0,0,1,384.45,384.45,-200,0
0,1,2112.7,112.72,2000,1,1,1,0,0.1,293.15,0,0,1,386.04,386.04,-200,0
0,1,2112.7,112.69,2000,1,1,1,0,0.1,293.15,0,0,1,387.64,387.64,-200,0
0,1,2112.7,112.66,2000,1,1,1,0,0.1,293.15,0,0,1,389.23,389.23,-200,0
0,1,2112.6,112.63,2000,1,1,1,0,0.1,293.15,0,0,1,390.83,390.83,-200,0
0,1,2112.6,112.6,2000,1,1,1,0,0.1,293.15,0,0,1,392.42,392.42,-200,0
0,1,2112.6,112.57,2000,1,1,1,0,0.1,293.15,0,0,1,394.02,394.02,-200,0
0,1,2112.6,112.55,2000,1,1,1,0,0.1,293.15,0,0,1,395.61,395.61,-200,0
0,1,2112.5,112.53,2000,1,1,1,0,0.1,293.15,0,0,1,397.21,397.21,-200,0
0,1,2112.5,112.5,2000,1,1,1,0,0.1,293.15,0,0,1,398.8,398.8,-200,0
0,1,2112.5,112.48,2000,1,1,1,0,0.1,293.15,0,0,1,400.4,400.4,-200,0
0,1,2112.5,112.46,2000,1,1,1,0,0.1,293.15,0,0,1,401.99,401.99,-200,0
0,1,2112.4,112.44,2000,1,1,1,0,0.1,293.15,0,0,1,403.59,403.59,-200,0
0,1,2112.4,112.41,2000,1,1,1,0,0.1,293.15,0,0,1,405.18,405.18,-200,0
0,1,2112.4,112.39,2000,1,1,1,0,0.1,293.15,0,0,1,406.78,406.78,-200,0
0,1,2112.4,112.37,2000,1,1,1,0,0.1,293.15,0,0,1,408.37,408.37,-200,0
0,1,2112.3,112.35,2000,1,1,1,0,0.1,293.15,0,0,1,409.97,409.97,-200,0
0,1,2112.3,112.32,2000,1,1,1,0,0.1,293.15,0,0,1,411.57,411.57,-200,0
0,1,2112.3,112.3,2000,1,1,1,0,0.1,293.15,0,0,1,413.16,413.16,-200,0
0,1,2112.3,112.28,2000,1,1,1,0,0.1,293.15,0,0,1,414.76,414.76,-200,0
0,1,2112.3,112.25,2000,1,1,1,0,0.1,293.15,0,0,1,416.35,416.35,-200,0
0,1,2112.2,112.23,2000,1,1,1,0,0.1,293.15,0,0,1,417.95,417.95,-200,0
0,1,2112.2,112.21,2000,1,1,1,0,0.1,293.15,0,0,1,419.54,419.54,-200,0
0,1,2112.2,112.19,2000,1,1,1,0,0.1,293.15,0,0,1,421.14,421.14,-200,0
0,1,2112.2,112.16,2000,1,1,1,0,0.1,293.15,0,0,1,422.73,422.73,-200,0
0,1,2112.1,112.14,2000,1,1,1,0,0.1,293.15,0,0,1,424.33,424.33,-200,0
0,1,2112.1,112.12,2000,1,1,1,0,0.1,293.15,0,0,1,425.92,425.92,-200,0
0,1,2112.1,112.1,2000,1,1,1,0,0.1,293.15,0,0,1,427.52,427.52,-200,0
0,1,2112.1,112.07,2000,1,1,1,0,0.1,293.15,0,0,1,429.11,429.11,-200,0
0,1,2112,112.05,2000,1,1,1,0,0.1,293.15,0,0,1,430.71,430.71,-200,0
0,1,2112,112.03,2000,1,1,1,0,0.1,293.15,0,0,1,432.3,432.3,-200,0
0,1,2112,112.01,2000,1,1,1,0,0.1,293.15,0,0,1,433.9,433.9,-200,0
0,1,2112,111.99,2000,1,1,1,0,0.1,293.15,0,0,1,435.49,435.49,-200,0
0,1,2112,111.97,2000,1,1,1,0,0.1,293.15,0,0,1,437.09,437.09,-200,0
0,1,2112,111.95,2000,1,1,1,0,0.1,293.15,0,0,1,438.68,438.68,-200,0
0,1,2111.9,111.94,2000,1,1,1,0,0.1,293.15,0,0,1,440.28,440.28,-200,0
0,1,2111.9,111.92,2000,1,1,1,0,0.1,293.15,0,0,1,441.87,441.87,-200,0
0,1,2111.9,111.91,2000,1,1,1,0,0.1,293.15,0,0,1,443.47,443.47,-200,0
0,1,2111.9,111.89,2000,1,1,1,0,0.1,293.15,0,0,1,445.06,445.06,-200,0
0,1,2111.9,111.87,2000,1,1,1,0,0.1,293.15,0,0,1,446.66,446.66,-200,0
0,1,2111.9,111.86,2000,1,1,1,0,0.1,293.15,0,0,1,448.26,448.26,-200,0
0,1,2111.8,111.84,2000,1,1,1,0,0.1,293.15,0,0,1,449.85,449.85,-200,0
0,1,2111.8,111.82,2000,1,1,1,0,0.1,293.15,0,0,1,451.45,451.45,-200,0
0,1,2111.8,111.81,2000,1,1,1,0,0.1,293.15,0,0,1,453.04,453.04,-200,0
0,1,2111.8,111.79,2000,1,1,1,0,0.1,293.15,0,0,1,454.64,454.64,-200,0
0,1,2111.8,111.77,2000,1,1,1,0,0.1,293.15,0,0,1,456.23,456.23,-200,0
0,1,2111.8,111.76,2000,1,1,1,0,0.1,293.15,0,0,1,457.83,457.83,-200,0
0,1,2111.7,111.74,2000,1,1,1,0,0.1,293.15,0,0,1,459.42,459.42,-200,0
0,1,2111.7,111.72,2000,1,1,1,0,0.1,293.15,0,0,1,461.02,461.02,-200,0
0,1,2111.7,111.71,2000,1,1,1,0,0.1,293.15,0,0,1,462.61,462.61,-200,0
0,1,2111.7,111.69,2000,1,1,1,0,0.1,293.15,0,0,1,464.21,464.21,-200,0
0,1,2111.7,111.67,2000,1,1,1,0,0.1,293.15,0,0,1,465.8,465.8,-200,0
0,1,2111.7,111.66,2000,1,1,1,0,0.1,293.15,0,0,1,467.4,467.4,-200,0
0,1,2111.6,111.64,2000,1,1,1,0,0.1,293.15,0,0,1,468.99,468.99,-200,0
0,1,2111.6,111.62,2000,1,1,1,0,0.1,293.15,0,0,1,470.59,470.59,-200,0
0,1,2111.6,111.6,2000,1,1,1,0,0.1,293.15,0,0,1,472.18,472.18,-200,0
0,1,2111.6,111.59,2000,1,1,1,0,0.1,293.15,0,0,1,473.78,473.78,-200,0
0,1,2111.6,111.57,2000,1,1,1,0,0.1,293.15,0,0,1,475.37,475.37,-200,0
0,1,2111.6,111.55,2000,1,1,1,0,0.1,293.15,0,0,1,476.97,476.97,-200,0
0,1,2111.5,111.53,2000,1,1,1,0,0.1,293.15,0,0,1,478.56,478.56,-200,0
0,1,2111.5,111.52,2000,1,1,1,0,0.1,293.15,0,0,1,480.16,480.16,-200,0
0,1,2111.5,111.5,2000,1,1,1,0,0.1,293.15,0,0,1,481.75,481.75,-200,0
0,1,2111.5,111.49,2000,1,1,1,0,0.1,293.15,0,0,1,483.35,483.35,-200,0
0,1,2111.5,111.47,2000,1,1,1,0,0.1,293.15,0,0,1,484.95,484.95,-200,0
0,1,2111.5,111.46,2000,1,1,1,0,0.1,293.15,0,0,1,486.54,486.54,-200,0
0,1,2111.5,111.45,2000,1,1,1,0,0.1,293.15,0,0,1,488.14,488.14,-200,0
0,1,2111.4,111.44,2000,1,1,1,0,0.1,293.15,0,0,1,489.73,489.73,-200,0
0,1,2111.4,111.43,2000,1,1,1,0,0.1,293.15,0,0,1,491.33,491.33,-200,0
0,1,2111.4,111.42,2000,1,1,1,0,0.1,293.15,0,0,1,492.92,492.92,-200,0
0,1,2111.4,111.41,2000,1,1,1,0,0.1,293.15,0,0,1,494.52,494.52,-200,0
0,1,2111.4,111.4,2000,1,1,1,0,0.1,293.15,0,0,1,496.11,496.11,-200,0
0,1,2111.4,111.39,2000,1,1,1,0,0.1,293.15,0,0,1,497.71,497.71,-200,0
0,1,2111.4,111.38,2000,1,1,1,0,0.1,293.15,0,0,1,499.3,499.3,-200,0
0,1,2111.4,111.37,2000,1,1,1,0,0.1,293.15,0,0,1,500.9,500.9,-200,0
0,1,2111.4,111.36,2000,1,1,1,0,0.1,293.15,0,0,1,502.49,502.49,-200,0
0,1,2111.3,111.34,2000,1,1,1,0,0.1,293.15,0,0,1,504.09,504.09,-200,0
0,1,2111.3,111.33,2000,1,1,1,0,0.1,293.15,0,0,1,505.68,505.68,-200,0
0,1,2111.3,111.32,2000,1,1,1,0,0.1,293.15,0,0,1,507.28,507.28,-200,0
0,1,2111.3,111.31,2000,1,1,1,0,0.1,293.15,0,0,1,508.87,508.87,-200,0
0,1,2111.3,111.3,2000,1,1,1,0,0.1,293.15,0,0,1,510.47,510.47,-200,0
0,1,2111.3,111.29,2000,1,1,1,0,0.1,293.15,0,0,1,512.06,512.06,-200,0
0,1,2111.3,111.27,2000,1,1,1,0,0.1,293.15,0,0,1,513.66,513.66,-200,0
0,1,2111.3,111.26,2000,1,1,1,0,0.1,293.15,0,0,1,515.25,515.25,-200,0
0,1,2111.3,111.25,2000,1,1,1,0,0.1,293.15,0,0,1,516.85,516.85,-200,0
0,1,2111.2,111.24,2000,1,1,1,0,0.1,293.15,0,0,1,518.44,518.44,-200,0
0,1,2111.2,111.23,2000,1,1,1,0,0.1,293.15,0,0,1,520.04,520.04,-200,0
0,1,2111.2,111.21,2000,1,1,1,0,0.1,293.15,0,0,1,521.64,521.64,-200,0
0,1,2111.2,111.2,2000,1,1,1,0,0.1,293.15,0,0,1,523.23,523.23,-200,0
0,1,2111.2,111.19,2000,1,1,1,0,0.1,293.15,0,0,1,524.83,524.83,-200,0
0,1,2111.2,111.19,2000,1,1,1,0,0.1,293.15,0,0,1,526.42,526.42,-200,0
0,1,2111.2,111.18,2000,1,1,1,0,0.1,293.15,0,0,1,528.02,528.02,-200,0
0,1,2111.2,111.17,2000,1,1,1,0,0.1,293.15,0,0,1,529.61,529.61,-200,0
0,1,2111.2,111.16,2000,1,1,1,0,0.1,293.15,0,0,1,531.21,531.21,-200,0
0,1,2111.2,111.16,2000,1,1,1,0,0.1,293.15,0,0,1,532.8,532.8,-200,0
0,1,2111.2,111.15,2000,1,1,1,0,0.1,293.15,0,0,1,534.4,534.4,-200,0
0,1,2111.1,111.15,2000,1,1,1,0,0.1,293.15,0,0,1,535.99,535.99,-200,0
0,1,2111.1,111.14,2000,1,1,1,0,0.1,293.15,0,0,1,537.59,537.59,-200,0
0,1,2111.1,111.13,2000,1,1,1,0,0.1,293.15,0,0,1,539.18,539.18,-200,0
0,1,2111.1,111.13,2000,1,1,1,0,0.1,293.15,0,0,1,540.78,540.78,-200,0
0,1,2111.1,111.12,2000,1,1,1,0,0.1,293.15,0,0,1,542.37,542.37,-200,0
0,1,2111.1,111.11,2000,1,1,1,0,0.1,293.15,0,0,1,543.97,543.97,-200,0
0,1,2111.1,111.11,2000,1,1,1,0,0.1,293.15,0,0,1,545.56,545.56,-200,0
0,1,2111.1,111.1,2000,1,1,1,0,0.1,293.15,0,0,1,547.16,547.16,-200,0
0,1,2111.1,111.09,2000,1,1,1,0,0.1,293.15,0,0,1,548.75,548.75,-200,0
0,1,2111.1,111.09,2000,1,1,1,0,0.1,293.15,0,0,1,550.35,550.35,-200,0
0,1,2111.1,111.08,2000,1,1,1,0,0.1,293.15,0,0,1,551.94,551.94,-200,0
0,1,2111.1,111.08,2000,1,1,1,0,0.1,293.15,0,0,1,553.54,553.54,-200,0
0,1,2111.1,111.07,2000,1,1,1,0,0.1,293.15,0,0,1,555.13,555.13,-200,0
0,1,2111.1,111.07,2000,1,1,1,0,0.1,293.15,0,0,1,556.73,556.73,-200,0
0,1,2111.1,111.06,2000,1,1,1,0,0.1,293.15,0,0,1,558.33,558.33,-200,0
0,1,2111.1,111.05,2000,1,1,1,0,0.1,293.15,0,0,1,559.92,559.92,-200,0
0,1,2111,111.05,2000,1,1,1,0,0.1,293.15,0,0,1,561.52,561.52,-200,0
0,1,2111,111.04,2000,1,1,1,0,0.1,293.15,0,0,1,563.11,563.11,-200,0
0,1,2111,111.04,2000,1,1,1,0,0.1,293.15,0,0,1,564.71,564.71,-200,0
0,1,2111,111.03,2000,1,1,1,0,0.1,293.15,0,0,1,566.3,566.3,-200,0
0,1,2111,111.03,2000,1,1,1,0,0.1,293.15,0,0,1,567.9,567.9,-200,0
0,1,2111,111.02,2000,1,1,1,0,0.1,293.15,0,0,1,569.49,569.49,-200,0
0,1,2111,111.02,2000,1,1,1,0,0.1,293.15,0,0,1,571.09,571.09,-200,0
0,1,2111,111.02,2000,1,1,1,0,0.1,293.15,0,0,1,572.68,572.68,-200,0
0,1,2111,111.02,2000,1,1,1,0,0.1,293.15,0,0,1,574.28,574.28,-200,0
0,1,2111,111.01,2000,1,1,1,0,0.1,293.15,0,0,1,575.87,575.87,-200,0
0,1,2111,111.01,2000,1,1,1,0,0.1,293.15,0,0,1,577.47,577.47,-200,0
0,1,2111,111.01,2000,1,1,1,0,0.1,293.15,0,0,1,579.06,579.06,-200,0
0,1,2111,111.01,2000,1,1,1,0,0.1,293.15,0,0,1,580.66,580.66,-200,0
0,1,2111,111.01,2000,1,1,1,0,0.1,293.15,0,0,1,582.25,582.25,-200,0
0,1,2111,111.01,2000,1,1,1,0,0.1,293.15,0,0,1,583.85,583.85,-200,0
0,1,2111,111.01,2000,1,1,1,0,0.1,293.15,0,0,1,585.44,585.44,-200,0
0,1,2111,111.01,2000,1,1,1,0,0.1,293.15,0,0,1,587.04,587.04,-200,0
0,1,2111,111.01,2000,1,1,1,0,0.1,293.15,0,0,1,588.63,588.63,-200,0
0,1,2111,111,2000,1,1,1,0,0.1,293.15,0,0,1,590.23,590.23,-200,0
0,1,2111,111,2000,1,1,1,0,0.1,293.15,0,0,1,591.82,591.82,-200,0
0,1,2111,111,2000,1,1,1,0,0.1,293.15,0,0,1,593.42,593.42,-200,0
0,1,2111,111,2000,1,1,1,0,0.1,293.15,0,0,1,595.01,595.01,-200,0
0,1,2111,111,2000,1,1,1,0,0.1,293.15,0,0,1,596.61,596.61,-200,0
0,1,2111,111,2000,1,1,1,0,0.1,293.15,0,0,1,598.21,598.21,-200,0
0,1,2111,111,2000,1,1,1,0,0.1,293.15,0,0,1,599.8,599.8,-200,0
0,1,2111,111,2000,1,1,1,0,0.1,293.15,0,0,1,601.4,601.4,-200,0
0,1,2111,111,2000,1,1,1,0,0.1,293.15,0,0,1,602.99,602.99,-200,0
0,1,2111,111,2000,1,1,1,0,0.1,293.15,0,0,1,604.59,604.59,-200,0
0,1,2111,111,2000,1,1,1,0,0.1,293.15,0,0,1,606.18,606.18,-200,0
0,1,2111,110.99,2000,1,1,1,0,0.1,293.15,0,0,1,607.78,607.78,-200,0
0,1,2111,110.99,2000,1,1,1,0,0.1,293.15,0,0,1,609.37,609.37,-200,0
0,1,2111,110.99,2000,1,1,1,0,0.1,293.15,0,0,1,610.97,610.97,-200,0
0,1,2111,110.99,2000,1,1,1,0,0.1,293.15,0,0,1,612.56,612.56,-200,0
0,1,2111,110.99,2000,1,1,1,0,0.1,293.15,0,0,1,614.16,614.16,-200,0
0,1,2111,110.99,2000,1,1,1,0,0.1,293.15,0,0,1,615.75,615.75,-200,0
0,1,2111,110.99,2000,1,1,1,0,0.1,293.15,0,0,1,617.35,617.35,-200,0
0,1,2111,110.99,2000,1,1,1,0,0.1,293.15,0,0,1,618.94,618.94,-200,0
0,1,2111,110.99,2000,1,1,1,0,0.1,293.15,0,0,1,620.54,620.54,-200,0
0,1,2111,110.99,2000,1,1,1,0,0.1,293.15,0,0,1,622.13,622.13,-200,0
0,1,2111,110.99,2000,1,1,1,0,0.1,293.15,0,0,1,623.73,623.73,-200,0
0,1,2111,110.99,2000,1,1,1,0,0.1,293.15,0,0,1,625.32,625.32,-200,0
0,1,2111,111,2000,1,1,1,0,0.1,293.15,0,0,1,626.92,626.92,-200,0
0,1,2111,111,2000,1,1,1,0,0.1,293.15,0,0,1,628.51,628.51,-200,0
0,1,2111,111,2000,1,1,1,0,0.1,293.15,0,0,1,630.11,630.11,-200,0
0,1,2111,111,2000,1,1,1,0,0.1,293.15,0,0,1,631.7,631.7,-200,0
0,1,2111,111,2000,1,1,1,0,0.1,293.15,0,0,1,633.3,633.3,-200,0
0,1,2111,111,2000,1,1,1,0,0.1,293.15,0,0,1,634.9,634.9,-200,0
0,1,2111,111,2000,1,1,1,0,0.1,293.15,0,0,1,636.49,636.49,-200,0
0,1,2111,111,2000,1,1,1,0,0.1,293.15,0,0,1,638.09,638.09,-200,0
0,1,2111,111.01,2000,1,1,1,0,0.1,293.15,0,0,1,639.68,639.68,-200,0
0,1,2111,111.01,2000,1,1,1,0,0.1,293.15,0,0,1,641.28,641.28,-200,0
0,1,2111,111.01,2000,1,1,1,0,0.1,293.15,0,0,1,642.87,642.87,-200,0
0,1,2111,111.01,2000,1,1,1,0,0.1,293.15,0,0,1,644.47,644.47,-200,0
0,1,2111,111.01,2000,1,1,1,0,0.1,293.15,0,0,1,646.06,646.06,-200,0
0,1,2111,111.01,2000,1,1,1,0,0.1,293.15,0,0,1,647.66,647.66,-200,0
0,1,2111,111.01,2000,1,1,1,0,0.1,293.15,0,0,1,649.25,649.25,-200,0
0,1,2111,111.01,2000,1,1,1,0,0.1,293.15,0,0,1,650.85,650.85,-200,0
0,1,2111,111.01,2000,1,1,1,0,0.1,293.15,0,0,1,652.44,652.44,-200,0
0,1,2111,111.01,2000,1,1,1,0,0.1,293.15,0,0,1,654.04,654.04,-200,0
0,1,2111,111.01,2000,1,1,1,0,0.1,293.15,0,0,1,655.63,655.63,-200,0
0,1,2111,111.01,2000,1,1,1,0,0.1,293.15,0,0,1,657.23,657.23,-200,0
0,1,2111,111.02,2000,1,1,1,0,0.1,293.15,0,0,1,658.82,658.82,-200,0
0,1,2111,111.02,2000,1,1,1,0,0.1,293.15,0.014115,0,1,660.42,660.42,-200,0
0,1,2111,111.02,2000,1,1,1,0,0.1,293.15,0.047241,0,1,662.01,662.01,-200,0
0,1,2111,111.02,2000,1,1,1,0,0.1,293.15,0.080367,0,1,663.61,663.61,-200,0
0,1,2111,111.03,2000,1,1,1,0,0.1,293.15,0.11349,0,1,665.2,665.2,-200,0
0,1,2111,111.03,2000,1,1,1,0,0.1,293.15,0.14662,0,1,666.8,666.8,-200,0
0,1,2111,111.03,2000,1,1,1,0,0.1,293.15,0.17974,0,1,668.39,668.39,-200,0
0,1,2111,111.04,2000,1,1,1,0,0.1,293.15,0.21287,0,1,669.99,669.99,-200,0
0,1,2111,111.04,2000,1,1,1,0,0.1,293.15,0.246,0,1,671.59,671.59,-200,0
0,1,2111,111.04,2000,1,1,1,0,0.1,293.15,0.27912,0,1,673.18,673.18,-200,0
0,1,2111.1,111.05,2000,1,1,1,0,0.1,293.15,0.31225,0,1,674.78,674.78,-200,0
0,1,2111.1,111.05,2000,1,1,1,0,0.1,293.15,0.34537,0,1,676.37,676.37,-200,0
0,1,2111.1,111.05,2000,1,1,1,0,0.1,293.15,0.3785,0,1,677.97,677.97,-200,0
0,1,2111.1,111.06,2000,1,1,1,0,0.1,293.15,0.41162,0,1,679.56,679.56,-200,0
0,1,2111.1,111.06,2000,1,1,1,0,0.1,293.15,0.44475,0,1,681.16,681.16,-200,0
0,1,2111.1,111.06,2000,1,1,1,0,0.1,293.15,0.47856,0,1,682.75,682.75,-200,0
0,1,2111.1,111.07,2000,1,1,1,0,0.1,293.15,0.52679,0,1,684.35,684.35,-200,0
0,1,2111.1,111.07,2000,1,1,1,0,0.1,293.15,0.57501,0,1,685.94,685.94,-200,0
0,1,2111.1,111.07,2000,1,1,1,0,0.1,293.15,0.62324,0,1,687.54,687.54,-200,0
0,1,2111.1,111.07,2000,1,1,1,0,0.1,293.15,0.67146,0,1,689.13,689.13,-200,0
0,1,2111.1,111.07,2000,1,1,1,0,0.1,293.15,0.71969,0,1,690.73,690.73,-200,0
0,1,2111.1,111.08,2000,1,1,1,0,0.1,293.15,0.76791,0,1,692.32,692.32,-200,0
0,1,2111.1,111.08,2000,1,1,1,0,0.1,293.15,0.81614,0,1,693.92,693.92,-200,0
0,1,2111.1,111.08,2000,1,1,1,0,0.1,293.15,0.86437,0,1,695.51,695.51,-200,0
0,1,2111.1,111.08,2000,1,1,1,0,0.1,293.15,0.91259,0,1,697.11,697.11,-200,0
0,1,2111.1,111.08,2000,1,1,1,0,0.1,293.15,0.96082,0,1,698.7,698.7,-200,0
0,1,2111.1,111.09,2000,1,1,1,0,0.1,293.15,0.99247,0,1,700.3,700.3,-200,0
0,1,2111.1,111.14,2000,1,1,1,0,0.1,293.15,0.95232,0,1,701.89,701.89,-200,0
0,1,2111.2,111.2,2000,1,1,1,0,0.1,293.15,0.91217,0,1,703.49,703.49,-200,0
0,1,2111.2,111.25,2000,1,1,1,0,0.1,293.15,0.87202,0,1,705.08,705.08,-200,0
0,1,2111.3,111.3,2000,1,1,1,0,0.1,293.15,0.83187,0,1,706.68,706.68,-200,0
0,1,2111.3,111.35,2000,1,1,1,0,0.1,293.15,0.79172,0,1,708.28,708.28,-200,0
0,1,2111.4,111.4,2000,1,1,1,0,0.1,293.15,0.75156,0,1,709.87,709.87,-200,0
0,1,2111.4,111.45,2000,1,1,1,0,0.1,293.15,0.71141,0,1,711.47,711.47,-200,0
0,1,2111.5,111.5,2000,1,1,1,0,0.1,293.15,0.67126,0,1,713.06,713.06,-200,0
0,1,2111.5,111.55,2000,1,1,1,0,0.1,293.15,0.63111,0,1,714.66,714.66,-200,0
0,1,2111.6,111.6,2000,1,1,1,0,0.1,293.15,0.5895,0,1,716.25,716.25,-200,0
0,1,2111.6,111.64,2000,1,1,1,0,0.1,293.15,0.54083,0,1,717.85,717.85,-200,0
0,1,2111.7,111.67,2000,1,1,1,0,0.1,293.15,0.49217,0,1,719.44,719.44,-200,0
0,1,2111.7,111.71,2000,1,1,1,0,0.1,293.15,0.4435,0,1,721.04,721.04,-200,0
0,1,2111.7,111.75,2000,1,1,1,0,0.1,293.15,0.39483,0,1,722.63,722.63,-200,0
0,1,2111.8,111.79,2000,1,1,1,0,0.1,293.15,0.34616,0,1,724.23,724.23,-200,0
0,1,2111.8,111.82,2000,1,1,1,0,0.1,293.15,0.2975,0,1,725.82,725.82,-200,0
0,1,2111.9,111.86,2000,1,1,1,0,0.1,293.15,0.24883,0,1,727.42,727.42,-200,0
0,1,2111.9,111.9,2000,1,1,1,0,0.1,293.15,0.20016,0,1,729.01,729.01,-200,0
0,1,2111.9,111.94,2000,1,1,1,0,0.1,293.15,0.15149,0,1,730.61,730.61,-200,0
0,1,2112,111.98,2000,1,1,1,0,0.1,293.15,0.10283,0,1,732.2,732.2,-200,0
0,1,2112,112.01,2000,1,1,1,0,0.1,293.15,0.054159,0,1,733.8,733.8,-200,0
0,1,2112.1,112.05,2000,1,1,1,0,0.1,293.15,0.0054918,0,1,735.39,735.39,-200,0
0,1,2112.1,112.09,2000,1,1,1,0,0.1,293.15,0,0,1,736.99,736.99,-200,0
0,1,2112.1,112.13,2000,1,1,1,0,0.1,293.15,0,0,1,738.58,738.58,-200,0
0,1,2112.2,112.16,2000,1,1,1,0,0.1,293.15,0,0,1,740.18,740.18,-200,0
0,1,2112.2,112.19,2000,1,1,1,0,0.1,293.15,0,0,1,741.77,741.77,-200,0
0,1,2112.2,112.22,2000,1,1,1,0,0.1,293.15,0,0,1,743.37,743.37,-200,0
0,1,2112.3,112.26,2000,1,1,1,0,0.1,293.15,0,0,1,744.97,744.97,-200,0
0,1,2112.3,112.29,2000,1,1,1,0,0.1,293.15,0,0,1,746.56,746.56,-200,0
0,1,2112.3,112.32,2000,1,1,1,0,0.1,293.15,0,0,1,748.16,748.16,-200,0
0,1,2112.4,112.35,2000,1,1,1,0,0.1,293.15,0,0,1,749.75,749.75,-200,0
0,1,2112.4,112.38,2000,1,1,1,0,0.1,293.15,0,0,1,751.35,751.35,-200,0
0,1,2112.4,112.41,2000,1,1,1,0,0.1,293.15,0,0,1,752.94,752.94,-200,0
0,1,2112.4,112.45,2000,1,1,1,0,0.1,293.15,0,0,1,754.54,754.54,-200,0
0,1,2112.5,112.48,2000,1,1,1,0,0.1,293.15,0,0,1,756.13,756.13,-200,0
0,1,2112.5,112.51,2000,1,1,1,0,0.1,293.15,0,0,1,757.73,757.73,-200,0
0,1,2112.5,112.54,2000,1,1,1,0,0.1,293.15,0,0,1,759.32,759.32,-200,0
0,1,2112.6,112.57,2000,1,1,1,0,0.1,293.15,0,0,1,760.92,760.92,-200,0
0,1,2112.6,112.6,2000,1,1,1,0,0.1,293.15,0,0,1,762.51,762.51,-200,0
0,1,2112.6,112.63,2000,1,1,1,0,0.1,293.15,0,0,1,764.11,764.11,-200,0
0,1,2112.7,112.66,2000,1,1,1,0,0.1,293.15,0,0,1,765.7,765.7,-200,0
0,1,2112.7,112.68,2000,1,1,1,0,0.1,293.15,0,0,1,767.3,767.3,-200,0
0,1,2112.7,112.7,2000,1,1,1,0,0.1,293.15,0,0,1,768.89,768.89,-200,0
0,1,2112.7,112.72,2000,1,1,1,0,0.1,293.15,0,0,1,770.49,770.49,-200,0
0,1,2112.7,112.74,2000,1,1,1,0,0.1,293.15,0,0,1,772.08,772.08,-200,0
0,1,2112.8,112.76,2000,1,1,1,0,0.1,293.15,0,0,1,773.68,773.68,-200,0
0,1,2112.8,112.78,2000,1,1,1,0,0.1,293.15,0,0,1,775.27,775.27,-200,0
0,1,2112.8,112.8,2000,1,1,1,0,0.1,293.15,0,0,1,776.87,776.87,-200,0
0,1,2112.8,112.82,2000,1,1,1,0,0.1,293.15,0,0,1,778.46,778.46,-200,0
0,1,2112.8,112.84,2000,1,1,1,0,0.1,293.15,0,0,1,780.06,780.06,-200,0
0,1,2112.9,112.86,2000,1,1,1,0,0.1,293.15,0,0,1,781.66,781.66,-200,0
0,1,2112.9,112.88,2000,1,1,1,0,0.1,293.15,0,0,1,783.25,783.25,-200,0
0,1,2112.9,112.9,2000,1,1,1,0,0.1,293.15,0,0,1,784.85,784.85,-200,0
0,1,2112.9,112.92,2000,1,1,1,0,0.1,293.15,0,0,1,786.44,786.44,-200,0
0,1,2112.9,112.94,2000,1,1,1,0,0.1,293.15,0,0,1,788.04,788.04,-200,0
0,1,2113,112.97,2000,1,1,1,0,0.1,293.15,0,0,1,789.63,789.63,-200,0
0,1,2113,112.99,2000,1,1,1,0,0.1,293.15,0,0,1,791.23,791.23,-200,0
0,1,2113,113.01,2000,1,1,1,0,0.1,293.15,0,0,1,792.82,792.82,-200,0
0,1,2113,113.03,2000,1,1,1,0,0.1,293.15,0,0,1,794.42,794.42,-200,0
0,1,2113,113.05,2000,1,1,1,0,0.1,293.15,0,0,1,796.01,796.01,-200,0
0,1,2113.1,113.07,2000,1,1,1,0,0.1,293.15,0,0,1,797.61,797.61,-200,0
0,1,2113.1,113.09,2000,1,1,1,0,0.1,293.15,0,0,1,799.2,799.2,-200,0
0,1,2113.1,113.11,2000,1,1,1,0,0.1,293.15,0,0,1,800.8,800.8,-200,0
0,1,2113.1,113.12,2000,1,1,1,0,0.1,293.15,0,0,1,802.39,802.39,-200,0
0,1,2113.1,113.14,2000,1,1,1,0,0.1,293.15,0,0,1,803.99,803.99,-200,0
0,1,2113.1,113.15,2000,1,1,1,0,0.1,293.15,0,0,1,805.58,805.58,-200,0
0,1,2113.2,113.16,2000,1,1,1,0,0.1,293.15,0,0,1,807.18,807.18,-200,0
0,1,2113.2,113.16,2000,1,1,1,0,0.1,293.15,0,0,1,808.77,808.77,-200,0
0,1,2113.2,113.16,2000,1,1,1,0,0.1,293.15,0,0,1,810.37,810.37,-200,0
0,1,2113.2,113.16,2000,1,1,1,0,0.1,293.15,0,0,1,811.96,811.96,-200,0
0,1,2113.2,113.17,2000,1,1,1,0,0.1,293.15,0,0,1,813.56,813.56,-200,0
0,1,2113.2,113.17,2000,1,1,1,0,0.1,293.15,0,0,1,815.15,815.15,-200,0
0,1,2113.2,113.18,2000,1,1,1,0,0.1,293.15,0,0,1,816.75,816.75,-200,0
0,1,2113.2,113.19,2000,1,1,1,0,0.1,293.15,0,0,1,818.34,818.34,-200,0
0,1,2113.2,113.2,2000,1,1,1,0,0.1,293.15,0,0,1,819.94,819.94,-200,0
0,1,2113.2,113.2,2000,1,1,1,0,0.1,293.15,0,0,1,821.54,821.54,-200,0
0,1,2113.2,113.21,2000,1,1,1,0,0.1,293.15,0,0,1,823.13,823.13,-200,0
0,1,2113.2,113.22,2000,1,1,1,0,0.1,293.15,0,0,1,824.73,824.73,-200,0
0,1,2113.2,113.23,2000,1,1,1,0,0.1,293.15,0,0,1,826.32,826.32,-200,0
0,1,2113.2,113.24,2000,1,1,1,0,0.1,293.15,0,0,1,827.92,827.92,-200,0
0,1,2113.2,113.25,2000,1,1,1,0,0.1,293.15,0,0,1,829.51,829.51,-200,0
0,1,2113.3,113.25,2000,1,1,1,0,0.1,293.15,0,0,1,831.11,831.11,-200,0
0,1,2113.3,113.26,2000,1,1,1,0,0.1,293.15,0,0,1,832.7,832.7,-200,0
0,1,2113.3,113.27,2000,1,1,1,0,0.1,293.15,0,0,1,834.3,834.3,-200,0
0,1,2113.3,113.28,2000,1,1,1,0,0.1,293.15,0,0,1,835.89,835.89,-200,0
0,1,2113.3,113.29,2000,1,1,1,0,0.1,293.15,0,0,1,837.49,837.49,-200,0
0,1,2113.3,113.3,2000,1,1,1,0,0.1,293.15,0,0,1,839.08,839.08,-200,0
0,1,2113.3,113.3,2000,1,1,1,0,0.1,293.15,0,0,1,840.68,840.68,-200,0
0,1,2113.3,113.31,2000,1,1,1,0,0.1,293.15,0,0,1,842.27,842.27,-200,0
0,1,2113.3,113.31,2000,1,1,1,0,0.1,293.15,0,0,1,843.87,843.87,-200,0
0,1,2113.3,113.3,2000,1,1,1,0,0.1,293.15,0,0,1,845.46,845.46,-200,0
0,1,2113.3,113.3,2000,1,1,1,0,0.1,293.15,0,0,1,847.06,847.06,-200,0
0,1,2113.3,113.29,2000,1,1,1,0,0.1,293.15,0,0,1,848.65,848.65,-200,0
0,1,2113.3,113.28,2000,1,1,1,0,0.1,293.15,0,0,1,850.25,850.25,-200,0
0,1,2113.3,113.28,2000,1,1,1,0,0.1,293.15,0,0,1,851.84,851.84,-200,0
0,1,2113.3,113.27,2000,1,1,1,0,0.1,293.15,0,0,1,853.44,853.44,-200,0
0,1,2113.3,113.26,2000,1,1,1,0,0.1,293.15,0,0,1,855.03,855.03,-200,0
0,1,2113.3,113.26,2000,1,1,1,0,0.1,293.15,0,0,1,856.63,856.63,-200,0
0,1,2113.3,113.25,2000,1,1,1,0,0.1,293.15,0,0,1,858.23,858.23,-200,0
0,1,2113.2,113.25,2000,1,1,1,0,0.1,293.15,0,0,1,859.82,859.82,-200,0
0,1,2113.2,113.24,2000,1,1,1,0,0.1,293.15,0,0,1,861.42,861.42,-200,0
0,1,2113.2,113.23,2000,1,1,1,0,0.1,293.15,0,0,1,863.01,863.01,-200,0
0,1,2113.2,113.23,2000,1,1,1,0,0.1,293.15,0,0,1,864.61,864.61,-200,0
0,1,2113.2,113.22,2000,1,1,1,0,0.1,293.15,0,0,1,866.2,866.2,-200,0
0,1,2113.2,113.21,2000,1,1,1,0,0.1,293.15,0,0,1,867.8,867.8,-200,0
0,1,2113.2,113.21,2000,1,1,1,0,0.1,293.15,0,0,1,869.39,869.39,-200,0
0,1,2113.2,113.2,2000,1,1,1,0,0.1,293.15,0,0,1,870.99,870.99,-200,0
0,1,2113.2,113.19,2000,1,1,1,0,0.1,293.15,0,0,1,872.58,872.58,-200,0
0,1,2113.2,113.18,2000,1,1,1,0,0.1,293.15,0,0,1,874.18,874.18,-200,0
0,1,2113.2,113.17,2000,1,1,1,0,0.1,293.15,0,0,1,875.77,875.77,-200,0
0,1,2113.2,113.16,2000,1,1,1,0,0.1,293.15,0,0,1,877.37,877.37,-200,0
0,1,2113.1,113.14,2000,1,1,1,0,0.1,293.15,0,0,1,878.96,878.96,-200,0
0,1,2113.1,113.13,2000,1,1,1,0,0.1,293.15,0,0,1,880.56,880.56,-200,0
0,1,2113.1,113.12,2000,1,1,1,0,0.1,293.15,0,0,1,882.15,882.15,-200,0
0,1,2113.1,113.11,2000,1,1,1,0,0.1,293.15,0,0,1,883.75,883.75,-200,0
0,1,2113.1,113.1,2000,1,1,1,0,0.1,293.15,0,0,1,885.34,885.34,-200,0
0,1,2113.1,113.09,2000,1,1,1,0,0.1,293.15,0,0,1,886.94,886.94,-200,0
0,1,2113.1,113.08,2000,1,1,1,0,0.1,293.15,0,0,1,888.53,888.53,-200,0
0,1,2113.1,113.07,2000,1,1,1,0,0.1,293.15,0,0,1,890.13,890.13,-200,0
0,1,2113.1,113.05,2000,1,1,1,0,0.1,293.15,0,0,1,891.72,891.72,-200,0
0,1,2113,113.04,2000,1,1,1,0,0.1,293.15,0,0,1,893.32,893.32,-200,0
0,1,2113,113.03,2000,1,1,1,0,0.1,293.15,0,0,1,894.92,894.92,-200,0
0,1,2113,113.02,2000,1,1,1,0,0.1,293.15,0,0,1,896.51,896.51,-200,0
0,1,2113,113.01,2000,1,1,1,0,0.1,293.15,0,0,1,898.11,898.11,-200,0
0,1,2113,113,2000,1,1,1,0,0.1,293.15,0,0,1,899.7,899.7,-200,0
0,1,2113,112.98,2000,1,1,1,0,0.1,293.15,0,0,1,901.3,901.3,-200,0
0,1,2113,112.96,2000,1,1,1,0,0.1,293.15,0,0,1,902.89,902.89,-200,0
0,1,2112.9,112.93,2000,1,1,1,0,0.1,293.15,0,0,1,904.49,904.49,-200,0
0,1,2112.9,112.91,2000,1,1,1,0,0.1,293.15,0,0,1,906.08,906.08,-200,0
0,1,2112.9,112.89,2000,1,1,1,0,0.1,293.15,0,0,1,907.68,907.68,-200,0
0,1,2112.9,112.86,2000,1,1,1,0,0.1,293.15,0,0,1,909.27,909.27,-200,0
0,1,2112.8,112.84,2000,1,1,1,0,0.1,293.15,0,0,1,910.87,910.87,-200,0
0,1,2112.8,112.82,2000,1,1,1,0,0.1,293.15,0,0,1,912.46,912.46,-200,0
0,1,2112.8,112.8,2000,1,1,1,0,0.1,293.15,0,0,1,914.06,914.06,-200,0
0,1,2112.8,112.77,2000,1,1,1,0,0.1,293.15,0,0,1,915.65,915.65,-200,0
0,1,2112.7,112.75,2000,1,1,1,0,0.1,293.15,0,0,1,917.25,917.25,-200,0
0,1,2112.7,112.73,2000,1,1,1,0,0.1,293.15,0,0,1,918.84,918.84,-200,0
0,1,2112.7,112.7,2000,1,1,1,0,0.1,293.15,0,0,1,920.44,920.44,-200,0
0,1,2112.7,112.68,2000,1,1,1,0,0.1,293.15,0,0,1,922.03,922.03,-200,0
0,1,2112.7,112.66,2000,1,1,1,0,0.1,293.15,0,0,1,923.63,923.63,-200,0
0,1,2112.6,112.64,2000,1,1,1,0,0.1,293.15,0,0,1,925.22,925.22,-200,0
0,1,2112.6,112.62,2000,1,1,1,0,0.1,293.15,0,0,1,926.82,926.82,-200,0
0,1,2112.6,112.6,2000,1,1,1,0,0.1,293.15,0,0,1,928.41,928.41,-200,0
0,1,2112.6,112.57,2000,1,1,1,0,0.1,293.15,0,0,1,930.01,930.01,-200,0
0,1,2112.6,112.55,2000,1,1,1,0,0.1,293.15,0,0,1,931.61,931.61,-200,0
0,1,2112.5,112.53,2000,1,1,1,0,0.1,293.15,0,0,1,933.2,933.2,-200,0
0,1,2112.5,112.51,2000,1,1,1,0,0.1,293.15,0,0,1,934.8,934.8,-200,0
0,1,2112.5,112.49,2000,1,1,1,0,0.1,293.15,0,0,1,936.39,936.39,-200,0
0,1,2112.5,112.47,2000,1,1,1,0,0.1,293.15,0,0,1,937.99,937.99,-200,0
0,1,2112.5,112.45,2000,1,1,1,0,0.1,293.15,0,0,1,939.58,939.58,-200,0
0,1,2112.4,112.42,2000,1,1,1,0,0.1,293.15,0,0,1,941.18,941.18,-200,0
0,1,2112.4,112.39,2000,1,1,1,0,0.1,293.15,0,0,1,942.77,942.77,-200,0
0,1,2112.4,112.36,2000,1,1,1,0,0.1,293.15,0,0,1,944.37,944.37,-200,0
0,1,2112.3,112.32,2000,1,1,1,0,0.1,293.15,0,0,1,945.96,945.96,-200,0
0,1,2112.3,112.29,2000,1,1,1,0,0.1,293.15,0,0,1,947.56,947.56,-200,0
0,1,2112.3,112.26,2000,1,1,1,0,0.1,293.15,0,0,1,949.15,949.15,-200,0
0,1,2112.2,112.23,2000,1,1,1,0,0.1,293.15,0,0,1,950.75,950.75,-200,0
0,1,2112.2,112.19,2000,1,1,1,0,0.1,293.15,0,0,1,952.34,952.34,-200,0
0,1,2112.2,112.16,2000,1,1,1,0,0.1,293.15,0,0,1,953.94,953.94,-200,0
0,1,2112.1,112.13,2000,1,1,1,0,0.1,293.15,0,0,1,955.53,955.53,-200,0
0,1,2112.1,112.1,2000,1,1,1,0,0.1,293.15,0,0,1,957.13,957.13,-200,0
0,1,2112.1,112.07,2000,1,1,1,0,0.1,293.15,0,0,1,958.72,958.72,-200,0
0,1,2112,112.03,2000,1,1,1,0,0.1,293.15,0,0,1,960.32,960.32,-200,0
0,1,2112,112,2000,1,1,1,0,0.1,293.15,0,0,1,961.91,961.91,-200,0
0,1,2112,111.97,2000,1,1,1,0,0.1,293.15,0,0,1,963.51,963.51,-200,0
0,1,2111.9,111.94,2000,1,1,1,0,0.1,293.15,0,0,1,965.1,965.1,-200,0
0,1,2111.9,111.91,2000,1,1,1,0,0.1,293.15,0,0,1,966.7,966.7,-200,0
0,1,2111.9,111.87,2000,1,1,1,0,0.1,293.15,0,0,1,968.3,968.3,-200,0
0,1,2111.8,111.83,2000,1,1,1,0,0.1,293.15,0,0,1,969.89,969.89,-200,0
0,1,2111.8,111.8,2000,1,1,1,0,0.1,293.15,0,0,1,971.49,971.49,-200,0
0,1,2111.8,111.76,2000,1,1,1,0,0.1,293.15,0,0,1,973.08,973.08,-200,0
0,1,2111.7,111.72,2000,1,1,1,0,0.1,293.15,0,0,1,974.68,974.68,-200,0
0,1,2111.7,111.69,2000,1,1,1,0,0.1,293.15,0,0,1,976.27,976.27,-200,0
0,1,2111.6,111.65,2000,1,1,1,0,0.1,293.15,0,0,1,977.87,977.87,-200,0
0,1,2111.6,111.61,2000,1,1,1,0,0.1,293.15,0,0,1,979.46,979.46,-200,0
0,1,2111.6,111.58,2000,1,1,1,0,0.1,293.15,0,0,1,981.06,981.06,-200,0
0,1,2111.5,111.54,2000,1,1,1,0,0.1,293.15,0,0,1,982.65,982.65,-200,0
0,1,2111.5,111.5,2000,1,1,1,0,0.1,293.15,0,0,1,984.25,984.25,-200,0
0,1,2111.5,111.47,2000,1,1,1,0,0.1,293.15,0,0,1,985.84,985.84,-200,0
0,1,2111.4,111.43,2000,1,1,1,0,0.1,293.15,0,0,1,987.44,987.44,-200,0
0,1,2111.4,111.39,2000,1,1,1,0,0.1,293.15,0,0,1,989.03,989.03,-200,0
0,1,2111.4,111.36,2000,1,1,1,0,0.1,293.15,0,0,1,990.63,990.63,-200,0
0,1,2111.3,111.32,2000,1,1,1,0,0.1,293.15,0,0,1,992.22,992.22,-200,0
0,1,2111.3,111.28,2000,1,1,1,0,0.1,293.15,0,0,1,993.82,993.82,-200,0
0,1,2111.2,111.25,2000,1,1,1,0,0.1,293.15,0,0,1,995.41,995.41,-200,0
0,1,2111.2,111.21,2000,1,1,1,0,0.1,293.15,0,0,1,997.01,997.01,-200,0
0,1,2111.2,111.17,2000,1,1,1,0,0.1,293.15,0,0,1,998.6,998.6,-200,0
0,1,2111.1,111.14,2000,1,1,1,0,0.1,293.15,0,0,1,1000.2,1000.2,-200,0
0,1,2111.1,111.1,2000,1,1,1,0,0.1,293.15,0,0,1,1001.8,1001.8,-200,0
0,1,2111,111.05,2000,1,1,1,0,0.1,293.15,0,0,1,1003.4,1003.4,-200,0
0,1,2111,111.01,2000,1,1,1,0,0.1,293.15,0,0,1,1005,1005,-200,0
0,1,2111,110.96,2000,1,1,1,0,0.1,293.15,0,0,1,1006.6,1006.6,-200,0
0,1,2110.9,110.92,2000,1,1,1,0,0.1,293.15,0,0,1,1008.2,1008.2,-200,0
0,1,2110.9,110.87,2000,1,1,1,0,0.1,293.15,0,0,1,1009.8,1009.8,-200,0
0,1,2110.8,110.83,2000,1,1,1,0,0.1,293.15,0,0,1,1011.4,1011.4,-200,0
0,1,2110.8,110.78,2000,1,1,1,0,0.1,293.15,0,0,1,1013,1013,-200,0
0,1,2110.7,110.74,2000,1,1,1,0,0.1,293.15,0,0,1,1014.6,1014.6,-200,0
0,1,2110.7,110.69,2000,1,1,1,0,0.1,293.15,0,0,1,1016.2,1016.2,-200,0
0,1,2110.6,110.65,2000,1,1,1,0,0.1,293.15,0,0,1,1017.7,1017.7,-200,0
0,1,2110.6,110.6,2000,1,1,1,0,0.1,293.15,0,0,1,1019.3,1019.3,-200,0
0,1,2110.6,110.55,2000,1,1,1,0,0.1,293.15,0,0,1,1020.9,1020.9,-200,0
0,1,2110.5,110.51,2000,1,1,1,0,0.1,293.15,0,0,1,1022.5,1022.5,-200,0
0,1,2110.5,110.46,2000,1,1,1,0,0.1,293.15,0,0,1,1024.1,1024.1,-200,0
0,1,2110.4,110.42,2000,1,1,1,0,0.1,293.15,0,0,1,1025.7,1025.7,-200,0
0,1,2110.4,110.37,2000,1,1,1,0,0.1,293.15,0,0,1,1027.3,1027.3,-200,0
0,1,2110.3,110.33,2000,1,1,1,0,0.1,293.15,0,0,1,1028.9,1028.9,-200,0
0,1,2110.3,110.28,2000,1,1,1,0,0.1,293.15,0,0,1,1030.5,1030.5,-200,0
0,1,2110.2,110.24,2000,1,1,1,0,0.1,293.15,0,0,1,1032.1,1032.1,-200,0
0,1,2110.2,110.2,2000,1,1,1,0,0.1,293.15,0,0,1,1033.7,1033.7,-200,0
0,1,2110.2,110.16,2000,1,1,1,0,0.1,293.15,0,0,1,1035.3,1035.3,-200,0
0,1,2110.1,110.12,2000,1,1,1,0,0.1,293.15,0,0,1,1036.9,1036.9,-200,0
0,1,2110.1,110.08,2000,1,1,1,0,0.1,293.15,0,0,1,1038.5,1038.5,-200,0
0,1,2110,110.04,2000,1,1,1,0,0.1,293.15,0,0,1,1040.1,1040.1,-200,0
0,1,2110,110,2000,1,1,1,0,0.1,293.15,0,0,1,1041.7,1041.7,-200,0
0,1,2110,109.96,2000,1,1,1,0,0.1,293.15,0,0,1,1043.3,1043.3,-200,0
0,1,2109.9,109.9,2000,1,1,1,0,0.1,293.15,0,0,1,1044.9,1044.9,-200,0
0,1,2109.9,109.85,2000,1,1,1,0,0.1,293.15,0,0,1,1046.5,1046.5,-200,0
0,1,2109.8,109.8,2000,1,1,1,0,0.1,293.15,0,0,1,1048.1,1048.1,-200,0
0,1,2109.8,109.75,2000,1,1,1,0,0.1,293.15,0,0,1,1049.7,1049.7,-200,0
0,1,2109.7,109.7,2000,1,1,1,0,0.1,293.15,0,0,1,1051.2,1051.2,-200,0
0,1,2109.7,109.65,2000,1,1,1,0,0.1,293.15,0,0,1,1052.8,1052.8,-200,0
0,1,2109.6,109.6,2000,1,1,1,0,0.1,293.15,0,0,1,1054.4,1054.4,-200,0
0,1,2109.6,109.55,2000,1,1,1,0,0.1,293.15,0,0,1,1056,1056,-200,0
0,1,2109.5,109.5,2000,1,1,1,0,0.1,293.15,0,0,1,1057.6,1057.6,-200,0
0,1,2109.5,109.45,2000,1,1,1,0,0.1,293.15,0,0,1,1059.2,1059.2,-200,0
0,1,2109.4,109.4,2000,1,1,1,0,0.1,293.15,0,0,1,1060.8,1060.8,-200,0
0,1,2109.4,109.35,2000,1,1,1,0,0.1,293.15,0,0,1,1062.4,1062.4,-200,0
0,1,2109.3,109.3,2000,1,1,1,0,0.1,293.15,0,0,1,1064,1064,-200,0
0,1,2109.3,109.25,2000,1,1,1,0,0.1,293.15,0,0,1,1065.6,1065.6,-200,0
0,1,2109.2,109.2,2000,1,1,1,0,0.1,293.15,0,0,1,1067.2,1067.2,-200,0
0,1,2109.2,109.15,2000,1,1,1,0,0.1,293.15,0,0,1,1068.8,1068.8,-200,0
0,1,2109.1,109.09,2000,1,1,1,0,0.1,293.15,0,0,1,1070.4,1070.4,-200,0
0,1,2109,109.04,2000,1,1,1,0,0.1,293.15,0,0,1,1072,1072,-200,0
0,1,2109,108.99,2000,1,1,1,0,0.1,293.15,0,0,1,1073.6,1073.6,-200,0
0,1,2108.9,108.94,2000,1,1,1,0,0.1,293.15,0,0,1,1075.2,1075.2,-200,0
0,1,2108.9,108.89,2000,1,1,1,0,0.1,293.15,0,0,1,1076.8,1076.8,-200,0
0,1,2108.8,108.84,2000,1,1,1,0,0.1,293.15,0,0,1,1078.4,1078.4,-200,0
0,1,2108.8,108.79,2000,1,1,1,0,0.1,293.15,0,0,1,1080,1080,-200,0
0,1,2108.7,108.74,2000,1,1,1,0,0.1,293.15,0,0,1,1081.6,1081.6,-200,0
0,1,2108.7,108.69,2000,1,1,1,0,0.1,293.15,0,0,1,1083.2,1083.2,-200,0
0,1,2108.6,108.64,2000,1,1,1,0,0.1,293.15,0,0,1,1084.7,1084.7,-200,0
0,1,2108.6,108.59,2000,1,1,1,0,0.1,293.15,0,0,1,1086.3,1086.3,-200,0
0,1,2108.5,108.54,2000,1,1,1,0,0.1,293.15,0,0,1,1087.9,1087.9,-200,0
0,1,2108.5,108.49,2000,1,1,1,0,0.1,293.15,0,0,1,1089.5,1089.5,-200,0
0,1,2108.4,108.44,2000,1,1,1,0,0.1,293.15,0,0,1,1091.1,1091.1,-200,0
0,1,2108.4,108.39,2000,1,1,1,0,0.1,293.15,0,0,1,1092.7,1092.7,-200,0
0,1,2108.3,108.34,2000,1,1,1,0,0.1,293.15,0,0,1,1094.3,1094.3,-200,0
0,1,2108.3,108.28,2000,1,1,1,0,0.1,293.15,0,0,1,1095.9,1095.9,-200,0
0,1,2108.2,108.23,2000,1,1,1,0,0.1,293.15,0,0,1,1097.5,1097.5,-200,0
0,1,2108.2,108.17,2000,1,1,1,0,0.1,293.15,0,0,1,1099.1,1099.1,-200,0
0,1,2108.1,108.11,2000,1,1,1,0,0.1,293.15,0,0,1,1100.7,1100.7,-200,0
0,1,2108.1,108.06,2000,1,1,1,0,0.1,293.15,0,0,1,1102.3,1102.3,-200,0
0,1,2108,108,2000,1,1,1,0,0.1,293.15,0,0,1,1103.9,1103.9,-200,0
0,1,2107.9,107.94,2000,1,1,1,0,0.1,293.15,0,0,1,1105.5,1105.5,-200,0
0,1,2107.9,107.88,2000,1,1,1,0,0.1,293.15,0,0,1,1107.1,1107.1,-200,0
0,1,2107.8,107.83,2000,1,1,1,0,0.1,293.15,0,0,1,1108.7,1108.7,-200,0
0,1,2107.8,107.77,2000,1,1,1,0,0.1,293.15,0,0,1,1110.3,1110.3,-200,0
0,1,2107.7,107.71,2000,1,1,1,0,0.1,293.15,0,0,1,1111.9,1111.9,-200,0
0,1,2107.6,107.65,2000,1,1,1,0,0.1,293.15,0,0,1,1113.5,1113.5,-200,0
0,1,2107.6,107.6,2000,1,1,1,0,0.1,293.15,0.024488,0,1,1115.1,1115.1,-200,0
0,1,2107.5,107.55,2000,1,1,1,0,0.1,293.15,0.059702,0,1,1116.7,1116.7,-200,0
0,1,2107.5,107.5,2000,1,1,1,0,0.1,293.15,0.094916,0,1,1118.2,1118.2,-200,0
0,1,2107.4,107.45,2000,1,1,1,0,0.1,293.15,0.13013,0,1,1119.8,1119.8,-200,0
0,1,2107.4,107.4,2000,1,1,1,0,0.1,293.15,0.16534,0,1,1121.4,1121.4,-200,0
0,1,2107.3,107.35,2000,1,1,1,0,0.1,293.15,0.20056,0,1,1123,1123,-200,0
0,1,2107.3,107.3,2000,1,1,1,0,0.1,293.15,0.23577,0,1,1124.6,1124.6,-200,0
0,1,2107.2,107.25,2000,1,1,1,0,0.1,293.15,0.27115,0,1,1126.2,1126.2,-200,0
0,1,2107.2,107.19,2000,1,1,1,0,0.1,293.15,0.3316,0,1,1127.8,1127.8,-200,0
0,1,2107.1,107.13,2000,1,1,1,0,0.1,293.15,0.39205,0,1,1129.4,1129.4,-200,0
0,1,2107.1,107.08,2000,1,1,1,0,0.1,293.15,0.4525,0,1,1131,1131,-200,0
0,1,2107,107.02,2000,1,1,1,0,0.1,293.15,0.51295,0,1,1132.6,1132.6,-200,0
0,1,2107,106.96,2000,1,1,1,0,0.1,293.15,0.57339,0,1,1134.2,1134.2,-200,0
0,1,2106.9,106.9,2000,1,1,1,0,0.1,293.15,0.63384,0,1,1135.8,1135.8,-200,0
0,1,2106.8,106.84,2000,1,1,1,0,0.1,293.15,0.69429,0,1,1137.4,1137.4,-200,0
0,1,2106.8,106.78,2000,1,1,1,0,0.1,293.15,0.75474,0,1,1139,1139,-200,0
0,1,2106.7,106.73,2000,1,1,1,0,0.1,293.15,0.81519,0,1,1140.6,1140.6,-200,0
0,1,2106.7,106.67,2000,1,1,1,0,0.1,293.15,0.87563,0,1,1142.2,1142.2,-200,0
0,1,2106.6,106.61,2000,1,1,1,0,0.1,293.15,0.93608,0,1,1143.8,1143.8,-200,0
0,1,2106.6,106.55,2000,1,1,1,0,0.1,293.15,0.99653,0,1,1145.4,1145.4,-200,0
0,1,2106.6,106.58,2000,1,1,1,0,0.1,293.15,0.95967,0,1,1147,1147,-200,0
0,1,2106.6,106.62,2000,1,1,1,0,0.1,293.15,0.91688,0,1,1148.6,1148.6,-200,0
0,1,2106.7,106.66,2000,1,1,1,0,0.1,293.15,0.87409,0,1,1150.1,1150.1,-200,0
0,1,2106.7,106.69,2000,1,1,1,0,0.1,293.15,0.8313,0,1,1151.7,1151.7,-200,0
0,1,2106.7,106.73,2000,1,1,1,0,0.1,293.15,0.78851,0,1,1153.3,1153.3,-200,0
0,1,2106.8,106.76,2000,1,1,1,0,0.1,293.15,0.74572,0,1,1154.9,1154.9,-200,0
0,1,2106.8,106.8,2000,1,1,1,0,0.1,293.15,0.70293,0,1,1156.5,1156.5,-200,0
0,1,2106.8,106.84,2000,1,1,1,0,0.1,293.15,0.66014,0,1,1158.1,1158.1,-200,0
0,1,2106.9,106.87,2000,1,1,1,0,0.1,293.15,0.61736,0,1,1159.7,1159.7,-200,0
0,1,2106.9,106.91,2000,1,1,1,0,0.1,293.15,0.57457,0,1,1161.3,1161.3,-200,0
0,1,2106.9,106.95,2000,1,1,1,0,0.1,293.15,0.53178,0,1,1162.9,1162.9,-200,0
0,1,2107,106.98,2000,1,1,1,0,0.1,293.15,0.48899,0,1,1164.5,1164.5,-200,0
0,1,2107,107.02,2000,1,1,1,0,0.1,293.15,0.44628,0,1,1166.1,1166.1,-200,0
0,1,2107.1,107.06,2000,1,1,1,0,0.1,293.15,0.40608,0,1,1167.7,1167.7,-200,0
0,1,2107.1,107.1,2000,1,1,1,0,0.1,293.15,0.36588,0,1,1169.3,1169.3,-200,0
0,1,2107.1,107.14,2000,1,1,1,0,0.1,293.15,0.32569,0,1,1170.9,1170.9,-200,0
0,1,2107.2,107.19,2000,1,1,1,0,0.1,293.15,0.28549,0,1,1172.5,1172.5,-200,0
0,1,2107.2,107.23,2000,1,1,1,0,0.1,293.15,0.2453,0,1,1174.1,1174.1,-200,0
0,1,2107.3,107.27,2000,1,1,1,0,0.1,293.15,0.2051,0,1,1175.7,1175.7,-200,0
0,1,2107.3,107.31,2000,1,1,1,0,0.1,293.15,0.1649,0,1,1177.3,1177.3,-200,0
0,1,2107.4,107.35,2000,1,1,1,0,0.1,293.15,0.12471,0,1,1178.9,1178.9,-200,0
0,1,2107.4,107.39,2000,1,1,1,0,0.1,293.15,0.084512,0,1,1180.5,1180.5,-200,0
0,1,2107.4,107.43,2000,1,1,1,0,0.1,293.15,0.044316,0,1,1182.1,1182.1,-200,0
0,1,2107.5,107.48,2000,1,1,1,0,0.1,293.15,0.0041201,0,1,1183.6,1183.6,-200,0
0,1,2107.5,107.52,2000,1,1,1,0,0.1,293.15,0,0,1,1185.2,1185.2,-200,0
0,1,2107.6,107.56,2000,1,1,1,0,0.1,293.15,0,0,1,1186.8,1186.8,-200,0
0,1,2107.6,107.6,2000,1,1,1,0,0.1,293.15,0,0,1,1188.4,1188.4,-200,0
0,1,2107.6,107.65,2000,1,1,1,0,0.1,293.15,0,0,1,1190,1190,-200,0
0,1,2107.7,107.69,2000,1,1,1,0,0.1,293.15,0,0,1,1191.6,1191.6,-200,0
0,1,2107.7,107.73,2000,1,1,1,0,0.1,293.15,0,0,1,1193.2,1193.2,-200,0
0,1,2107.8,107.77,2000,1,1,1,0,0.1,293.15,0,0,1,1194.8,1194.8,-200,0
0,1,2107.8,107.82,2000,1,1,1,0,0.1,293.15,0,0,1,1196.4,1196.4,-200,0
0,1,2107.9,107.86,2000,1,1,1,0,0.1,293.15,0,0,1,1198,1198,-200,0
0,1,2107.9,107.9,2000,1,1,1,0,0.1,293.15,0,0,1,1199.6,1199.6,-200,0
0,1,2107.9,107.94,2000,1,1,1,0,0.1,293.15,0,0,1,1201.2,1201.2,-200,0
0,1,2108,107.99,2000,1,1,1,0,0.1,293.15,0,0,1,1202.8,1202.8,-200,0
0,1,2108,108.03,2000,1,1,1,0,0.1,293.15,0,0,1,1204.4,1204.4,-200,0
0,1,2108.1,108.07,2000,1,1,1,0,0.1,293.15,0,0,1,1206,1206,-200,0
0,1,2108.1,108.11,2000,1,1,1,0,0.1,293.15,0,0,1,1207.6,1207.6,-200,0
0,1,2108.1,108.15,2000,1,1,1,0,0.1,293.15,0,0,1,1209.2,1209.2,-200,0
0,1,2108.2,108.19,2000,1,1,1,0,0.1,293.15,0,0,1,1210.8,1210.8,-200,0
0,1,2108.2,108.23,2000,1,1,1,0,0.1,293.15,0,0,1,1212.4,1212.4,-200,0
0,1,2108.3,108.27,2000,1,1,1,0,0.1,293.15,0,0,1,1214,1214,-200,0
0,1,2108.3,108.31,2000,1,1,1,0,0.1,293.15,0,0,1,1215.6,1215.6,-200,0
0,1,2108.3,108.35,2000,1,1,1,0,0.1,293.15,0,0,1,1217.1,1217.1,-200,0
0,1,2108.4,108.39,2000,1,1,1,0,0.1,293.15,0,0,1,1218.7,1218.7,-200,0
0,1,2108.4,108.44,2000,1,1,1,0,0.1,293.15,0,0,1,1220.3,1220.3,-200,0
0,1,2108.5,108.48,2000,1,1,1,0,0.1,293.15,0,0,1,1221.9,1221.9,-200,0
0,1,2108.5,108.52,2000,1,1,1,0,0.1,293.15,0,0,1,1223.5,1223.5,-200,0
0,1,2108.6,108.57,2000,1,1,1,0,0.1,293.15,0,0,1,1225.1,1225.1,-200,0
0,1,2108.6,108.61,2000,1,1,1,0,0.1,293.15,0,0,1,1226.7,1226.7,-200,0
0,1,2108.7,108.66,2000,1,1,1,0,0.1,293.15,0,0,1,1228.3,1228.3,-200,0
0,1,2108.7,108.7,2000,1,1,1,0,0.1,293.15,0,0,1,1229.9,1229.9,-200,0
0,1,2108.7,108.75,2000,1,1,1,0,0.1,293.15,0,0,1,1231.5,1231.5,-200,0
0,1,2108.8,108.79,2000,1,1,1,0,0.1,293.15,0,0,1,1233.1,1233.1,-200,0
0,1,2108.8,108.83,2000,1,1,1,0,0.1,293.15,0,0,1,1234.7,1234.7,-200,0
0,1,2108.9,108.88,2000,1,1,1,0,0.1,293.15,0,0,1,1236.3,1236.3,-200,0
0,1,2108.9,108.92,2000,1,1,1,0,0.1,293.15,0,0,1,1237.9,1237.9,-200,0
0,1,2109,108.97,2000,1,1,1,0,0.1,293.15,0,0,1,1239.5,1239.5,-200,0
0,1,2109,109.01,2000,1,1,1,0,0.1,293.15,0,0,1,1241.1,1241.1,-200,0
0,1,2109.1,109.05,2000,1,1,1,0,0.1,293.15,0,0,1,1242.7,1242.7,-200,0
0,1,2109.1,109.1,2000,1,1,1,0,0.1,293.15,0,0,1,1244.3,1244.3,-200,0
0,1,2109.1,109.14,2000,1,1,1,0,0.1,293.15,0,0,1,1245.9,1245.9,-200,0
0,1,2109.2,109.19,2000,1,1,1,0,0.1,293.15,0,0,1,1247.5,1247.5,-200,0
0,1,2109.2,109.23,2000,1,1,1,0,0.1,293.15,0,0,1,1249.1,1249.1,-200,0
0,1,2109.3,109.28,2000,1,1,1,0,0.1,293.15,0,0,1,1250.6,1250.6,-200,0
0,1,2109.3,109.32,2000,1,1,1,0,0.1,293.15,0,0,1,1252.2,1252.2,-200,0
0,1,2109.4,109.37,2000,1,1,1,0,0.1,293.15,0,0,1,1253.8,1253.8,-200,0
0,1,2109.4,109.42,2000,1,1,1,0,0.1,293.15,0,0,1,1255.4,1255.4,-200,0
0,1,2109.5,109.46,2000,1,1,1,0,0.1,293.15,0,0,1,1257,1257,-200,0
0,1,2109.5,109.51,2000,1,1,1,0,0.1,293.15,0,0,1,1258.6,1258.6,-200,0
0,1,2109.6,109.55,2000,1,1,1,0,0.1,293.15,0,0,1,1260.2,1260.2,-200,0
0,1,2109.6,109.6,2000,1,1,1,0,0.1,293.15,0,0,1,1261.8,1261.8,-200,0
0,1,2109.6,109.65,2000,1,1,1,0,0.1,293.15,0,0,1,1263.4,1263.4,-200,0
0,1,2109.7,109.69,2000,1,1,1,0,0.1,293.15,0,0,1,1265,1265,-200,0
0,1,2109.7,109.74,2000,1,1,1,0,0.1,293.15,0,0,1,1266.6,1266.6,-200,0
0,1,2109.8,109.79,2000,1,1,1,0,0.1,293.15,0,0,1,1268.2,1268.2,-200,0
0,1,2109.8,109.83,2000,1,1,1,0,0.1,293.15,0,0,1,1269.8,1269.8,-200,0
0,1,2109.9,109.88,2000,1,1,1,0,0.1,293.15,0,0,1,1271.4,1271.4,-200,0
0,1,2109.9,109.92,2000,1,1,1,0,0.1,293.15,0,0,1,1273,1273,-200,0
0,1,2110,109.97,2000,1,1,1,0,0.1,293.15,0,0,1,1274.6,1274.6,-200,0
0,1,2110,110.02,2000,1,1,1,0,0.1,293.15,0,0,1,1276.2,1276.2,-200,0
0,1,2110.1,110.06,2000,1,1,1,0,0.1,293.15,0,0,1,1277.8,1277.8,-200,0
0,1,2110.1,110.11,2000,1,1,1,0,0.1,293.15,0,0,1,1279.4,1279.4,-200,0
0,1,2110.2,110.15,2000,1,1,1,0,0.1,293.15,0,0,1,1281,1281,-200,0
0,1,2110.2,110.2,2000,1,1,1,0,0.1,293.15,0,0,1,1282.6,1282.6,-200,0
0,1,2110.2,110.24,2000,1,1,1,0,0.1,293.15,0,0,1,1284.1,1284.1,-200,0
0,1,2110.3,110.29,2000,1,1,1,0,0.1,293.15,0,0,1,1285.7,1285.7,-200,0
0,1,2110.3,110.33,2000,1,1,1,0,0.1,293.15,0,0,1,1287.3,1287.3,-200,0
0,1,2110.4,110.38,2000,1,1,1,0,0.1,293.15,0,0,1,1288.9,1288.9,-200,0
0,1,2110.4,110.42,2000,1,1,1,0,0.1,293.15,0,0,1,1290.5,1290.5,-200,0
0,1,2110.5,110.47,2000,1,1,1,0,0.1,293.15,0,0,1,1292.1,1292.1,-200,0
0,1,2110.5,110.51,2000,1,1,1,0,0.1,293.15,0,0,1,1293.7,1293.7,-200,0
0,1,2110.6,110.56,2000,1,1,1,0,0.1,293.15,0,0,1,1295.3,1295.3,-200,0
0,1,2110.6,110.61,2000,1,1,1,0,0.1,293.15,0,0,1,1296.9,1296.9,-200,0
0,1,2110.7,110.65,2000,1,1,1,0,0.1,293.15,0,0,1,1298.5,1298.5,-200,0
0,1,2110.7,110.7,2000,1,1,1,0,0.1,293.15,0,0,1,1300.1,1300.1,-200,0
0,1,2110.7,110.74,2000,1,1,1,0,0.1,293.15,0,0,1,1301.7,1301.7,-200,0
0,1,2110.8,110.79,2000,1,1,1,0,0.1,293.15,0,0,1,1303.3,1303.3,-200,0
0,1,2110.8,110.83,2000,1,1,1,0,0.1,293.15,0,0,1,1304.9,1304.9,-200,0
0,1,2110.9,110.88,2000,1,1,1,0,0.1,293.15,0,0,1,1306.5,1306.5,-200,0
0,1,2110.9,110.92,2000,1,1,1,0,0.1,293.15,0,0,1,1308.1,1308.1,-200,0
0,1,2111,110.97,2000,1,1,1,0,0.1,293.15,0,0,1,1309.7,1309.7,-200,0
0,1,2111,111.01,2000,1,1,1,0,0.1,293.15,0,0,1,1311.3,1311.3,-200,0
0,1,2111.1,111.06,2000,1,1,1,0,0.1,293.15,0,0,1,1312.9,1312.9,-200,0
0,1,2111.1,111.12,2000,1,1,1,0,0.1,293.15,0,0,1,1314.5,1314.5,-200,0
0,1,2111.2,111.16,2000,1,1,1,0,0.1,293.15,0,0,1,1316.1,1316.1,-200,0
0,1,2111.2,111.21,2000,1,1,1,0,0.1,293.15,0,0,1,1317.6,1317.6,-200,0
0,1,2111.3,111.25,2000,1,1,1,0,0.1,293.15,0,0,1,1319.2,1319.2,-200,0
0,1,2111.3,111.3,2000,1,1,1,0,0.1,293.15,0,0,1,1320.8,1320.8,-200,0
0,1,2111.3,111.34,2000,1,1,1,0,0.1,293.15,0,0,1,1322.4,1322.4,-200,0
0,1,2111.4,111.39,2000,1,1,1,0,0.1,293.15,0,0,1,1324,1324,-200,0
0,1,2111.4,111.43,2000,1,1,1,0,0.1,293.15,0,0,1,1325.6,1325.6,-200,0
0,1,2111.5,111.47,2000,1,1,1,0,0.1,293.15,0,0,1,1327.2,1327.2,-200,0
0,1,2111.5,111.52,2000,1,1,1,0,0.1,293.15,0,0,1,1328.8,1328.8,-200,0
0,1,2111.6,111.56,2000,1,1,1,0,0.1,293.15,0,0,1,1330.4,1330.4,-200,0
0,1,2111.6,111.6,2000,1,1,1,0,0.1,293.15,0,0,1,1332,1332,-200,0
0,1,2111.7,111.65,2000,1,1,1,0,0.1,293.15,0,0,1,1333.6,1333.6,-200,0
0,1,2111.7,111.69,2000,1,1,1,0,0.1,293.15,0,0,1,1335.2,1335.2,-200,0
0,1,2111.7,111.74,2000,1,1,1,0,0.1,293.15,0,0,1,1336.8,1336.8,-200,0
0,1,2111.8,111.78,2000,1,1,1,0,0.1,293.15,0,0,1,1338.4,1338.4,-200,0
0,1,2111.8,111.82,2000,1,1,1,0,0.1,293.15,0,0,1,1340,1340,-200,0
0,1,2111.9,111.87,2000,1,1,1,0,0.1,293.15,0,0,1,1341.6,1341.6,-200,0
0,1,2111.9,111.91,2000,1,1,1,0,0.1,293.15,0,0,1,1343.2,1343.2,-200,0
0,1,2112,111.95,2000,1,1,1,0,0.1,293.15,0,0,1,1344.8,1344.8,-200,0
0,1,2112,112,2000,1,1,1,0,0.1,293.15,0,0,1,1346.4,1346.4,-200,0
0,1,2112,112.04,2000,1,1,1,0,0.1,293.15,0,0,1,1348,1348,-200,0
0,1,2112.1,112.08,2000,1,1,1,0,0.1,293.15,0,0,1,1349.6,1349.6,-200,0
0,1,2112.1,112.12,2000,1,1,1,0,0.1,293.15,0,0,1,1351.1,1351.1,-200,0
0,1,2112.2,112.16,2000,1,1,1,0,0.1,293.15,0,0,1,1352.7,1352.7,-200,0
0,1,2112.2,112.21,2000,1,1,1,0,0.1,293.15,0,0,1,1354.3,1354.3,-200,0
0,1,2112.2,112.25,2000,1,1,1,0,0.1,293.15,0,0,1,1355.9,1355.9,-200,0
0,1,2112.3,112.29,2000,1,1,1,0,0.1,293.15,0,0,1,1357.5,1357.5,-200,0
0,1,2112.3,112.33,2000,1,1,1,0,0.1,293.15,0,0,1,1359.1,1359.1,-200,0
0,1,2112.4,112.37,2000,1,1,1,0,0.1,293.15,0,0,1,1360.7,1360.7,-200,0
0,1,2112.4,112.42,2000,1,1,1,0,0.1,293.15,0,0,1,1362.3,1362.3,-200,0
0,1,2112.5,112.46,2000,1,1,1,0,0.1,293.15,0,0,1,1363.9,1363.9,-200,0
0,1,2112.5,112.5,2000,1,1,1,0,0.1,293.15,0,0,1,1365.5,1365.5,-200,0
0,1,2112.5,112.55,2000,1,1,1,0,0.1,293.15,0,0,1,1367.1,1367.1,-200,0
0,1,2112.6,112.59,2000,1,1,1,0,0.1,293.15,0,0,1,1368.7,1368.7,-200,0
0,1,2112.6,112.64,2000,1,1,1,0,0.1,293.15,0,0,1,1370.3,1370.3,-200,0
0,1,2112.7,112.69,2000,1,1,1,0,0.1,293.15,0,0,1,1371.9,1371.9,-200,0
0,1,2112.7,112.73,2000,1,1,1,0,0.1,293.15,0,0,1,1373.5,1373.5,-200,0
0,1,2112.8,112.77,2000,1,1,1,0,0.1,293.15,0,0,1,1375.1,1375.1,-200,0
0,1,2112.8,112.81,2000,1,1,1,0,0.1,293.15,0,0,1,1376.7,1376.7,-200,0
0,1,2112.8,112.85,2000,1,1,1,0,0.1,293.15,0,0,1,1378.3,1378.3,-200,0
0,1,2112.9,112.88,2000,1,1,1,0,0.1,293.15,0,0,1,1379.9,1379.9,-200,0
0,1,2112.9,112.92,2000,1,1,1,0,0.1,293.15,0,0,1,1381.5,1381.5,-200,0
0,1,2113,112.96,2000,1,1,1,0,0.1,293.15,0,0,1,1383.1,1383.1,-200,0
0,1,2113,113,2000,1,1,1,0,0.1,293.15,0,0,1,1384.6,1384.6,-200,0
0,1,2113,113.04,2000,1,1,1,0,0.1,293.15,0,0,1,1386.2,1386.2,-200,0
0,1,2113.1,113.08,2000,1,1,1,0,0.1,293.15,0,0,1,1387.8,1387.8,-200,0
0,1,2113.1,113.12,2000,1,1,1,0,0.1,293.15,0,0,1,1389.4,1389.4,-200,0
0,1,2113.2,113.16,2000,1,1,1,0,0.1,293.15,0,0,1,1391,1391,-200,0
0,1,2113.2,113.19,2000,1,1,1,0,0.1,293.15,0,0,1,1392.6,1392.6,-200,0
0,1,2113.2,113.23,2000,1,1,1,0,0.1,293.15,0,0,1,1394.2,1394.2,-200,0
0,1,2113.3,113.27,2000,1,1,1,0,0.1,293.15,0,0,1,1395.8,1395.8,-200,0
0,1,2113.3,113.31,2000,1,1,1,0,0.1,293.15,0,0,1,1397.4,1397.4,-200,0
0,1,2113.4,113.35,2000,1,1,1,0,0.1,293.15,0,0,1,1399,1399,-200,0
0,1,2113.4,113.39,2000,1,1,1,0,0.1,293.15,0,0,1,1400.6,1400.6,-200,0
0,1,2113.4,113.43,2000,1,1,1,0,0.1,293.15,0,0,1,1402.2,1402.2,-200,0
0,1,2113.5,113.47,2000,1,1,1,0,0.1,293.15,0,0,1,1403.8,1403.8,-200,0
0,1,2113.5,113.5,2000,1,1,1,0,0.1,293.15,0,0,1,1405.4,1405.4,-200,0
0,1,2113.6,113.55,2000,1,1,1,0,0.1,293.15,0,0,1,1407,1407,-200,0
0,1,2113.6,113.59,2000,1,1,1,0,0.1,293.15,0,0,1,1408.6,1408.6,-200,0
0,1,2113.6,113.64,2000,1,1,1,0,0.1,293.15,0,0,1,1410.2,1410.2,-200,0
0,1,2113.7,113.69,2000,1,1,1,0,0.1,293.15,0,0,1,1411.8,1411.8,-200,0
0,1,2113.7,113.72,2000,1,1,1,0,0.1,293.15,0,0,1,1413.4,1413.4,-200,0
0,1,2113.8,113.76,2000,1,1,1,0,0.1,293.15,0,0,1,1415,1415,-200,0
0,1,2113.8,113.79,2000,1,1,1,0,0.1,293.15,0,0,1,1416.6,1416.6,-200,0
0,1,2113.8,113.83,2000,1,1,1,0,0.1,293.15,0,0,1,1418.1,1418.1,-200,0
0,1,2113.9,113.87,2000,1,1,1,0,0.1,293.15,0,0,1,1419.7,1419.7,-200,0
0,1,2113.9,113.9,2000,1,1,1,0,0.1,293.15,0,0,1,1421.3,1421.3,-200,0
0,1,2113.9,113.94,2000,1,1,1,0,0.1,293.15,0,0,1,1422.9,1422.9,-200,0
0,1,2114,113.97,2000,1,1,1,0,0.1,293.15,0,0,1,1424.5,1424.5,-200,0
0,1,2114,114.01,2000,1,1,1,0,0.1,293.15,0,0,1,1426.1,1426.1,-200,0
0,1,2114,114.04,2000,1,1,1,0,0.1,293.15,0,0,1,1427.7,1427.7,-200,0
0,1,2114.1,114.08,2000,1,1,1,0,0.1,293.15,0,0,1,1429.3,1429.3,-200,0
0,1,2114.1,114.11,2000,1,1,1,0,0.1,293.15,0,0,1,1430.9,1430.9,-200,0
0,1,2114.1,114.15,2000,1,1,1,0,0.1,293.15,0,0,1,1432.5,1432.5,-200,0
0,1,2114.2,114.18,2000,1,1,1,0,0.1,293.15,0,0,1,1434.1,1434.1,-200,0
0,1,2114.2,114.22,2000,1,1,1,0,0.1,293.15,0,0,1,1435.7,1435.7,-200,0
0,1,2114.3,114.25,2000,1,1,1,0,0.1,293.15,0,0,1,1437.3,1437.3,-200,0
0,1,2114.3,114.29,2000,1,1,1,0,0.1,293.15,0,0,1,1438.9,1438.9,-200,0
0,1,2114.3,114.32,2000,1,1,1,0,0.1,293.15,0,0,1,1440.5,1440.5,-200,0
0,1,2114.4,114.35,2000,1,1,1,0,0.1,293.15,0,0,1,1442.1,1442.1,-200,0
0,1,2114.4,114.39,2000,1,1,1,0,0.1,293.15,0,0,1,1443.7,1443.7,-200,0
0,1,2114.4,114.42,2000,1,1,1,0,0.1,293.15,0,0,1,1445.3,1445.3,-200,0
0,1,2114.5,114.46,2000,1,1,1,0,0.1,293.15,0,0,1,1446.9,1446.9,-200,0
0,1,2114.5,114.49,2000,1,1,1,0,0.1,293.15,0,0,1,1448.5,1448.5,-200,0
0,1,2114.5,114.53,2000,1,1,1,0,0.1,293.15,0,0,1,1450,1450,-200,0
0,1,2114.6,114.56,2000,1,1,1,0,0.1,293.15,0,0,1,1451.6,1451.6,-200,0
0,1,2114.6,114.6,2000,1,1,1,0,0.1,293.15,0,0,1,1453.2,1453.2,-200,0
0,1,2114.6,114.63,2000,1,1,1,0,0.1,293.15,0,0,1,1454.8,1454.8,-200,0
0,1,2114.7,114.65,2000,1,1,1,0,0.1,293.15,0,0,1,1456.4,1456.4,-200,0
0,1,2114.7,114.68,2000,1,1,1,0,0.1,293.15,0,0,1,1458,1458,-200,0
0,1,2114.7,114.71,2000,1,1,1,0,0.1,293.15,0,0,1,1459.6,1459.6,-200,0
0,1,2114.7,114.73,2000,1,1,1,0,0.1,293.15,0,0,1,1461.2,1461.2,-200,0
0,1,2114.8,114.76,2000,1,1,1,0,0.1,293.15,0,0,1,1462.8,1462.8,-200,0
0,1,2114.8,114.79,2000,1,1,1,0,0.1,293.15,0,0,1,1464.4,1464.4,-200,0
0,1,2114.8,114.81,2000,1,1,1,0,0.1,293.15,0,0,1,1466,1466,-200,0
0,1,2114.8,114.84,2000,1,1,1,0,0.1,293.15,0,0,1,1467.6,1467.6,-200,0
0,1,2114.9,114.87,2000,1,1,1,0,0.1,293.15,0,0,1,1469.2,1469.2,-200,0
0,1,2114.9,114.89,2000,1,1,1,0,0.1,293.15,0,0,1,1470.8,1470.8,-200,0
0,1,2114.9,114.92,2000,1,1,1,0,0.1,293.15,0,0,1,1472.4,1472.4,-200,0
0,1,2114.9,114.95,2000,1,1,1,0,0.1,293.15,0,0,1,1474,1474,-200,0
0,1,2115,114.97,2000,1,1,1,0,0.1,293.15,0,0,1,1475.6,1475.6,-200,0
0,1,2115,115,2000,1,1,1,0,0.1,293.15,0,0,1,1477.2,1477.2,-200,0
0,1,2115,115.03,2000,1,1,1,0,0.1,293.15,0,0,1,1478.8,1478.8,-200,0
0,1,2115.1,115.06,2000,1,1,1,0,0.1,293.15,0,0,1,1480.4,1480.4,-200,0
0,1,2115.1,115.09,2000,1,1,1,0,0.1,293.15,0,0,1,1482,1482,-200,0
0,1,2115.1,115.11,2000,1,1,1,0,0.1,293.15,0,0,1,1483.5,1483.5,-200,0
0,1,2115.1,115.14,2000,1,1,1,0,0.1,293.15,0,0,1,1485.1,1485.1,-200,0
0,1,2115.2,115.17,2000,1,1,1,0,0.1,293.15,0,0,1,1486.7,1486.7,-200,0
0,1,2115.2,115.2,2000,1,1,1,0,0.1,293.15,0,0,1,1488.3,1488.3,-200,0
0,1,2115.2,115.23,2000,1,1,1,0,0.1,293.15,0,0,1,1489.9,1489.9,-200,0
0,1,2115.3,115.26,2000,1,1,1,0,0.1,293.15,0,0,1,1491.5,1491.5,-200,0
0,1,2115.3,115.28,2000,1,1,1,0,0.1,293.15,0,0,1,1493.1,1493.1,-200,0
0,1,2115.3,115.3,2000,1,1,1,0,0.1,293.15,0,0,1,1494.7,1494.7,-200,0
0,1,2115.3,115.32,2000,1,1,1,0,0.1,293.15,0,0,1,1496.3,1496.3,-200,0
0,1,2115.3,115.34,2000,1,1,1,0,0.1,293.15,0,0,1,1497.9,1497.9,-200,0
0,1,2115.4,115.37,2000,1,1,1,0,0.1,293.15,0,0,1,1499.5,1499.5,-200,0
0,1,2115.4,115.39,2000,1,1,1,0,0.1,293.15,0,0,1,1501.1,1501.1,-200,0
0,1,2115.4,115.41,2000,1,1,1,0,0.1,293.15,0,0,1,1502.7,1502.7,-200,0
0,1,2115.4,115.43,2000,1,1,1,0,0.1,293.15,0,0,1,1504.3,1504.3,-200,0
0,1,2115.5,115.45,2000,1,1,1,0,0.1,293.15,0,0,1,1505.9,1505.9,-200,0
0,1,2115.5,115.48,2000,1,1,1,0,0.1,293.15,0,0,1,1507.5,1507.5,-200,0
0,1,2115.5,115.5,2000,1,1,1,0,0.1,293.15,0,0,1,1509.1,1509.1,-200,0
0,1,2115.5,115.52,2000,1,1,1,0,0.1,293.15,0,0,1,1510.7,1510.7,-200,0
0,1,2115.5,115.54,2000,1,1,1,0,0.1,293.15,0,0,1,1512.3,1512.3,-200,0
0,1,2115.6,115.56,2000,1,1,1,0,0.1,293.15,0,0,1,1513.9,1513.9,-200,0
0,1,2115.6,115.58,2000,1,1,1,0,0.1,293.15,0,0,1,1515.5,1515.5,-200,0
0,1,2115.6,115.6,2000,1,1,1,0,0.1,293.15,0,0,1,1517,1517,-200,0
0,1,2115.6,115.62,2000,1,1,1,0,0.1,293.15,0,0,1,1518.6,1518.6,-200,0
0,1,2115.6,115.63,2000,1,1,1,0,0.1,293.15,0,0,1,1520.2,1520.2,-200,0
0,1,2115.7,115.65,2000,1,1,1,0,0.1,293.15,0,0,1,1521.8,1521.8,-200,0
0,1,2115.7,115.67,2000,1,1,1,0,0.1,293.15,0,0,1,1523.4,1523.4,-200,0
0,1,2115.7,115.69,2000,1,1,1,0,0.1,293.15,0,0,1,1525,1525,-200,0
0,1,2115.7,115.71,2000,1,1,1,0,0.1,293.15,0,0,1,1526.6,1526.6,-200,0
0,1,2115.7,115.72,2000,1,1,1,0,0.1,293.15,0,0,1,1528.2,1528.2,-200,0
0,1,2115.7,115.74,2000,1,1,1,0,0.1,293.15,0,0,1,1529.8,1529.8,-200,0
0,1,2115.8,115.76,2000,1,1,1,0,0.1,293.15,0,0,1,1531.4,1531.4,-200,0
0,1,2115.8,115.78,2000,1,1,1,0,0.1,293.15,0,0,1,1533,1533,-200,0
0,1,2115.8,115.79,2000,1,1,1,0,0.1,293.15,0,0,1,1534.6,1534.6,-200,0
0,1,2115.8,115.81,2000,1,1,1,0,0.1,293.15,0,0,1,1536.2,1536.2,-200,0
0,1,2115.8,115.83,2000,1,1,1,0,0.1,293.15,0,0,1,1537.8,1537.8,-200,0
0,1,2115.8,115.85,2000,1,1,1,0,0.1,293.15,0,0,1,1539.4,1539.4,-200,0
0,1,2115.9,115.87,2000,1,1,1,0,0.1,293.15,0,0,1,1541,1541,-200,0
0,1,2115.9,115.88,2000,1,1,1,0,0.1,293.15,0,0,1,1542.6,1542.6,-200,0
0,1,2115.9,115.89,2000,1,1,1,0,0.1,293.15,0,0,1,1544.2,1544.2,-200,0
0,1,2115.9,115.9,2000,1,1,1,0,0.1,293.15,0,0,1,1545.8,1545.8,-200,0
0,1,2115.9,115.91,2000,1,1,1,0,0.1,293.15,0,0,1,1547.4,1547.4,-200,0
0,1,2115.9,115.92,2000,1,1,1,0,0.1,293.15,0,0,1,1549,1549,-200,0
0,1,2115.9,115.93,2000,1,1,1,0,0.1,293.15,0,0,1,1550.5,1550.5,-200,0
0,1,2115.9,115.95,2000,1,1,1,0,0.1,293.15,0,0,1,1552.1,1552.1,-200,0
0,1,2116,115.96,2000,1,1,1,0,0.1,293.15,0,0,1,1553.7,1553.7,-200,0
0,1,2116,115.97,2000,1,1,1,0,0.1,293.15,0,0,1,1555.3,1555.3,-200,0
0,1,2116,115.98,2000,1,1,1,0,0.1,293.15,0,0,1,1556.9,1556.9,-200,0
0,1,2116,115.99,2000,1,1,1,0,0.1,293.15,0,0,1,1558.5,1558.5,-200,0
0,1,2116,116,2000,1,1,1,0,0.1,293.15,0,0,1,1560.1,1560.1,-200,0
0,1,2116,116,2000,1,1,1,0,0.1,293.15,0,0,1,1561.7,1561.7,-200,0
0,1,2116,116.01,2000,1,1,1,0,0.1,293.15,0,0,1,1563.3,1563.3,-200,0
0,1,2116,116.01,2000,1,1,1,0,0.1,293.15,0,0,1,1564.9,1564.9,-200,0
0,1,2116,116.01,2000,1,1,1,0,0.1,293.15,0,0,1,1566.5,1566.5,-200,0
0,1,2116,116.02,2000,1,1,1,0,0.1,293.15,0,0,1,1568.1,1568.1,-200,0
0,1,2116,116.02,2000,1,1,1,0,0.1,293.15,0,0,1,1569.7,1569.7,-200,0
0,1,2116,116.02,2000,1,1,1,0,0.1,293.15,0,0,1,1571.3,1571.3,-200,0
0,1,2116,116.03,2000,1,1,1,0,0.1,293.15,0,0,1,1572.9,1572.9,-200,0
0,1,2116,116.03,2000,1,1,1,0,0.1,293.15,0,0,1,1574.5,1574.5,-200,0
0,1,2116,116.03,2000,1,1,1,0,0.1,293.15,0,0,1,1576.1,1576.1,-200,0
0,1,2116,116.04,2000,1,1,1,0,0.1,293.15,0,0,1,1577.7,1577.7,-200,0
0,1,2116,116.04,2000,1,1,1,0,0.1,293.15,0,0,1,1579.3,1579.3,-200,0
0,1,2116,116.04,2000,1,1,1,0,0.1,293.15,0,0,1,1580.9,1580.9,-200,0
0,1,2116,116.05,2000,1,1,1,0,0.1,293.15,0,0,1,1582.5,1582.5,-200,0
0,1,2116,116.05,2000,1,1,1,0,0.1,293.15,0,0,1,1584,1584,-200,0
0,1,2116.1,116.05,2000,1,1,1,0,0.1,293.15,0,0,1,1585.6,1585.6,-200,0
0,1,2116.1,116.06,2000,1,1,1,0,0.1,293.15,0,0,1,1587.2,1587.2,-200,0
0,1,2116.1,116.06,2000,1,1,1,0,0.1,293.15,0,0,1,1588.8,1588.8,-200,0
0,1,2116.1,116.06,2000,1,1,1,0,0.1,293.15,0,0,1,1590.4,1590.4,-200,0
0,1,2116.1,116.07,2000,1,1,1,0,0.1,293.15,0,0,1,1592,1592,-200,0
0,1,2116.1,116.07,2000,1,1,1,0,0.1,293.15,0,0,1,1593.6,1593.6,-200,0
0,1,2116.1,116.07,2000,1,1,1,0,0.1,293.15,0,0,1,1595.2,1595.2,-200,0
0,1,2116.1,116.08,2000,1,1,1,0,0.1,293.15,0,0,1,1596.8,1596.8,-200,0
0,1,2116.1,116.08,2000,1,1,1,0,0.1,293.15,0,0,1,1598.4,1598.4,-200,0
0,1,2116.1,116.08,2000,1,1,1,0,0.1,293.15,0,0,1,1600,1600,-200,0
