lc = 1e-2;
lcf = 1e-2;

Point(1) = {0, 0, 0, lc};
Point(2) = {1, 0, 0, lc};
Point(3) = {1, 1, 0, lc};
Point(4) = {0, 1, 0, lc};

// fracture 1:
Point(5) = {0.049954937379, 0.415978335278, 0, lcf};
Point(6) = {0.219954937379, 0.062378335278, 0, lcf};
Point(7) = {0.220045062621, 0.062421664722, 0, lcf};
Point(8) = {0.050045062621, 0.416021664722, 0, lcf};

// fracture 2:
Point(9) = {0.049971326883, 0.274959038404, 0, lcf};
Point(10) = {0.249971326883, 0.134959038404, 0, lcf};
Point(11) = {0.250028673117, 0.135040961596, 0, lcf};
Point(12) = {0.050028673117, 0.275040961596, 0, lcf};

// fracture 3:
Point(13) = {0.149956292136, 0.629975717853, 0, lcf};
Point(14) = {0.449956292136, 0.089975717853, 0, lcf};
Point(15) = {0.450043707864, 0.090024282147, 0, lcf};
Point(16) = {0.150043707864, 0.630024282147, 0, lcf};

// fracture 4:
Point(17) = {0.149957124446, 0.916674276725, 0, lcf};
Point(18) = {0.399957124446, 0.499974276725, 0, lcf};
Point(19) = {0.400042875554, 0.500025723275, 0, lcf};
Point(20) = {0.150042875554, 0.916725723275, 0, lcf};

// fracture 5:
Point(21) = {0.649952109081, 0.833285631287, 0, lcf};
// Point(22) = {0.849952109081, 0.166685631287, 0, lcf};
// Point(23) = {0.850047890919, 0.166714368713, 0, lcf};
Point(22) = {0.849675109081, 0.167610631287, 0, lcf};
Point(23) = {0.849770890918, 0.167639368712, 0, lcf};
Point(24) = {0.650047890919, 0.833314368713, 0, lcf};

// fracture 6:
Point(25) = {0.699979481766, 0.234954403925, 0, lcf};
// Point(26) = {0.849979481766, 0.167454403925, 0, lcf};
// Point(27) = {0.850020518234, 0.167545596075, 0, lcf};
Point(26) = {0.849702481766, 0.167579403924, 0, lcf};
Point(27) = {0.849743518233, 0.167670596075, 0, lcf};
Point(28) = {0.700020518234, 0.235045596075, 0, lcf};

// fracture 7:
Point(29) = {0.599979481766, 0.379954403925, 0, lcf};
Point(30) = {0.849979481766, 0.267454403925, 0, lcf};
Point(31) = {0.850020518234, 0.267545596075, 0, lcf};
Point(32) = {0.600020518234, 0.380045596075, 0, lcf};

// fracture 8:
Point(33) = {0.349975196170, 0.971356586062, 0, lcf};
Point(34) = {0.799975196170, 0.714256586062, 0, lcf};
Point(35) = {0.800024803830, 0.714343413938, 0, lcf};
Point(36) = {0.350024803830, 0.971443413938, 0, lcf};

// fracture 9:
Point(37) = {0.749971067462, 0.957359221228, 0, lcf};
Point(38) = {0.949971067462, 0.815459221228, 0, lcf};
Point(39) = {0.950028932538, 0.815540778772, 0, lcf};
Point(40) = {0.750028932538, 0.957440778772, 0, lcf};

// fracture 10:
Point(41) = {0.150023947527, 0.836256107905, 0, lcf};
Point(42) = {0.400023947527, 0.972656107905, 0, lcf};
Point(43) = {0.399976052473, 0.972743892095, 0, lcf};
Point(44) = {0.149976052473, 0.836343892095, 0, lcf};

// crossing fractures 1 and 2:
Point(45) = {0.152134520148, 0.203444803118, 0, lcf};
Point(46) = {0.152046066846, 0.203628785986, 0, lcf};
Point(47) = {0.152213305939, 0.203511718621, 0, lcf};
Point(48) = {0.152301759241, 0.203327735754, 0, lcf};

// crossing fractures 4 and 10:
Point(49) = {0.186358809611, 0.856194324389, 0, lcf};
Point(50) = {0.186270951856, 0.856146389198, 0, lcf};
Point(51) = {0.186322441519, 0.856060566228, 0, lcf};
Point(52) = {0.186410299274, 0.856108501419, 0, lcf};

// crossing fractures 10 and 8:
Point(53) = {0.373259555335, 0.958053455526, 0, lcf};
Point(54) = {0.373362668370, 0.958109713998, 0, lcf};
Point(55) = {0.373260678639, 0.958167984131, 0, lcf};
Point(56) = {0.373157565604, 0.958111725659, 0, lcf};

// crossing fractures 8 and 5:
Point(57) = {0.662015786137, 0.793077395661, 0, lcf};
Point(58) = {0.662141789139, 0.793005405946, 0, lcf};
Point(59) = {0.662100085921, 0.793144402770, 0, lcf};
Point(60) = {0.661974082919, 0.793216392485, 0, lcf};

// crossing fractures 5 and 7:
Point(61) = {0.814995088497, 0.283197380896, 0, lcf};
Point(62) = {0.814957052228, 0.283324155778, 0, lcf};
Point(63) = {0.815077752294, 0.283269840748, 0, lcf};
Point(64) = {0.815115788562, 0.283143065866, 0, lcf};

// crossing fractures 5 and 6:
// Point(65) = {0.849681179374, 0.167588640001, 0, lcf};
Point(65) = {0.849723, 0.167625, 0, lcf};
Point(66) = {0.849643143106, 0.167715414883, 0, lcf};
// Point(67) = {0.849763843172, 0.167661099853, 0, lcf};
// Point(68) = {0.849801879440, 0.167534324972, 0, lcf};


// global domain:
Line(1) = {1, 2};
Line(2) = {2, 3};
Line(3) = {3, 4};
Line(4) = {4, 1};
Line Loop(1) = {1, 2, 3, 4};

// permeable parts:
Line(5) = {5, 46};
Line(6) = {46, 12};
Line(7) = {12, 9};
Line(8) = {9, 45};
Line(9) = {45, 6};
Line(10) = {6, 7};
Line(11) = {7, 48};
Line(12) = {48, 10};
Line(13) = {10, 11};
Line(14) = {11, 47};
Line(15) = {47, 8};
Line(16) = {8, 5};
Line Loop(2) = {5, 6, 7, 8, 9, 10, 11, 12, 13, 14, 15, 16};

Line(17) = {13, 14};
Line(18) = {14, 15};
Line(19) = {15, 16};
Line(20) = {16, 13};
Line Loop(3) = {17, 18, 19, 20};

Line(21) = {41, 51};
Line(22) = {51, 50}; // to be doubled
Line(23) = {50, 44};
Line(24) = {44, 41};
Line Loop(4) = {21, 22, 23, 24};

Line(25) = {52, 53};
Line(26) = {53, 57};
Line(27) = {57, 60}; // to be doubled
Line(28) = {60, 54};
Line(29) = {54, 42};
Line(30) = {42, 43};
Line(31) = {43, 55};
Line(32) = {55, 36};
Line(33) = {36, 33};
Line(34) = {33, 56};
Line(35) = {56, 49};
Line(36) = {49, 52}; // to be doubled
Line Loop(5) = {25, 26, 27, 28, 29, 30, 31, 32, 33, 34, 35, 36};

Line(37) = {58, 34};
Line(38) = {34, 35};
Line(39) = {35, 59};
Line(40) = {59, 58}; // to be doubled
Line Loop(6) = {37, 38, 39, 40};

Line(41) = {29, 61};
Line(42) = {61, 62}; // to be doubled
Line(43) = {62, 32};
Line(44) = {32, 29};
Line Loop(7) = {41, 42, 43, 44};

Line(45) = {64, 30};
Line(46) = {30, 31};
Line(47) = {31, 63};
Line(48) = {63, 64}; // to be doubled
Line Loop(8) = {45, 46, 47, 48};

// Line(49) = {25, 65};
// Line(50) = {65, 66}; // to be doubled
// Line(51) = {66, 28};
// Line(52) = {28, 25};
// Line Loop(9) = {49, 50, 51, 52};

// Line(53) = {68, 26};
// Line(54) = {26, 27};
// Line(55) = {27, 67};
// Line(56) = {67, 68}; // to be doubled
// Line Loop(10) = {53, 54, 55, 56};

Line(49) = {25, 26};
Line(50) = {26, 65};
Line(51) = {65, 22}; // to be doubled
Line(52) = {22, 66}; // to be doubled
Line(53) = {66, 28};
Line(54) = {28, 25};
Line Loop(9) = {49, 50, 51, 52, 53, 54};


Line(57) = {37, 38};
Line(58) = {38, 39};
Line(59) = {39, 40};
Line(60) = {40, 37};
Line Loop(11) = {57, 58, 59, 60};

// impermeable parts:
Line(61) = {50, 49}; // to be doubled
Line(62) = {49, 20};
Line(63) = {20, 17};
Line(64) = {17, 50};
Line Loop(12) = {61, 62, 63, 64};

Line(65) = {18, 19};
Line(66) = {19, 52};
Line(67) = {52, 51}; // to be doubled
Line(68) = {51, 18};
Line Loop(13) = {65, 66, 67, 68};

Line(69) = {60, 59}; // to be doubled
Line(70) = {59, 24};
Line(71) = {24, 21};
Line(72) = {21, 60};
Line Loop(14) = {69, 70, 71, 72};

Line(73) = {62, 63}; // to be doubled
Line(74) = {63, 58};
Line(75) = {58, 57}; // to be doubled
Line(76) = {57, 62};
Line Loop(15) = {73, 74, 75, 76};

// Line(77) = {66, 67}; // to be doubled
// Line(78) = {67, 64};
// Line(79) = {64, 61}; // to be doubled
// Line(80) = {61, 66};
// Line Loop(16) = {77, 78, 79, 80};

// Line(81) = {22, 23};
// Line(82) = {23, 68};
// Line(83) = {68, 65}; // to be doubled
// Line(84) = {65, 22};
// Line Loop(17) = {81, 82, 83, 84};

Line(77) = {66, 27}; // to be doubled
Line(78) = {27, 65}; // to be doubled
Line(79) = {65, 23};
Line(80) = {23, 64};
Line(81) = {64, 61}; // to be doubled
Line(82) = {61, 66};
Line Loop(16) = {77, 78, 79, 80, 81, 82};

// crossings of permeable and impermeable fractures:
Line Loop(18) = {-67, -36, -61, -22};
Line Loop(19) = {-75, -40, -69, -27};
// Line Loop(20) = {-79, -48, -73, -42};
// Line Loop(21) = {-83, -56, -77, -50};
Line Loop(20) = {-81, -48, -73, -42};
Line Loop(21) = {-51, -78, -77, -52};

// Plane Surface(1) = {1, 2, 3, 4, 5, 6, 7, 8, 9, 10, 11, 12, 13, 14, 15, 16, 17, 18, 19, 20, 21};
Plane Surface(1) = {1, 2, 3, 4, 5, 6, 7, 8, 9, 11, 12, 13, 14, 15, 16, 18, 19, 20, 21};
Plane Surface(2) = {2};
Plane Surface(3) = {3};
Plane Surface(4) = {4};
Plane Surface(5) = {5};
Plane Surface(6) = {6};
Plane Surface(7) = {7};
Plane Surface(8) = {8};
Plane Surface(9) = {9};
// Plane Surface(10) = {10};
Plane Surface(11) = {11};
Plane Surface(12) = {12};
Plane Surface(13) = {13};
Plane Surface(14) = {14};
Plane Surface(15) = {15};
Plane Surface(16) = {16};
// Plane Surface(17) = {17};
Plane Surface(18) = {18};
Plane Surface(19) = {19};
Plane Surface(20) = {20};
Plane Surface(21) = {21};

// Field[1] = Attractor;
// Field[1].NNodesByEdge = 100;
// // Field[1].EdgesList = {5,6,7,8,9,10,11,12,13,14,15,16,17,18,19,20,21,22,23,24,25,26,27,28,29,30,31,32,33,34,35,36,37,38,39,40,41,42,43,44,45,46,47,48,49,50,51,52,53,54,55,56,57,58,59,60,61,62,63,64,65,66,67,68,69,70,71,72,73,74,75,76,77,78,79,80,81,82,83,84};
// Field[1].EdgesList = {5,6,7,8,9,10,11,12,13,14,15,16,17,18,19,20,21,22,23,24,25,26,27,28,29,30,31,32,33,34,35,36,37,38,39,40,41,42,43,44,45,46,47,48,49,50,51,52,53,54,57,58,59,60,61,62,63,64,65,66,67,68,69,70,71,72,73,74,75,76,77,78,79,80,81,82};

// Field[2] = Threshold;
// Field[2].IField = 1;
// Field[2].LcMin = lcf;
// Field[2].LcMax = lc;
// Field[2].DistMin = 2e-4;
// Field[2].DistMax = 1e-2;

// Background Field = 2;

Physical Surface(0) = {1}; // matrix
// Physical Surface(1) = {2, 3, 4, 5, 6, 7, 8, 9, 10, 11}; // permeable
// Physical Surface(2) = {12, 13, 14, 15, 16, 17}; // impermeable
Physical Surface(1) = {2, 3, 4, 5, 6, 7, 8, 9, 11}; // permeable
Physical Surface(2) = {12, 13, 14, 15, 16}; // impermeable
Physical Surface(3) = {18, 19, 20, 21}; // crossings

//Mesh.Binary = 1;
Mesh.Algorithm = 8;
// Recombine Surface "*";
