# vtk DataFile Version 2.0
Unstructured Grid Example
ASCII
DATASET UNSTRUCTURED_GRID
POINTS 63 float
1000.000000 -1000.000000 0.000000 
1016.017000 -911.906000 0.000000 
1029.965000 -835.184000 0.000000 
1042.113000 -768.367000 0.000000 
1052.693000 -710.176000 0.000000 
1061.907000 -659.497000 0.000000 
1069.932000 -615.361000 0.000000 
1076.920000 -576.923000 0.000000 
400.000000 100.000000 0.000000 
426.035000 73.964000 0.000000 
452.071000 47.929000 0.000000 
478.106000 21.893000 0.000000 
504.142000 -4.142000 0.000000 
530.177000 -30.178000 0.000000 
556.212000 -56.213000 0.000000 
582.248000 -82.249000 0.000000 
608.283000 -108.284000 0.000000 
634.318000 -134.320000 0.000000 
660.354000 -160.355000 0.000000 
686.389000 -186.391000 0.000000 
712.425000 -212.426000 0.000000 
738.460000 -238.462000 0.000000 
764.495000 -264.497000 0.000000 
790.531000 -290.533000 0.000000 
816.566000 -316.568000 0.000000 
842.602000 -342.604000 0.000000 
868.637000 -368.639000 0.000000 
894.672000 -394.675000 0.000000 
920.708000 -420.710000 0.000000 
946.743000 -446.746000 0.000000 
972.778000 -472.781000 0.000000 
998.814000 -498.817000 0.000000 
1024.849000 -524.852000 0.000000 
1050.885000 -550.888000 0.000000 
1103.264000 -603.267000 0.000000 
1132.285000 -632.287000 0.000000 
1164.253000 -664.256000 0.000000 
1199.470000 -699.472000 0.000000 
1238.265000 -738.266000 0.000000 
1281.000000 -781.002000 0.000000 
1328.078000 -828.079000 0.000000 
1379.938000 -879.939000 0.000000 
1437.067000 -937.068000 0.000000 
1500.000000 -1000.000000 0.000000 
1083.398000 -541.295000 0.000000 
1089.876000 -505.668000 0.000000 
1096.354000 -470.040000 0.000000 
1102.832000 -434.413000 0.000000 
1109.309000 -398.785000 0.000000 
1115.787000 -363.158000 0.000000 
1122.265000 -327.530000 0.000000 
1128.743000 -291.903000 0.000000 
1135.221000 -256.275000 0.000000 
1141.699000 -220.648000 0.000000 
1148.177000 -185.020000 0.000000 
1154.655000 -149.393000 0.000000 
1161.133000 -113.765000 0.000000 
1167.611000 -78.138000 0.000000 
1174.088000 -42.510000 0.000000 
1180.566000 -6.883000 0.000000 
1187.044000 28.745000 0.000000 
1193.522000 64.372000 0.000000 
1200.000000 100.000000 0.000000 
CELLS 62 186
3  0 1 3 
1  2 3 2 
3  3 3 4 
3  4 5 3 
5  6 3 6 
7  3 8 9 
3  9 10 3 
10  11 3 11 
12  3 12 13 
3  13 14 3 
14  15 3 15 
16  3 16 17 
3  17 18 3 
18  19 3 19 
20  3 20 21 
3  21 22 3 
22  23 3 23 
24  3 24 25 
3  25 26 3 
26  27 3 27 
28  3 28 29 
3  29 30 3 
30  31 3 31 
32  3 32 33 
3  33 7 3 
7  34 3 34 
35  3 35 36 
3  36 37 3 
37  38 3 38 
39  3 39 40 
3  40 41 3 
41  42 3 42 
43  3 7 44 
3  44 45 3 
45  46 3 46 
47  3 47 48 
3  48 49 3 
49  50 3 50 
51  3 51 52 
3  52 53 3 
53  54 3 54 
55  3 55 56 
3  56 57 3 
57  58 3 58 
59  3 59 60 
3  60 61 3 
61  62 
2  59 60 
2  60 61 
2  61 62 
CELL_TYPES 62
2
2
2
2
2
2
2
2
2
2
2
2
2
2
2
2
2
2
2
2
2
2
2
2
2
2
2
2
2
2
2
2
2
2
2
2
2
2
2
2
2
2
2
2
2
2
2
2
2
2
2
2
2
2
2
2
2
2
2
2
2
2
CELL_DATA 62
SCALARS u float 1
LOOKUP_TABLE default
109.408287
109.383861
109.344241
109.295814
109.242574
109.187249
109.131699
101.191664
103.290850
105.037620
106.493536
107.697956
108.679327
109.461734
110.068350
110.520844
110.839383
111.043458
111.151688
111.181076
111.146763
111.062217
110.939401
110.788675
110.618746
110.436795
110.248783
110.059394
109.872233
109.689946
109.514349
109.346512
109.187170
109.129534
109.185394
109.244884
109.305029
109.362988
109.416063
109.461795
109.498207
109.524098
109.538455
109.012083
108.853068
108.682948
108.499967
108.301910
108.085944
107.848642
107.585865
107.292570
106.962685
106.589230
106.163823
105.676575
105.116040
104.468841
103.719288
102.849241
101.837106
100.655775
