"u","vtkValidPointMask","arc_length","Points:0","Points:1","Points:2"
1009364.0625,1,0,0,500,0
1009364.0625,1,0.699999988079071,0.699999988079071,500,0
1009364.0625,1,1.39999997615814,1.39999997615814,500,0
1009364.0625,1,2.09999990463257,2.09999990463257,500,0
1009364.0625,1,2.79999995231628,2.79999995231628,500,0
1009364.0625,1,3.5,3.5,500,0
1009364.0625,1,4.19999980926514,4.19999980926514,500,0
1009364.0625,1,4.90000009536743,4.90000009536743,500,0
1009364.0625,1,5.59999990463257,5.59999990463257,500,0
1009364.0625,1,6.30000019073486,6.30000019073486,500,0
992275.3125,1,7,7,500,0
992275.3125,1,7.69999980926514,7.69999980926514,500,0
992275.3125,1,8.39999961853027,8.39999961853027,500,0
992275.3125,1,9.10000038146973,9.10000038146973,500,0
992275.3125,1,9.80000019073486,9.80000019073486,500,0
992275.3125,1,10.5,10.5,500,0
992275.3125,1,11.1999998092651,11.1999998092651,500,0
992275.3125,1,11.8999996185303,11.8999996185303,500,0
992275.3125,1,12.6000003814697,12.6000003814697,500,0
992275.3125,1,13.3000001907349,13.3000001907349,500,0
992275.3125,1,14,14,500,0
992275.3125,1,14.6999998092651,14.6999998092651,500,0
980668.75,1,15.3999996185303,15.3999996185303,500,0
980668.75,1,16.1000003814697,16.1000003814697,500,0
980668.75,1,16.7999992370605,16.7999992370605,500,0
980668.75,1,17.5,17.5,500,0
980668.75,1,18.2000007629395,18.2000007629395,500,0
980668.75,1,18.8999996185303,18.8999996185303,500,0
980668.75,1,19.6000003814697,19.6000003814697,500,0
980668.75,1,20.2999992370605,20.2999992370605,500,0
980668.75,1,21,21,500,0
972379.5,1,21.7000007629395,21.7000007629395,500,0
972379.5,1,22.3999996185303,22.3999996185303,500,0
972379.5,1,23.1000003814697,23.1000003814697,500,0
972379.5,1,23.7999992370605,23.7999992370605,500,0
972379.5,1,24.5,24.5,500,0
972379.5,1,25.2000007629395,25.2000007629395,500,0
972379.5,1,25.8999996185303,25.8999996185303,500,0
972379.5,1,26.6000003814697,26.6000003814697,500,0
962433.75,1,27.2999992370605,27.2999992370605,500,0
962433.75,1,28,28,500,0
962433.75,1,28.7000007629395,28.7000007629395,500,0
962433.75,1,29.3999996185303,29.3999996185303,500,0
962433.75,1,30.1000003814697,30.1000003814697,500,0
962433.75,1,30.7999992370605,30.7999992370605,500,0
962433.75,1,31.5,31.5,500,0
962433.75,1,32.2000007629395,32.2000007629395,500,0
962433.75,1,32.9000015258789,32.9000015258789,500,0
962433.75,1,33.5999984741211,33.5999984741211,500,0
962433.75,1,34.2999992370605,34.2999992370605,500,0
962433.75,1,35,35,500,0
962433.75,1,35.7000007629395,35.7000007629395,500,0
962433.75,1,36.4000015258789,36.4000015258789,500,0
958041.9375,1,37.0999984741211,37.0999984741211,500,0
958041.9375,1,37.7999992370605,37.7999992370605,500,0
958041.9375,1,38.5,38.5,500,0
958041.9375,1,39.2000007629395,39.2000007629395,500,0
958041.9375,1,39.9000015258789,39.9000015258789,500,0
958041.9375,1,40.5999984741211,40.5999984741211,500,0
955738.875,1,41.2999992370605,41.2999992370605,500,0
955738.875,1,42,42,500,0
955738.875,1,42.7000007629395,42.7000007629395,500,0
955738.875,1,43.4000015258789,43.4000015258789,500,0
955738.875,1,44.0999984741211,44.0999984741211,500,0
955738.875,1,44.7999992370605,44.7999992370605,500,0
955738.875,1,45.5,45.5,500,0
955738.875,1,46.2000007629395,46.2000007629395,500,0
955738.875,1,46.9000015258789,46.9000015258789,500,0
954624,1,47.5999984741211,47.5999984741211,500,0
954624,1,48.2999992370605,48.2999992370605,500,0
954624,1,49,49,500,0
954624,1,49.7000007629395,49.7000007629395,500,0
954624,1,50.4000015258789,50.4000015258789,500,0
954624,1,51.0999984741211,51.0999984741211,500,0
954624,1,51.7999992370605,51.7999992370605,500,0
954624,1,52.5,52.5,500,0
954624,1,53.2000007629395,53.2000007629395,500,0
954624,1,53.9000015258789,53.9000015258789,500,0
954624,1,54.5999984741211,54.5999984741211,500,0
954624,1,55.2999992370605,55.2999992370605,500,0
954624,1,56,56,500,0
954624,1,56.7000007629395,56.7000007629395,500,0
953892.4375,1,57.4000015258789,57.4000015258789,500,0
953892.4375,1,58.0999984741211,58.0999984741211,500,0
953892.4375,1,58.7999992370605,58.7999992370605,500,0
953892.4375,1,59.5,59.5,500,0
953892.4375,1,60.2000007629395,60.2000007629395,500,0
953892.4375,1,60.9000015258789,60.9000015258789,500,0
953892.4375,1,61.5999984741211,61.5999984741211,500,0
953892.4375,1,62.2999992370605,62.2999992370605,500,0
953892.4375,1,63,63,500,0
953892.4375,1,63.7000007629395,63.7000007629395,500,0
953892.4375,1,64.4000015258789,64.4000015258789,500,0
953165.4375,1,65.0999984741211,65.0999984741211,500,0
953165.4375,1,65.8000030517578,65.8000030517578,500,0
953165.4375,1,66.5,66.5,500,0
953165.4375,1,67.1999969482422,67.1999969482422,500,0
953165.4375,1,67.9000015258789,67.9000015258789,500,0
953165.4375,1,68.5999984741211,68.5999984741211,500,0
953165.4375,1,69.3000030517578,69.3000030517578,500,0
953165.4375,1,70,70,500,0
953165.4375,1,70.6999969482422,70.6999969482422,500,0
953165.4375,1,71.4000015258789,71.4000015258789,500,0
953165.4375,1,72.0999984741211,72.0999984741211,500,0
953165.4375,1,72.8000030517578,72.8000030517578,500,0
953165.4375,1,73.5,73.5,500,0
952515,1,74.1999969482422,74.1999969482422,500,0
952515,1,74.9000015258789,74.9000015258789,500,0
952515,1,75.5999984741211,75.5999984741211,500,0
952515,1,76.3000030517578,76.3000030517578,500,0
952515,1,77,77,500,0
952515,1,77.6999969482422,77.6999969482422,500,0
952515,1,78.4000015258789,78.4000015258789,500,0
952515,1,79.0999984741211,79.0999984741211,500,0
952515,1,79.8000030517578,79.8000030517578,500,0
952515,1,80.5,80.5,500,0
952515,1,81.1999969482422,81.1999969482422,500,0
952515,1,81.9000015258789,81.9000015258789,500,0
952515,1,82.5999984741211,82.5999984741211,500,0
952515,1,83.3000030517578,83.3000030517578,500,0
952515,1,84,84,500,0
952515,1,84.6999969482422,84.6999969482422,500,0
952515,1,85.4000015258789,85.4000015258789,500,0
952515,1,86.0999984741211,86.0999984741211,500,0
952515,1,86.8000030517578,86.8000030517578,500,0
952515,1,87.5,87.5,500,0
952771.75,1,88.1999969482422,88.1999969482422,500,0
952771.75,1,88.9000015258789,88.9000015258789,500,0
952771.75,1,89.5999984741211,89.5999984741211,500,0
952771.75,1,90.3000030517578,90.3000030517578,500,0
952771.75,1,91,91,500,0
952771.75,1,91.6999969482422,91.6999969482422,500,0
951993.5625,1,92.4000015258789,92.4000015258789,500,0
951993.5625,1,93.0999984741211,93.0999984741211,500,0
951993.5625,1,93.8000030517578,93.8000030517578,500,0
951410.875,1,94.5,94.5,500,0
951410.875,1,95.1999969482422,95.1999969482422,500,0
951410.875,1,95.9000015258789,95.9000015258789,500,0
951410.875,1,96.5999984741211,96.5999984741211,500,0
951410.875,1,97.3000030517578,97.3000030517578,500,0
951410.875,1,98,98,500,0
951410.875,1,98.6999969482422,98.6999969482422,500,0
951410.875,1,99.4000015258789,99.4000015258789,500,0
951410.875,1,100.099998474121,100.099998474121,500,0
951410.875,1,100.800003051758,100.800003051758,500,0
951410.875,1,101.5,101.5,500,0
951410.875,1,102.199996948242,102.199996948242,500,0
951410.875,1,102.900001525879,102.900001525879,500,0
951410.875,1,103.599998474121,103.599998474121,500,0
951410.875,1,104.300003051758,104.300003051758,500,0
951410.875,1,105,105,500,0
951410.875,1,105.699996948242,105.699996948242,500,0
951410.875,1,106.400001525879,106.400001525879,500,0
951410.875,1,107.099998474121,107.099998474121,500,0
951410.875,1,107.800003051758,107.800003051758,500,0
950750.4375,1,108.5,108.5,500,0
950750.4375,1,109.199996948242,109.199996948242,500,0
950750.4375,1,109.900001525879,109.900001525879,500,0
950750.4375,1,110.599998474121,110.599998474121,500,0
950750.4375,1,111.300003051758,111.300003051758,500,0
950750.4375,1,112,112,500,0
950750.4375,1,112.699996948242,112.699996948242,500,0
950750.4375,1,113.400001525879,113.400001525879,500,0
950750.4375,1,114.099998474121,114.099998474121,500,0
950750.4375,1,114.800003051758,114.800003051758,500,0
950750.4375,1,115.5,115.5,500,0
950652,1,116.199996948242,116.199996948242,500,0
950652,1,116.900001525879,116.900001525879,500,0
950652,1,117.599998474121,117.599998474121,500,0
950652,1,118.300003051758,118.300003051758,500,0
950652,1,119,119,500,0
950652,1,119.699996948242,119.699996948242,500,0
950652,1,120.400001525879,120.400001525879,500,0
949713.5,1,121.099998474121,121.099998474121,500,0
949713.5,1,121.800003051758,121.800003051758,500,0
949713.5,1,122.5,122.5,500,0
949713.5,1,123.199996948242,123.199996948242,500,0
949713.5,1,123.900001525879,123.900001525879,500,0
949713.5,1,124.599998474121,124.599998474121,500,0
949713.5,1,125.300003051758,125.300003051758,500,0
949713.5,1,126,126,500,0
949713.5,1,126.699996948242,126.699996948242,500,0
949713.5,1,127.400001525879,127.400001525879,500,0
949713.5,1,128.100006103516,128.100006103516,500,0
949713.5,1,128.800003051758,128.800003051758,500,0
949713.5,1,129.5,129.5,500,0
949713.5,1,130.199996948242,130.199996948242,500,0
949713.5,1,130.899993896484,130.899993896484,500,0
949713.5,1,131.600006103516,131.600006103516,500,0
949256.8125,1,132.300003051758,132.300003051758,500,0
949256.8125,1,133,133,500,0
949256.8125,1,133.699996948242,133.699996948242,500,0
949256.8125,1,134.399993896484,134.399993896484,500,0
949256.8125,1,135.100006103516,135.100006103516,500,0
949256.8125,1,135.800003051758,135.800003051758,500,0
949256.8125,1,136.5,136.5,500,0
948212.875,1,137.199996948242,137.199996948242,500,0
948212.875,1,137.899993896484,137.899993896484,500,0
948212.875,1,138.600006103516,138.600006103516,500,0
948212.875,1,139.300003051758,139.300003051758,500,0
948212.875,1,140,140,500,0
948212.875,1,140.699996948242,140.699996948242,500,0
948212.875,1,141.399993896484,141.399993896484,500,0
948212.875,1,142.100006103516,142.100006103516,500,0
948212.875,1,142.800003051758,142.800003051758,500,0
948212.875,1,143.5,143.5,500,0
948212.875,1,144.199996948242,144.199996948242,500,0
948212.875,1,144.899993896484,144.899993896484,500,0
947629.375,1,145.600006103516,145.600006103516,500,0
947629.375,1,146.300003051758,146.300003051758,500,0
947629.375,1,147,147,500,0
947629.375,1,147.699996948242,147.699996948242,500,0
947629.375,1,148.399993896484,148.399993896484,500,0
947629.375,1,149.100006103516,149.100006103516,500,0
947629.375,1,149.800003051758,149.800003051758,500,0
947629.375,1,150.5,150.5,500,0
947629.375,1,151.199996948242,151.199996948242,500,0
947629.375,1,151.899993896484,151.899993896484,500,0
947629.375,1,152.600006103516,152.600006103516,500,0
947629.375,1,153.300003051758,153.300003051758,500,0
946358.625,1,154,154,500,0
946358.625,1,154.699996948242,154.699996948242,500,0
946358.625,1,155.399993896484,155.399993896484,500,0
946358.625,1,156.100006103516,156.100006103516,500,0
946358.625,1,156.800003051758,156.800003051758,500,0
944959.5625,1,157.5,157.5,500,0
944959.5625,1,158.199996948242,158.199996948242,500,0
944959.5625,1,158.899993896484,158.899993896484,500,0
944959.5625,1,159.600006103516,159.600006103516,500,0
944959.5625,1,160.300003051758,160.300003051758,500,0
944959.5625,1,161,161,500,0
944959.5625,1,161.699996948242,161.699996948242,500,0
944959.5625,1,162.399993896484,162.399993896484,500,0
944959.5625,1,163.100006103516,163.100006103516,500,0
944959.5625,1,163.800003051758,163.800003051758,500,0
944959.5625,1,164.5,164.5,500,0
944959.5625,1,165.199996948242,165.199996948242,500,0
944959.5625,1,165.899993896484,165.899993896484,500,0
944959.5625,1,166.600006103516,166.600006103516,500,0
944959.5625,1,167.300003051758,167.300003051758,500,0
944959.5625,1,168,168,500,0
944959.5625,1,168.699996948242,168.699996948242,500,0
944959.5625,1,169.399993896484,169.399993896484,500,0
944959.5625,1,170.100006103516,170.100006103516,500,0
944959.5625,1,170.800003051758,170.800003051758,500,0
944959.5625,1,171.5,171.5,500,0
944959.5625,1,172.199996948242,172.199996948242,500,0
944959.5625,1,172.899993896484,172.899993896484,500,0
944959.5625,1,173.600006103516,173.600006103516,500,0
944959.5625,1,174.300003051758,174.300003051758,500,0
944005.3125,1,175,175,500,0
944005.3125,1,175.699996948242,175.699996948242,500,0
944005.3125,1,176.399993896484,176.399993896484,500,0
944005.3125,1,177.100006103516,177.100006103516,500,0
944005.3125,1,177.800003051758,177.800003051758,500,0
944005.3125,1,178.5,178.5,500,0
941347.0625,1,179.199996948242,179.199996948242,500,0
941347.0625,1,179.899993896484,179.899993896484,500,0
941347.0625,1,180.600006103516,180.600006103516,500,0
940650.875,1,181.300003051758,181.300003051758,500,0
940650.875,1,182,182,500,0
940650.875,1,182.699996948242,182.699996948242,500,0
940650.875,1,183.399993896484,183.399993896484,500,0
940650.875,1,184.100006103516,184.100006103516,500,0
940650.875,1,184.800003051758,184.800003051758,500,0
935983.1875,1,185.5,185.5,500,0
935983.1875,1,186.199996948242,186.199996948242,500,0
935983.1875,1,186.899993896484,186.899993896484,500,0
935983.1875,1,187.600006103516,187.600006103516,500,0
935983.1875,1,188.300003051758,188.300003051758,500,0
935983.1875,1,189,189,500,0
935983.1875,1,189.699996948242,189.699996948242,500,0
935983.1875,1,190.399993896484,190.399993896484,500,0
935983.1875,1,191.100006103516,191.100006103516,500,0
935983.1875,1,191.800003051758,191.800003051758,500,0
935983.1875,1,192.5,192.5,500,0
935983.1875,1,193.199996948242,193.199996948242,500,0
935983.1875,1,193.899993896484,193.899993896484,500,0
935983.1875,1,194.600006103516,194.600006103516,500,0
935983.1875,1,195.300003051758,195.300003051758,500,0
935983.1875,1,196,196,500,0
935983.1875,1,196.699996948242,196.699996948242,500,0
935983.1875,1,197.399993896484,197.399993896484,500,0
935983.1875,1,198.100006103516,198.100006103516,500,0
935983.1875,1,198.800003051758,198.800003051758,500,0
935983.1875,1,199.5,199.5,500,0
930429.1875,1,200.199996948242,200.199996948242,500,0
930429.1875,1,200.899993896484,200.899993896484,500,0
930429.1875,1,201.600006103516,201.600006103516,500,0
930429.1875,1,202.300003051758,202.300003051758,500,0
930429.1875,1,203,203,500,0
930429.1875,1,203.699996948242,203.699996948242,500,0
930429.1875,1,204.399993896484,204.399993896484,500,0
930429.1875,1,205.100006103516,205.100006103516,500,0
930429.1875,1,205.800003051758,205.800003051758,500,0
930429.1875,1,206.5,206.5,500,0
930429.1875,1,207.199996948242,207.199996948242,500,0
930429.1875,1,207.899993896484,207.899993896484,500,0
930429.1875,1,208.600006103516,208.600006103516,500,0
930429.1875,1,209.300003051758,209.300003051758,500,0
930429.1875,1,210,210,500,0
930429.1875,1,210.699996948242,210.699996948242,500,0
930429.1875,1,211.399993896484,211.399993896484,500,0
930429.1875,1,212.100006103516,212.100006103516,500,0
930429.1875,1,212.800003051758,212.800003051758,500,0
930429.1875,1,213.5,213.5,500,0
930429.1875,1,214.199996948242,214.199996948242,500,0
926645.125,1,214.899993896484,214.899993896484,500,0
926645.125,1,215.600006103516,215.600006103516,500,0
926645.125,1,216.300003051758,216.300003051758,500,0
926645.125,1,217,217,500,0
926645.125,1,217.699996948242,217.699996948242,500,0
926645.125,1,218.399993896484,218.399993896484,500,0
926645.125,1,219.100006103516,219.100006103516,500,0
926645.125,1,219.800003051758,219.800003051758,500,0
926645.125,1,220.5,220.5,500,0
928027.125,1,221.199996948242,221.199996948242,500,0
928027.125,1,221.899993896484,221.899993896484,500,0
928027.125,1,222.600006103516,222.600006103516,500,0
928027.125,1,223.300003051758,223.300003051758,500,0
928027.125,1,224,224,500,0
928027.125,1,224.699996948242,224.699996948242,500,0
928027.125,1,225.399993896484,225.399993896484,500,0
928027.125,1,226.100006103516,226.100006103516,500,0
928027.125,1,226.800003051758,226.800003051758,500,0
928027.125,1,227.5,227.5,500,0
928027.125,1,228.199996948242,228.199996948242,500,0
929549.9375,1,228.899993896484,228.899993896484,500,0
929549.9375,1,229.600006103516,229.600006103516,500,0
929549.9375,1,230.300003051758,230.300003051758,500,0
929549.9375,1,231,231,500,0
929549.9375,1,231.699996948242,231.699996948242,500,0
929549.9375,1,232.399993896484,232.399993896484,500,0
929549.9375,1,233.100006103516,233.100006103516,500,0
929549.9375,1,233.800003051758,233.800003051758,500,0
929549.9375,1,234.5,234.5,500,0
929549.9375,1,235.199996948242,235.199996948242,500,0
928366.875,1,235.899993896484,235.899993896484,500,0
928366.875,1,236.600006103516,236.600006103516,500,0
928366.875,1,237.300003051758,237.300003051758,500,0
928366.875,1,238,238,500,0
928366.875,1,238.699996948242,238.699996948242,500,0
928366.875,1,239.399993896484,239.399993896484,500,0
930800.1875,1,240.100006103516,240.100006103516,500,0
930800.1875,1,240.800003051758,240.800003051758,500,0
930800.1875,1,241.5,241.5,500,0
930800.1875,1,242.199996948242,242.199996948242,500,0
930800.1875,1,242.899993896484,242.899993896484,500,0
930800.1875,1,243.600006103516,243.600006103516,500,0
934042.375,1,244.300003051758,244.300003051758,500,0
934042.375,1,245,245,500,0
934042.375,1,245.699996948242,245.699996948242,500,0
934042.375,1,246.399993896484,246.399993896484,500,0
934042.375,1,247.100006103516,247.100006103516,500,0
934042.375,1,247.800003051758,247.800003051758,500,0
935842.9375,1,248.5,248.5,500,0
935842.9375,1,249.199996948242,249.199996948242,500,0
935842.9375,1,249.899993896484,249.899993896484,500,0
935842.9375,1,250.600006103516,250.600006103516,500,0
935842.9375,1,251.300003051758,251.300003051758,500,0
935842.9375,1,252,252,500,0
935842.9375,1,252.699996948242,252.699996948242,500,0
935842.9375,1,253.399993896484,253.399993896484,500,0
935842.9375,1,254.100006103516,254.100006103516,500,0
935842.9375,1,254.800003051758,254.800003051758,500,0
938314.25,1,255.5,255.5,500,0
938314.25,1,256.200012207031,256.200012207031,500,0
938314.25,1,256.899993896484,256.899993896484,500,0
939415.125,1,257.600006103516,257.600006103516,500,0
939415.125,1,258.299987792969,258.299987792969,500,0
939264.9375,1,259,259,500,0
939264.9375,1,259.700012207031,259.700012207031,500,0
939264.9375,1,260.399993896484,260.399993896484,500,0
939264.9375,1,261.100006103516,261.100006103516,500,0
939264.9375,1,261.799987792969,261.799987792969,500,0
939264.9375,1,262.5,262.5,500,0
939315.75,1,263.200012207031,263.200012207031,500,0
939315.75,1,263.899993896484,263.899993896484,500,0
939319.1875,1,264.600006103516,264.600006103516,500,0
939319.1875,1,265.299987792969,265.299987792969,500,0
939306.9375,1,266,266,500,0
939306.9375,1,266.700012207031,266.700012207031,500,0
939274.6875,1,267.399993896484,267.399993896484,500,0
939274.6875,1,268.100006103516,268.100006103516,500,0
939288.25,1,268.799987792969,268.799987792969,500,0
939288.25,1,269.5,269.5,500,0
939272.875,1,270.200012207031,270.200012207031,500,0
937317.0625,1,270.899993896484,270.899993896484,500,0
937317.0625,1,271.600006103516,271.600006103516,500,0
937317.0625,1,272.299987792969,272.299987792969,500,0
935376.5625,1,273,273,500,0
935376.5625,1,273.700012207031,273.700012207031,500,0
935376.5625,1,274.399993896484,274.399993896484,500,0
932399.1875,1,275.100006103516,275.100006103516,500,0
929191.75,1,275.799987792969,275.799987792969,500,0
929191.75,1,276.5,276.5,500,0
929191.75,1,277.200012207031,277.200012207031,500,0
929191.75,1,277.899993896484,277.899993896484,500,0
929191.75,1,278.600006103516,278.600006103516,500,0
929191.75,1,279.299987792969,279.299987792969,500,0
927507.6875,1,280,280,500,0
921508.125,1,280.700012207031,280.700012207031,500,0
921508.125,1,281.399993896484,281.399993896484,500,0
921508.125,1,282.100006103516,282.100006103516,500,0
921508.125,1,282.799987792969,282.799987792969,500,0
921508.125,1,283.5,283.5,500,0
921508.125,1,284.200012207031,284.200012207031,500,0
921508.125,1,284.899993896484,284.899993896484,500,0
917345.5,1,285.600006103516,285.600006103516,500,0
917345.5,1,286.299987792969,286.299987792969,500,0
917345.5,1,287,287,500,0
913395.625,1,287.700012207031,287.700012207031,500,0
913395.625,1,288.399993896484,288.399993896484,500,0
913395.625,1,289.100006103516,289.100006103516,500,0
913395.625,1,289.799987792969,289.799987792969,500,0
913395.625,1,290.5,290.5,500,0
913395.625,1,291.200012207031,291.200012207031,500,0
913395.625,1,291.899993896484,291.899993896484,500,0
913395.625,1,292.600006103516,292.600006103516,500,0
911089.375,1,293.299987792969,293.299987792969,500,0
905796.3125,1,294,294,500,0
903553.25,1,294.700012207031,294.700012207031,500,0
903553.25,1,295.399993896484,295.399993896484,500,0
903553.25,1,296.100006103516,296.100006103516,500,0
903553.25,1,296.799987792969,296.799987792969,500,0
903553.25,1,297.5,297.5,500,0
903553.25,1,298.200012207031,298.200012207031,500,0
903553.25,1,298.899993896484,298.899993896484,500,0
903553.25,1,299.600006103516,299.600006103516,500,0
903553.25,1,300.299987792969,300.299987792969,500,0
899387.4375,1,301,301,500,0
899387.4375,1,301.700012207031,301.700012207031,500,0
899387.4375,1,302.399993896484,302.399993896484,500,0
899387.4375,1,303.100006103516,303.100006103516,500,0
899387.4375,1,303.799987792969,303.799987792969,500,0
895815.75,1,304.5,304.5,500,0
895815.75,1,305.200012207031,305.200012207031,500,0
895815.75,1,305.899993896484,305.899993896484,500,0
891292.75,1,306.600006103516,306.600006103516,500,0
891292.75,1,307.299987792969,307.299987792969,500,0
891292.75,1,308,308,500,0
891292.75,1,308.700012207031,308.700012207031,500,0
891292.75,1,309.399993896484,309.399993896484,500,0
891292.75,1,310.100006103516,310.100006103516,500,0
891292.75,1,310.799987792969,310.799987792969,500,0
886668.1875,1,311.5,311.5,500,0
886668.1875,1,312.200012207031,312.200012207031,500,0
886668.1875,1,312.899993896484,312.899993896484,500,0
886668.1875,1,313.600006103516,313.600006103516,500,0
886668.1875,1,314.299987792969,314.299987792969,500,0
886668.1875,1,315,315,500,0
886668.1875,1,315.700012207031,315.700012207031,500,0
886668.1875,1,316.399993896484,316.399993896484,500,0
883348.6875,1,317.100006103516,317.100006103516,500,0
883348.6875,1,317.799987792969,317.799987792969,500,0
877733.8125,1,318.5,318.5,500,0
877733.8125,1,319.200012207031,319.200012207031,500,0
877733.8125,1,319.899993896484,319.899993896484,500,0
874976.1875,1,320.600006103516,320.600006103516,500,0
874976.1875,1,321.299987792969,321.299987792969,500,0
874976.1875,1,322,322,500,0
874976.1875,1,322.700012207031,322.700012207031,500,0
874976.1875,1,323.399993896484,323.399993896484,500,0
874976.1875,1,324.100006103516,324.100006103516,500,0
874976.1875,1,324.799987792969,324.799987792969,500,0
874976.1875,1,325.5,325.5,500,0
874976.1875,1,326.200012207031,326.200012207031,500,0
874976.1875,1,326.899993896484,326.899993896484,500,0
868322.8125,1,327.600006103516,327.600006103516,500,0
868322.8125,1,328.299987792969,328.299987792969,500,0
868322.8125,1,329,329,500,0
868322.8125,1,329.700012207031,329.700012207031,500,0
868322.8125,1,330.399993896484,330.399993896484,500,0
868322.8125,1,331.100006103516,331.100006103516,500,0
868322.8125,1,331.799987792969,331.799987792969,500,0
868322.8125,1,332.5,332.5,500,0
868322.8125,1,333.200012207031,333.200012207031,500,0
868322.8125,1,333.899993896484,333.899993896484,500,0
868322.8125,1,334.600006103516,334.600006103516,500,0
863026.1875,1,335.299987792969,335.299987792969,500,0
863026.1875,1,336,336,500,0
863026.1875,1,336.700012207031,336.700012207031,500,0
855414,1,337.399993896484,337.399993896484,500,0
855414,1,338.100006103516,338.100006103516,500,0
855414,1,338.799987792969,338.799987792969,500,0
855414,1,339.5,339.5,500,0
855414,1,340.200012207031,340.200012207031,500,0
855414,1,340.899993896484,340.899993896484,500,0
855414,1,341.600006103516,341.600006103516,500,0
855414,1,342.299987792969,342.299987792969,500,0
855414,1,343,343,500,0
855414,1,343.700012207031,343.700012207031,500,0
855414,1,344.399993896484,344.399993896484,500,0
850630.8125,1,345.100006103516,345.100006103516,500,0
850630.8125,1,345.799987792969,345.799987792969,500,0
850630.8125,1,346.5,346.5,500,0
850630.8125,1,347.200012207031,347.200012207031,500,0
850630.8125,1,347.899993896484,347.899993896484,500,0
850630.8125,1,348.600006103516,348.600006103516,500,0
850630.8125,1,349.299987792969,349.299987792969,500,0
850630.8125,1,350,350,500,0
848029.875,1,350.700012207031,350.700012207031,500,0
848029.875,1,351.399993896484,351.399993896484,500,0
848029.875,1,352.100006103516,352.100006103516,500,0
848029.875,1,352.799987792969,352.799987792969,500,0
848029.875,1,353.5,353.5,500,0
848029.875,1,354.200012207031,354.200012207031,500,0
848029.875,1,354.899993896484,354.899993896484,500,0
846105.0625,1,355.600006103516,355.600006103516,500,0
846105.0625,1,356.299987792969,356.299987792969,500,0
846105.0625,1,357,357,500,0
846105.0625,1,357.700012207031,357.700012207031,500,0
846105.0625,1,358.399993896484,358.399993896484,500,0
846105.0625,1,359.100006103516,359.100006103516,500,0
846105.0625,1,359.799987792969,359.799987792969,500,0
846105.0625,1,360.5,360.5,500,0
846105.0625,1,361.200012207031,361.200012207031,500,0
846553.5625,1,361.899993896484,361.899993896484,500,0
846553.5625,1,362.600006103516,362.600006103516,500,0
846553.5625,1,363.299987792969,363.299987792969,500,0
846553.5625,1,364,364,500,0
846553.5625,1,364.700012207031,364.700012207031,500,0
846553.5625,1,365.399993896484,365.399993896484,500,0
844361.8125,1,366.100006103516,366.100006103516,500,0
844361.8125,1,366.799987792969,366.799987792969,500,0
844361.8125,1,367.5,367.5,500,0
844361.8125,1,368.200012207031,368.200012207031,500,0
844361.8125,1,368.899993896484,368.899993896484,500,0
844361.8125,1,369.600006103516,369.600006103516,500,0
844361.8125,1,370.299987792969,370.299987792969,500,0
842219.25,1,371,371,500,0
842219.25,1,371.700012207031,371.700012207031,500,0
842219.25,1,372.399993896484,372.399993896484,500,0
842219.25,1,373.100006103516,373.100006103516,500,0
842219.25,1,373.799987792969,373.799987792969,500,0
840052.8125,1,374.5,374.5,500,0
840052.8125,1,375.200012207031,375.200012207031,500,0
840052.8125,1,375.899993896484,375.899993896484,500,0
840052.8125,1,376.600006103516,376.600006103516,500,0
840741.75,1,377.299987792969,377.299987792969,500,0
840741.75,1,378,378,500,0
840741.75,1,378.700012207031,378.700012207031,500,0
840741.75,1,379.399993896484,379.399993896484,500,0
840741.75,1,380.100006103516,380.100006103516,500,0
840741.75,1,380.799987792969,380.799987792969,500,0
840741.75,1,381.5,381.5,500,0
840741.75,1,382.200012207031,382.200012207031,500,0
840741.75,1,382.899993896484,382.899993896484,500,0
840741.75,1,383.600006103516,383.600006103516,500,0
840741.75,1,384.299987792969,384.299987792969,500,0
840741.75,1,385,385,500,0
839598.5625,1,385.700012207031,385.700012207031,500,0
839598.5625,1,386.399993896484,386.399993896484,500,0
839598.5625,1,387.100006103516,387.100006103516,500,0
839598.5625,1,387.799987792969,387.799987792969,500,0
839598.5625,1,388.5,388.5,500,0
839598.5625,1,389.200012207031,389.200012207031,500,0
836840.1875,1,389.899993896484,389.899993896484,500,0
836840.1875,1,390.600006103516,390.600006103516,500,0
836840.1875,1,391.299987792969,391.299987792969,500,0
836840.1875,1,392,392,500,0
836840.1875,1,392.700012207031,392.700012207031,500,0
836840.1875,1,393.399993896484,393.399993896484,500,0
836840.1875,1,394.100006103516,394.100006103516,500,0
836840.1875,1,394.799987792969,394.799987792969,500,0
836840.1875,1,395.5,395.5,500,0
836840.1875,1,396.200012207031,396.200012207031,500,0
836840.1875,1,396.899993896484,396.899993896484,500,0
836840.1875,1,397.600006103516,397.600006103516,500,0
836840.1875,1,398.299987792969,398.299987792969,500,0
835993.5625,1,399,399,500,0
835993.5625,1,399.700012207031,399.700012207031,500,0
835993.5625,1,400.399993896484,400.399993896484,500,0
835993.5625,1,401.100006103516,401.100006103516,500,0
835993.5625,1,401.799987792969,401.799987792969,500,0
835993.5625,1,402.5,402.5,500,0
834002,1,403.200012207031,403.200012207031,500,0
834002,1,403.899993896484,403.899993896484,500,0
832690.25,1,404.600006103516,404.600006103516,500,0
832690.25,1,405.299987792969,405.299987792969,500,0
832690.25,1,406,406,500,0
832746.8125,1,406.700012207031,406.700012207031,500,0
832746.8125,1,407.399993896484,407.399993896484,500,0
832746.8125,1,408.100006103516,408.100006103516,500,0
832746.8125,1,408.799987792969,408.799987792969,500,0
832746.8125,1,409.5,409.5,500,0
830654.75,1,410.200012207031,410.200012207031,500,0
830654.75,1,410.899993896484,410.899993896484,500,0
830654.75,1,411.600006103516,411.600006103516,500,0
830654.75,1,412.299987792969,412.299987792969,500,0
830654.75,1,413,413,500,0
829155.75,1,413.700012207031,413.700012207031,500,0
827040,1,414.399993896484,414.399993896484,500,0
827040,1,415.100006103516,415.100006103516,500,0
827040,1,415.799987792969,415.799987792969,500,0
827040,1,416.5,416.5,500,0
827040,1,417.200012207031,417.200012207031,500,0
825013.9375,1,417.899993896484,417.899993896484,500,0
825013.9375,1,418.600006103516,418.600006103516,500,0
825013.9375,1,419.299987792969,419.299987792969,500,0
825013.9375,1,420,420,500,0
825013.9375,1,420.700012207031,420.700012207031,500,0
825013.9375,1,421.399993896484,421.399993896484,500,0
822840.0625,1,422.100006103516,422.100006103516,500,0
822840.0625,1,422.799987792969,422.799987792969,500,0
822840.0625,1,423.5,423.5,500,0
822840.0625,1,424.200012207031,424.200012207031,500,0
822840.0625,1,424.899993896484,424.899993896484,500,0
822840.0625,1,425.600006103516,425.600006103516,500,0
821255.375,1,426.299987792969,426.299987792969,500,0
821255.375,1,427,427,500,0
821255.375,1,427.700012207031,427.700012207031,500,0
821255.375,1,428.399993896484,428.399993896484,500,0
821255.375,1,429.100006103516,429.100006103516,500,0
821255.375,1,429.799987792969,429.799987792969,500,0
818397.4375,1,430.5,430.5,500,0
818397.4375,1,431.200012207031,431.200012207031,500,0
818397.4375,1,431.899993896484,431.899993896484,500,0
818397.4375,1,432.600006103516,432.600006103516,500,0
818397.4375,1,433.299987792969,433.299987792969,500,0
818397.4375,1,434,434,500,0
818200,1,434.700012207031,434.700012207031,500,0
818200,1,435.399993896484,435.399993896484,500,0
818200,1,436.100006103516,436.100006103516,500,0
818200,1,436.799987792969,436.799987792969,500,0
818200,1,437.5,437.5,500,0
818200,1,438.200012207031,438.200012207031,500,0
817691.5625,1,438.899993896484,438.899993896484,500,0
817691.5625,1,439.600006103516,439.600006103516,500,0
817691.5625,1,440.299987792969,440.299987792969,500,0
817691.5625,1,441,441,500,0
817691.5625,1,441.700012207031,441.700012207031,500,0
816659.5,1,442.399993896484,442.399993896484,500,0
816659.5,1,443.100006103516,443.100006103516,500,0
816659.5,1,443.799987792969,443.799987792969,500,0
816659.5,1,444.5,444.5,500,0
816659.5,1,445.200012207031,445.200012207031,500,0
816659.5,1,445.899993896484,445.899993896484,500,0
816659.5,1,446.600006103516,446.600006103516,500,0
816659.5,1,447.299987792969,447.299987792969,500,0
816659.5,1,448,448,500,0
816659.5,1,448.700012207031,448.700012207031,500,0
814741.75,1,449.399993896484,449.399993896484,500,0
814741.75,1,450.100006103516,450.100006103516,500,0
814741.75,1,450.799987792969,450.799987792969,500,0
814741.75,1,451.5,451.5,500,0
814741.75,1,452.200012207031,452.200012207031,500,0
814741.75,1,452.899993896484,452.899993896484,500,0
814741.75,1,453.600006103516,453.600006103516,500,0
814741.75,1,454.299987792969,454.299987792969,500,0
814741.75,1,455,455,500,0
814741.75,1,455.700012207031,455.700012207031,500,0
814741.75,1,456.399993896484,456.399993896484,500,0
810459.5,1,457.100006103516,457.100006103516,500,0
810459.5,1,457.799987792969,457.799987792969,500,0
810459.5,1,458.5,458.5,500,0
810459.5,1,459.200012207031,459.200012207031,500,0
810459.5,1,459.899993896484,459.899993896484,500,0
810459.5,1,460.600006103516,460.600006103516,500,0
810459.5,1,461.299987792969,461.299987792969,500,0
810459.5,1,462,462,500,0
810459.5,1,462.700012207031,462.700012207031,500,0
810459.5,1,463.399993896484,463.399993896484,500,0
810459.5,1,464.100006103516,464.100006103516,500,0
810459.5,1,464.799987792969,464.799987792969,500,0
810459.5,1,465.5,465.5,500,0
810459.5,1,466.200012207031,466.200012207031,500,0
810459.5,1,466.899993896484,466.899993896484,500,0
810459.5,1,467.600006103516,467.600006103516,500,0
810459.5,1,468.299987792969,468.299987792969,500,0
810459.5,1,469,469,500,0
810459.5,1,469.700012207031,469.700012207031,500,0
804379.1875,1,470.399993896484,470.399993896484,500,0
804379.1875,1,471.100006103516,471.100006103516,500,0
804379.1875,1,471.799987792969,471.799987792969,500,0
804379.1875,1,472.5,472.5,500,0
804379.1875,1,473.200012207031,473.200012207031,500,0
804379.1875,1,473.899993896484,473.899993896484,500,0
804379.1875,1,474.600006103516,474.600006103516,500,0
804379.1875,1,475.299987792969,475.299987792969,500,0
804379.1875,1,476,476,500,0
804379.1875,1,476.700012207031,476.700012207031,500,0
804379.1875,1,477.399993896484,477.399993896484,500,0
804379.1875,1,478.100006103516,478.100006103516,500,0
804379.1875,1,478.799987792969,478.799987792969,500,0
804379.1875,1,479.5,479.5,500,0
804379.1875,1,480.200012207031,480.200012207031,500,0
804379.1875,1,480.899993896484,480.899993896484,500,0
804379.1875,1,481.600006103516,481.600006103516,500,0
804379.1875,1,482.299987792969,482.299987792969,500,0
801834.25,1,483,483,500,0
801834.25,1,483.700012207031,483.700012207031,500,0
801834.25,1,484.399993896484,484.399993896484,500,0
801834.25,1,485.100006103516,485.100006103516,500,0
801834.25,1,485.799987792969,485.799987792969,500,0
801834.25,1,486.5,486.5,500,0
801834.25,1,487.200012207031,487.200012207031,500,0
801834.25,1,487.899993896484,487.899993896484,500,0
801834.25,1,488.600006103516,488.600006103516,500,0
801834.25,1,489.299987792969,489.299987792969,500,0
795350.5,1,490,490,500,0
795350.5,1,490.700012207031,490.700012207031,500,0
795350.5,1,491.399993896484,491.399993896484,500,0
795350.5,1,492.100006103516,492.100006103516,500,0
795350.5,1,492.799987792969,492.799987792969,500,0
795350.5,1,493.5,493.5,500,0
795350.5,1,494.200012207031,494.200012207031,500,0
795350.5,1,494.899993896484,494.899993896484,500,0
747714.125,1,495.600006103516,495.600006103516,500,0
747714.125,1,496.299987792969,496.299987792969,500,0
747714.125,1,497,497,500,0
747714.125,1,497.700012207031,497.700012207031,500,0
747714.125,1,498.399993896484,498.399993896484,500,0
747714.125,1,499.100006103516,499.100006103516,500,0
747714.125,1,499.799987792969,499.799987792969,500,0
747714.125,1,500.5,500.5,500,0
747714.125,1,501.200012207031,501.200012207031,500,0
747714.125,1,501.899993896484,501.899993896484,500,0
747714.125,1,502.600006103516,502.600006103516,500,0
747714.125,1,503.299987792969,503.299987792969,500,0
747714.125,1,504,504,500,0
747714.125,1,504.700012207031,504.700012207031,500,0
704177.3125,1,505.399993896484,505.399993896484,500,0
664145.125,1,506.100006103516,506.100006103516,500,0
639076.875,1,506.799987792969,506.799987792969,500,0
639076.875,1,507.5,507.5,500,0
639076.875,1,508.200012207031,508.200012207031,500,0
639076.875,1,508.899993896484,508.899993896484,500,0
639076.875,1,509.600006103516,509.600006103516,500,0
639076.875,1,510.299987792969,510.299987792969,500,0
639076.875,1,511,511,500,0
639076.875,1,511.700012207031,511.700012207031,500,0
639076.875,1,512.400024414062,512.400024414062,500,0
639076.875,1,513.099975585938,513.099975585938,500,0
639076.875,1,513.799987792969,513.799987792969,500,0
639076.875,1,514.5,514.5,500,0
639076.875,1,515.200012207031,515.200012207031,500,0
639076.875,1,515.900024414062,515.900024414062,500,0
639076.875,1,516.599975585938,516.599975585938,500,0
639076.875,1,517.299987792969,517.299987792969,500,0
639076.875,1,518,518,500,0
658453.8125,1,518.700012207031,518.700012207031,500,0
658453.8125,1,519.400024414062,519.400024414062,500,0
567736.375,1,520.099975585938,520.099975585938,500,0
567736.375,1,520.799987792969,520.799987792969,500,0
567736.375,1,521.5,521.5,500,0
567736.375,1,522.200012207031,522.200012207031,500,0
567736.375,1,522.900024414062,522.900024414062,500,0
567736.375,1,523.599975585938,523.599975585938,500,0
567736.375,1,524.299987792969,524.299987792969,500,0
567736.375,1,525,525,500,0
567736.375,1,525.700012207031,525.700012207031,500,0
567736.375,1,526.400024414062,526.400024414062,500,0
567736.375,1,527.099975585938,527.099975585938,500,0
567736.375,1,527.799987792969,527.799987792969,500,0
567736.375,1,528.5,528.5,500,0
567736.375,1,529.200012207031,529.200012207031,500,0
567736.375,1,529.900024414062,529.900024414062,500,0
519472.4375,1,530.599975585938,530.599975585938,500,0
519472.4375,1,531.299987792969,531.299987792969,500,0
519472.4375,1,532,532,500,0
519472.4375,1,532.700012207031,532.700012207031,500,0
519472.4375,1,533.400024414062,533.400024414062,500,0
519472.4375,1,534.099975585938,534.099975585938,500,0
508543.125,1,534.799987792969,534.799987792969,500,0
508543.125,1,535.5,535.5,500,0
508543.125,1,536.200012207031,536.200012207031,500,0
508543.125,1,536.900024414062,536.900024414062,500,0
508543.125,1,537.599975585938,537.599975585938,500,0
508543.125,1,538.299987792969,538.299987792969,500,0
508543.125,1,539,539,500,0
508543.125,1,539.700012207031,539.700012207031,500,0
508543.125,1,540.400024414062,540.400024414062,500,0
457861.9375,1,541.099975585938,541.099975585938,500,0
457861.9375,1,541.799987792969,541.799987792969,500,0
457861.9375,1,542.5,542.5,500,0
457861.9375,1,543.200012207031,543.200012207031,500,0
457861.9375,1,543.900024414062,543.900024414062,500,0
457861.9375,1,544.599975585938,544.599975585938,500,0
457861.9375,1,545.299987792969,545.299987792969,500,0
457861.9375,1,546,546,500,0
457861.9375,1,546.700012207031,546.700012207031,500,0
457861.9375,1,547.400024414062,547.400024414062,500,0
457861.9375,1,548.099975585938,548.099975585938,500,0
457861.9375,1,548.799987792969,548.799987792969,500,0
457861.9375,1,549.5,549.5,500,0
457861.9375,1,550.200012207031,550.200012207031,500,0
457861.9375,1,550.900024414062,550.900024414062,500,0
406482.46875,1,551.599975585938,551.599975585938,500,0
350419.03125,1,552.299987792969,552.299987792969,500,0
350934.125,1,553,553,500,0
350934.125,1,553.700012207031,553.700012207031,500,0
350934.125,1,554.400024414062,554.400024414062,500,0
350934.125,1,555.099975585938,555.099975585938,500,0
350934.125,1,555.799987792969,555.799987792969,500,0
350934.125,1,556.5,556.5,500,0
350934.125,1,557.200012207031,557.200012207031,500,0
350934.125,1,557.900024414062,557.900024414062,500,0
350934.125,1,558.599975585938,558.599975585938,500,0
350934.125,1,559.299987792969,559.299987792969,500,0
350934.125,1,560,560,500,0
350934.125,1,560.700012207031,560.700012207031,500,0
350934.125,1,561.400024414062,561.400024414062,500,0
350934.125,1,562.099975585938,562.099975585938,500,0
280990.53125,1,562.799987792969,562.799987792969,500,0
280990.53125,1,563.5,563.5,500,0
280990.53125,1,564.200012207031,564.200012207031,500,0
280990.53125,1,564.900024414062,564.900024414062,500,0
280990.53125,1,565.599975585938,565.599975585938,500,0
280990.53125,1,566.299987792969,566.299987792969,500,0
280990.53125,1,567,567,500,0
280990.53125,1,567.700012207031,567.700012207031,500,0
280990.53125,1,568.400024414062,568.400024414062,500,0
280990.53125,1,569.099975585938,569.099975585938,500,0
280990.53125,1,569.799987792969,569.799987792969,500,0
280990.53125,1,570.5,570.5,500,0
280990.53125,1,571.200012207031,571.200012207031,500,0
225869.875,1,571.900024414062,571.900024414062,500,0
225869.875,1,572.599975585938,572.599975585938,500,0
225869.875,1,573.299987792969,573.299987792969,500,0
225869.875,1,574,574,500,0
154723.609375,1,574.700012207031,574.700012207031,500,0
58442.359375,1,575.400024414062,575.400024414062,500,0
58442.359375,1,576.099975585938,576.099975585938,500,0
58442.359375,1,576.799987792969,576.799987792969,500,0
64517.7578125,1,577.5,577.5,500,0
64517.7578125,1,578.200012207031,578.200012207031,500,0
64517.7578125,1,578.900024414062,578.900024414062,500,0
64517.7578125,1,579.599975585938,579.599975585938,500,0
64517.7578125,1,580.299987792969,580.299987792969,500,0
64517.7578125,1,581,581,500,0
64517.7578125,1,581.700012207031,581.700012207031,500,0
64517.7578125,1,582.400024414062,582.400024414062,500,0
64517.7578125,1,583.099975585938,583.099975585938,500,0
64517.7578125,1,583.799987792969,583.799987792969,500,0
64517.7578125,1,584.5,584.5,500,0
64517.7578125,1,585.200012207031,585.200012207031,500,0
64517.7578125,1,585.900024414062,585.900024414062,500,0
64517.7578125,1,586.599975585938,586.599975585938,500,0
64517.7578125,1,587.299987792969,587.299987792969,500,0
64517.7578125,1,588,588,500,0
31501.447265625,1,588.700012207031,588.700012207031,500,0
31501.447265625,1,589.400024414062,589.400024414062,500,0
31501.447265625,1,590.099975585938,590.099975585938,500,0
31501.447265625,1,590.799987792969,590.799987792969,500,0
31501.447265625,1,591.5,591.5,500,0
31501.447265625,1,592.200012207031,592.200012207031,500,0
31501.447265625,1,592.900024414062,592.900024414062,500,0
31501.447265625,1,593.599975585938,593.599975585938,500,0
31501.447265625,1,594.299987792969,594.299987792969,500,0
31501.447265625,1,595,595,500,0
31501.447265625,1,595.700012207031,595.700012207031,500,0
31501.447265625,1,596.400024414062,596.400024414062,500,0
31501.447265625,1,597.099975585938,597.099975585938,500,0
31501.447265625,1,597.799987792969,597.799987792969,500,0
23497.474609375,1,598.5,598.5,500,0
23497.474609375,1,599.200012207031,599.200012207031,500,0
23497.474609375,1,599.900024414062,599.900024414062,500,0
23497.474609375,1,600.599975585938,600.599975585938,500,0
21072.19140625,1,601.299987792969,601.299987792969,500,0
21072.19140625,1,602,602,500,0
21072.19140625,1,602.700012207031,602.700012207031,500,0
18686.06640625,1,603.400024414062,603.400024414062,500,0
18686.06640625,1,604.099975585938,604.099975585938,500,0
18686.06640625,1,604.799987792969,604.799987792969,500,0
18686.06640625,1,605.5,605.5,500,0
18686.06640625,1,606.200012207031,606.200012207031,500,0
37044.84765625,1,606.900024414062,606.900024414062,500,0
37044.84765625,1,607.599975585938,607.599975585938,500,0
37044.84765625,1,608.299987792969,608.299987792969,500,0
37044.84765625,1,609,609,500,0
37044.84765625,1,609.700012207031,609.700012207031,500,0
37044.84765625,1,610.400024414062,610.400024414062,500,0
37044.84765625,1,611.099975585938,611.099975585938,500,0
52029.66015625,1,611.799987792969,611.799987792969,500,0
52029.66015625,1,612.5,612.5,500,0
52029.66015625,1,613.200012207031,613.200012207031,500,0
52029.66015625,1,613.900024414062,613.900024414062,500,0
52029.66015625,1,614.599975585938,614.599975585938,500,0
52029.66015625,1,615.299987792969,615.299987792969,500,0
45328.08203125,1,616,616,500,0
45328.08203125,1,616.700012207031,616.700012207031,500,0
45328.08203125,1,617.400024414062,617.400024414062,500,0
45328.08203125,1,618.099975585938,618.099975585938,500,0
45328.08203125,1,618.799987792969,618.799987792969,500,0
45328.08203125,1,619.5,619.5,500,0
45328.08203125,1,620.200012207031,620.200012207031,500,0
45328.08203125,1,620.900024414062,620.900024414062,500,0
58773.828125,1,621.599975585938,621.599975585938,500,0
58773.828125,1,622.299987792969,622.299987792969,500,0
58773.828125,1,623,623,500,0
58773.828125,1,623.700012207031,623.700012207031,500,0
48733.99609375,1,624.400024414062,624.400024414062,500,0
48733.99609375,1,625.099975585938,625.099975585938,500,0
48733.99609375,1,625.799987792969,625.799987792969,500,0
48733.99609375,1,626.5,626.5,500,0
48733.99609375,1,627.200012207031,627.200012207031,500,0
60863.35546875,1,627.900024414062,627.900024414062,500,0
60863.35546875,1,628.599975585938,628.599975585938,500,0
60863.35546875,1,629.299987792969,629.299987792969,500,0
60863.35546875,1,630,630,500,0
60863.35546875,1,630.700012207031,630.700012207031,500,0
60863.35546875,1,631.400024414062,631.400024414062,500,0
59622.07421875,1,632.099975585938,632.099975585938,500,0
59622.07421875,1,632.799987792969,632.799987792969,500,0
59622.07421875,1,633.5,633.5,500,0
59622.07421875,1,634.200012207031,634.200012207031,500,0
76338.9140625,1,634.900024414062,634.900024414062,500,0
76338.9140625,1,635.599975585938,635.599975585938,500,0
76338.9140625,1,636.299987792969,636.299987792969,500,0
76338.9140625,1,637,637,500,0
78288.8203125,1,637.700012207031,637.700012207031,500,0
78288.8203125,1,638.400024414062,638.400024414062,500,0
78288.8203125,1,639.099975585938,639.099975585938,500,0
78288.8203125,1,639.799987792969,639.799987792969,500,0
78288.8203125,1,640.5,640.5,500,0
78288.8203125,1,641.200012207031,641.200012207031,500,0
90906.546875,1,641.900024414062,641.900024414062,500,0
90906.546875,1,642.599975585938,642.599975585938,500,0
82579.1640625,1,643.299987792969,643.299987792969,500,0
82579.1640625,1,644,644,500,0
82579.1640625,1,644.700012207031,644.700012207031,500,0
82579.1640625,1,645.400024414062,645.400024414062,500,0
90270.1953125,1,646.099975585938,646.099975585938,500,0
90270.1953125,1,646.799987792969,646.799987792969,500,0
90270.1953125,1,647.5,647.5,500,0
90270.1953125,1,648.200012207031,648.200012207031,500,0
90270.1953125,1,648.900024414062,648.900024414062,500,0
90270.1953125,1,649.599975585938,649.599975585938,500,0
90270.1953125,1,650.299987792969,650.299987792969,500,0
90270.1953125,1,651,651,500,0
90028.25,1,651.700012207031,651.700012207031,500,0
90028.25,1,652.400024414062,652.400024414062,500,0
90028.25,1,653.099975585938,653.099975585938,500,0
90028.25,1,653.799987792969,653.799987792969,500,0
90028.25,1,654.5,654.5,500,0
90028.25,1,655.200012207031,655.200012207031,500,0
68272.625,1,655.900024414062,655.900024414062,500,0
68272.625,1,656.599975585938,656.599975585938,500,0
68272.625,1,657.299987792969,657.299987792969,500,0
68272.625,1,658,658,500,0
49653.37109375,1,658.700012207031,658.700012207031,500,0
17333.658203125,1,659.400024414062,659.400024414062,500,0
17333.658203125,1,660.099975585938,660.099975585938,500,0
17333.658203125,1,660.799987792969,660.799987792969,500,0
17333.658203125,1,661.5,661.5,500,0
17333.658203125,1,662.200012207031,662.200012207031,500,0
17333.658203125,1,662.900024414062,662.900024414062,500,0
10663.33984375,1,663.599975585938,663.599975585938,500,0
10663.33984375,1,664.299987792969,664.299987792969,500,0
9295.72265625,1,665,665,500,0
9295.72265625,1,665.700012207031,665.700012207031,500,0
8323.3359375,1,666.400024414062,666.400024414062,500,0
8323.3359375,1,667.099975585938,667.099975585938,500,0
8323.3359375,1,667.799987792969,667.799987792969,500,0
8323.3359375,1,668.5,668.5,500,0
8323.3359375,1,669.200012207031,669.200012207031,500,0
8323.3359375,1,669.900024414062,669.900024414062,500,0
8323.3359375,1,670.599975585938,670.599975585938,500,0
7983.169921875,1,671.299987792969,671.299987792969,500,0
7983.169921875,1,672,672,500,0
7983.169921875,1,672.700012207031,672.700012207031,500,0
7983.169921875,1,673.400024414062,673.400024414062,500,0
7983.169921875,1,674.099975585938,674.099975585938,500,0
6591.05908203125,1,674.799987792969,674.799987792969,500,0
6591.05908203125,1,675.5,675.5,500,0
5686.583984375,1,676.200012207031,676.200012207031,500,0
5686.583984375,1,676.900024414062,676.900024414062,500,0
5686.583984375,1,677.599975585938,677.599975585938,500,0
5686.583984375,1,678.299987792969,678.299987792969,500,0
5686.583984375,1,679,679,500,0
5686.583984375,1,679.700012207031,679.700012207031,500,0
5686.583984375,1,680.400024414062,680.400024414062,500,0
5686.583984375,1,681.099975585938,681.099975585938,500,0
5686.583984375,1,681.799987792969,681.799987792969,500,0
4211.3603515625,1,682.5,682.5,500,0
4211.3603515625,1,683.200012207031,683.200012207031,500,0
4211.3603515625,1,683.900024414062,683.900024414062,500,0
4211.3603515625,1,684.599975585938,684.599975585938,500,0
4211.3603515625,1,685.299987792969,685.299987792969,500,0
4211.3603515625,1,686,686,500,0
2563.10986328125,1,686.700012207031,686.700012207031,500,0
2563.10986328125,1,687.400024414062,687.400024414062,500,0
2563.10986328125,1,688.099975585938,688.099975585938,500,0
2563.10986328125,1,688.799987792969,688.799987792969,500,0
2563.10986328125,1,689.5,689.5,500,0
2563.10986328125,1,690.200012207031,690.200012207031,500,0
2563.10986328125,1,690.900024414062,690.900024414062,500,0
2563.10986328125,1,691.599975585938,691.599975585938,500,0
2563.10986328125,1,692.299987792969,692.299987792969,500,0
2563.10986328125,1,693,693,500,0
1032.29174804688,1,693.700012207031,693.700012207031,500,0
1032.29174804688,1,694.400024414062,694.400024414062,500,0
1032.29174804688,1,695.099975585938,695.099975585938,500,0
1032.29174804688,1,695.799987792969,695.799987792969,500,0
1032.29174804688,1,696.5,696.5,500,0
1032.29174804688,1,697.200012207031,697.200012207031,500,0
1032.29174804688,1,697.900024414062,697.900024414062,500,0
1032.29174804688,1,698.599975585938,698.599975585938,500,0
1032.29174804688,1,699.299987792969,699.299987792969,500,0
1032.29174804688,1,700,700,500,0
