<?xml version="1.0"?>
<VTKFile type="PolyData" version="0.1" byte_order="LittleEndian">
  <PolyData>
    <Piece NumberOfLines="68" NumberOfPoints="70">
      <PointData Scalars="fracture pressure">
        <DataArray type="Float32" Name="fracture pressure" NumberOfComponents="1" format="ascii">
          100 103.816 106.363 108.228 109.54 110.432 110.965 111.16 111.128 110.994 110.791 110.527
          110.232 109.919 109.613 109.334 109.09 109.051 108.871 108.678 108.466 108.232 107.969 107.673
          107.335 106.949 106.504 105.984 105.368 104.629 103.753 102.711 101.491 100 109.518 109.515
          109.51 109.503 109.493 109.481 109.466 109.446 109.422 109.394 109.361 109.324 109.28 109.23
          109.181 109.127 109.066 109.113 109.15 109.181 109.212 109.24 109.267 109.291 109.312 109.331
          109.348 109.363 109.376 109.386 109.395 109.401 109.405 109.407 109.112 109.112
        </DataArray>
      </PointData>
      <Points>
        <DataArray type="Float32" Name="Coordinates" NumberOfComponents="3" format="ascii">
          400 100 0 442.308 57.6923 0 484.615 15.3846 0 526.923 -26.9231 0
          569.231 -69.2308 0 611.538 -111.538 0 653.846 -153.846 0 696.154 -196.154 0
          738.462 -238.462 0 780.769 -280.769 0 823.077 -323.077 0 865.385 -365.385 0
          907.692 -407.692 0 950 -450 0 992.308 -492.308 0 1034.62 -534.615 0
          1076.92 -576.923 0 1076.92 -576.923 0 1084.62 -534.615 0 1092.31 -492.308 0
          1100 -450 0 1107.69 -407.692 0 1115.38 -365.385 0 1123.08 -323.077 0
          1130.77 -280.769 0 1138.46 -238.462 0 1146.15 -196.154 0 1153.85 -153.846 0
          1161.54 -111.538 0 1169.23 -69.2308 0 1176.92 -26.9231 0 1184.62 15.3846 0
          1192.31 57.6923 0 1200 100 0 1500 -1000 0 1473.56 -973.558 0
          1447.12 -947.115 0 1420.67 -920.673 0 1394.23 -894.231 0 1367.79 -867.788 0
          1341.35 -841.346 0 1314.9 -814.904 0 1288.46 -788.462 0 1262.02 -762.019 0
          1235.58 -735.577 0 1209.13 -709.135 0 1182.69 -682.692 0 1156.25 -656.25 0
          1129.81 -629.808 0 1103.37 -603.365 0 1076.92 -576.923 0 1076.92 -576.923 0
          1072.12 -603.365 0 1067.31 -629.808 0 1062.5 -656.25 0 1057.69 -682.692 0
          1052.88 -709.135 0 1048.08 -735.577 0 1043.27 -762.019 0 1038.46 -788.462 0
          1033.65 -814.904 0 1028.85 -841.346 0 1024.04 -867.788 0 1019.23 -894.231 0
          1014.42 -920.673 0 1009.62 -947.115 0 1004.81 -973.558 0 1000 -1000 0
          1076.92 -576.923 0 1076.92 -576.923 0
        </DataArray>
      </Points>
      <Lines>
        <DataArray type="Int32" Name="connectivity" NumberOfComponents="1" format="ascii">
          0 1 1 2 2 3 3 4 4 5 5 6
          6 7 7 8 8 9 9 10 10 11 11 12
          12 13 13 14 14 15 15 16 17 18 18 19
          19 20 20 21 21 22 22 23 23 24 24 25
          25 26 26 27 27 28 28 29 29 30 30 31
          31 32 32 33 34 35 35 36 36 37 37 38
          38 39 39 40 40 41 41 42 42 43 43 44
          44 45 45 46 46 47 47 48 48 49 49 50
          51 52 52 53 53 54 54 55 55 56 56 57
          57 58 58 59 59 60 60 61 61 62 62 63
          63 64 64 65 65 66 66 67 68 16 68 17
          69 50 69 51
        </DataArray>
        <DataArray type="Int32" Name="offsets" NumberOfComponents="1" format="ascii">
          2 4 6 8 10 12 14 16 18 20 22 24
          26 28 30 32 34 36 38 40 42 44 46 48
          50 52 54 56 58 60 62 64 66 68 70 72
          74 76 78 80 82 84 86 88 90 92 94 96
          98 100 102 104 106 108 110 112 114 116 118 120
          122 124 126 128 130 132 134 136
        </DataArray>
      </Lines>
    </Piece>
  </PolyData>
</VTKFile>
