lc = 5e-2;
lcf = 3e-2;

Point(1) = {0, 0, 0, lc};
Point(2) = {1, 0, 0, lc};
Point(3) = {1, 1, 0, lc};
Point(4) = {0, 1, 0, lc};
Point(5) = {0.050000, 0.416000, 0, lcf};
Point(6) = {0.220000, 0.062400, 0, lcf};
Point(7) = {0.050000, 0.275000, 0, lcf};
Point(8) = {0.250000, 0.135000, 0, lcf};
Point(9) = {0.150000, 0.630000, 0, lcf};
Point(10) = {0.450000, 0.090000, 0, lcf};
Point(11) = {0.150000, 0.916700, 0, lcf};
Point(12) = {0.400000, 0.500000, 0, lcf};
Point(13) = {0.650000, 0.833300, 0, lcf};
// Point(14) = {0.850000, 0.166700, 0, lcf};
Point(15) = {0.700000, 0.235000, 0, lcf};
// Point(16) = {0.850000, 0.167500, 0, lcf};
Point(17) = {0.600000, 0.380000, 0, lcf};
Point(18) = {0.850000, 0.267500, 0, lcf};
Point(19) = {0.350000, 0.971400, 0, lcf};
Point(20) = {0.800000, 0.714300, 0, lcf};
Point(21) = {0.750000, 0.957400, 0, lcf};
Point(22) = {0.950000, 0.815500, 0, lcf};
Point(23) = {0.150000, 0.836300, 0, lcf};
Point(24) = {0.400000, 0.972700, 0, lcf};
Point(25) = {0.152174, 0.203478, 0, lcf};
Point(26) = {0.186341, 0.856127, 0, lcf};
Point(27) = {0.373260, 0.958111, 0, lcf};
Point(28) = {0.662058, 0.793111, 0, lcf};
Point(29) = {0.815036, 0.283234, 0, lcf};
Point(30) = {0.849723, 0.167625, 0, lcf};

Line(1) = {1, 2};
Line(2) = {2, 3};
Line(3) = {3, 4};
Line(4) = {4, 1};
Line(5) = {5, 25};
Line(6) = {7, 25};
Line(7) = {9, 10};
Line(8) = {11, 26};
Line(9) = {13, 28};
Line(10) = {15, 30};
Line(11) = {17, 29};
Line(12) = {19, 27};
Line(13) = {21, 22};
Line(14) = {23, 26};
Line(15) = {6, 25};
Line(16) = {8, 25};
Line(17) = {12, 26};
Line(18) = {26, 27};
Line(19) = {28, 27};
Line(20) = {24, 27};
Line(21) = {29, 28};
Line(22) = {20, 28};
Line(23) = {29, 30};
Line(24) = {18, 29};
// Line(25) = {30, 16};
// Line(26) = {30, 14};

Line Loop(1) = {1, 2, 3, 4};

Plane Surface(1) = {1};

// Line {5,6,7,8,9,10,11,12,13,14,15,16,17,18,19,20,21,22,23,24,25,26} In Surface {1};
Line {5,6,7,8,9,10,11,12,13,14,15,16,17,18,19,20,21,22,23,24} In Surface {1};

// matrix domain and boundary
Physical Surface(0) = {1};
Physical Line(0) = {1, 2, 3, 4};
Physical Point(0) = {1, 2, 3, 4};

// conductive fractures, endpoints and crossings
// Physical Line(1) = {5,6,7,10,11,12,13,14,15,16,18,19,20,22,24,25};
// Physical Point(1) = {5,6,7,8,9,10,15,16,17,18,19,20,21,22,23,24,25,27};
Physical Line(1) = {5,6,7,10,11,12,13,14,15,16,18,19,20,22,24};
Physical Point(1) = {5,6,7,8,9,10,15,17,18,19,20,21,22,23,24,25,27};

// blocking fractures and endpoints
// Physical Line(2) = {8,9,17,21,23,26};
// Physical Point(2) = {11,12,13,14};
Physical Line(2) = {8,9,17,21,23};
Physical Point(2) = {11,12,13};

// crossings of conductive with blocking fractures
Physical Point(3) = {26,28,29,30};

//Mesh.Algorithm = 8;
//Recombine Surface{1};
