"Sn","Sw","pn","pw","pc","rhoW","rhoN","mobW","mobN","porosity","temperature","isFracture","process rank","vtkValidPointMask","arc_length","Points:0","Points:1","Points:2"
0.000000000000e+00,1.000000000000e+00,3.761927187500e+05,3.761927187500e+05,0.000000000000e+00,1.000000000000e+00,1.000000000000e+00,1.000000000000e+00,0.000000000000e+00,1.000000000000e+00,2.931499938965e+02,0.000000000000e+00,0.000000000000e+00,1,0.000000000000e+00,6.250000000000e+02,0.000000000000e+00,0.000000000000e+00
0.000000000000e+00,1.000000000000e+00,3.768853125000e+05,3.768853125000e+05,0.000000000000e+00,1.000000000000e+00,1.000000000000e+00,1.000000000000e+00,0.000000000000e+00,1.000000000000e+00,2.931499938965e+02,0.000000000000e+00,0.000000000000e+00,1,6.000000000000e+00,6.250000000000e+02,6.000000000000e+00,0.000000000000e+00
0.000000000000e+00,1.000000000000e+00,3.775779375000e+05,3.775779375000e+05,0.000000000000e+00,1.000000000000e+00,1.000000000000e+00,1.000000000000e+00,0.000000000000e+00,1.000000000000e+00,2.931499938965e+02,0.000000000000e+00,0.000000000000e+00,1,1.200000000000e+01,6.250000000000e+02,1.200000000000e+01,0.000000000000e+00
0.000000000000e+00,1.000000000000e+00,3.785121250000e+05,3.785121250000e+05,0.000000000000e+00,1.000000000000e+00,1.000000000000e+00,1.000000000000e+00,0.000000000000e+00,1.000000000000e+00,2.931499938965e+02,0.000000000000e+00,0.000000000000e+00,1,1.800000000000e+01,6.250000000000e+02,1.800000000000e+01,0.000000000000e+00
0.000000000000e+00,1.000000000000e+00,3.802135937500e+05,3.802135937500e+05,0.000000000000e+00,1.000000000000e+00,1.000000000000e+00,1.000000000000e+00,0.000000000000e+00,1.000000000000e+00,2.931499938965e+02,0.000000000000e+00,0.000000000000e+00,1,2.400000000000e+01,6.250000000000e+02,2.400000000000e+01,0.000000000000e+00
0.000000000000e+00,1.000000000000e+00,3.819150625000e+05,3.819150625000e+05,0.000000000000e+00,1.000000000000e+00,1.000000000000e+00,1.000000000000e+00,0.000000000000e+00,1.000000000000e+00,2.931499938965e+02,0.000000000000e+00,0.000000000000e+00,1,3.000000000000e+01,6.250000000000e+02,3.000000000000e+01,0.000000000000e+00
0.000000000000e+00,1.000000000000e+00,3.847262500000e+05,3.847262500000e+05,0.000000000000e+00,1.000000000000e+00,1.000000000000e+00,1.000000000000e+00,0.000000000000e+00,1.000000000000e+00,2.931499938965e+02,0.000000000000e+00,0.000000000000e+00,1,3.600000000000e+01,6.250000000000e+02,3.600000000000e+01,0.000000000000e+00
0.000000000000e+00,1.000000000000e+00,3.878282187500e+05,3.878282187500e+05,0.000000000000e+00,1.000000000000e+00,1.000000000000e+00,1.000000000000e+00,0.000000000000e+00,1.000000000000e+00,2.931499938965e+02,0.000000000000e+00,0.000000000000e+00,1,4.200000000000e+01,6.250000000000e+02,4.200000000000e+01,0.000000000000e+00
0.000000000000e+00,1.000000000000e+00,3.912165937500e+05,3.912165937500e+05,0.000000000000e+00,1.000000000000e+00,1.000000000000e+00,1.000000000000e+00,0.000000000000e+00,1.000000000000e+00,2.931499938965e+02,0.000000000000e+00,0.000000000000e+00,1,4.800000000000e+01,6.250000000000e+02,4.800000000000e+01,0.000000000000e+00
0.000000000000e+00,1.000000000000e+00,3.958078750000e+05,3.958078750000e+05,0.000000000000e+00,1.000000000000e+00,1.000000000000e+00,1.000000000000e+00,0.000000000000e+00,1.000000000000e+00,2.931499938965e+02,0.000000000000e+00,0.000000000000e+00,1,5.400000000000e+01,6.250000000000e+02,5.400000000000e+01,0.000000000000e+00
0.000000000000e+00,1.000000000000e+00,4.000679687500e+05,4.000679687500e+05,0.000000000000e+00,1.000000000000e+00,1.000000000000e+00,1.000000000000e+00,0.000000000000e+00,1.000000000000e+00,2.931499938965e+02,0.000000000000e+00,0.000000000000e+00,1,6.000000000000e+01,6.250000000000e+02,6.000000000000e+01,0.000000000000e+00
0.000000000000e+00,1.000000000000e+00,4.043280625000e+05,4.043280625000e+05,0.000000000000e+00,1.000000000000e+00,1.000000000000e+00,1.000000000000e+00,0.000000000000e+00,1.000000000000e+00,2.931499938965e+02,0.000000000000e+00,0.000000000000e+00,1,6.600000000000e+01,6.250000000000e+02,6.600000000000e+01,0.000000000000e+00
0.000000000000e+00,1.000000000000e+00,4.105150312500e+05,4.105150312500e+05,0.000000000000e+00,1.000000000000e+00,1.000000000000e+00,1.000000000000e+00,0.000000000000e+00,1.000000000000e+00,2.931499938965e+02,0.000000000000e+00,0.000000000000e+00,1,7.200000000000e+01,6.250000000000e+02,7.200000000000e+01,0.000000000000e+00
0.000000000000e+00,1.000000000000e+00,4.162642187500e+05,4.162642187500e+05,0.000000000000e+00,1.000000000000e+00,1.000000000000e+00,1.000000000000e+00,0.000000000000e+00,1.000000000000e+00,2.931499938965e+02,0.000000000000e+00,0.000000000000e+00,1,7.800000000000e+01,6.250000000000e+02,7.800000000000e+01,0.000000000000e+00
0.000000000000e+00,1.000000000000e+00,4.224209375000e+05,4.224209375000e+05,0.000000000000e+00,1.000000000000e+00,1.000000000000e+00,1.000000000000e+00,0.000000000000e+00,1.000000000000e+00,2.931499938965e+02,0.000000000000e+00,0.000000000000e+00,1,8.400000000000e+01,6.250000000000e+02,8.400000000000e+01,0.000000000000e+00
0.000000000000e+00,1.000000000000e+00,4.301132187500e+05,4.301132187500e+05,0.000000000000e+00,1.000000000000e+00,1.000000000000e+00,1.000000000000e+00,0.000000000000e+00,1.000000000000e+00,2.931499938965e+02,0.000000000000e+00,0.000000000000e+00,1,9.000000000000e+01,6.250000000000e+02,9.000000000000e+01,0.000000000000e+00
0.000000000000e+00,1.000000000000e+00,4.370203125000e+05,4.370203125000e+05,0.000000000000e+00,1.000000000000e+00,1.000000000000e+00,1.000000000000e+00,0.000000000000e+00,1.000000000000e+00,2.931499938965e+02,0.000000000000e+00,0.000000000000e+00,1,9.600000000000e+01,6.250000000000e+02,9.600000000000e+01,0.000000000000e+00
0.000000000000e+00,1.000000000000e+00,4.447079375000e+05,4.447079375000e+05,0.000000000000e+00,1.000000000000e+00,1.000000000000e+00,1.000000000000e+00,0.000000000000e+00,1.000000000000e+00,2.931499938965e+02,0.000000000000e+00,0.000000000000e+00,1,1.020000000000e+02,6.250000000000e+02,1.020000000000e+02,0.000000000000e+00
0.000000000000e+00,1.000000000000e+00,4.532258750000e+05,4.532258750000e+05,0.000000000000e+00,1.000000000000e+00,1.000000000000e+00,1.000000000000e+00,0.000000000000e+00,1.000000000000e+00,2.931499938965e+02,0.000000000000e+00,0.000000000000e+00,1,1.080000000000e+02,6.250000000000e+02,1.080000000000e+02,0.000000000000e+00
0.000000000000e+00,1.000000000000e+00,4.619514375000e+05,4.619514375000e+05,0.000000000000e+00,1.000000000000e+00,1.000000000000e+00,1.000000000000e+00,0.000000000000e+00,1.000000000000e+00,2.931499938965e+02,0.000000000000e+00,0.000000000000e+00,1,1.140000000000e+02,6.250000000000e+02,1.140000000000e+02,0.000000000000e+00
0.000000000000e+00,1.000000000000e+00,4.710570312500e+05,4.710570312500e+05,0.000000000000e+00,1.000000000000e+00,1.000000000000e+00,1.000000000000e+00,0.000000000000e+00,1.000000000000e+00,2.931499938965e+02,0.000000000000e+00,0.000000000000e+00,1,1.200000000000e+02,6.250000000000e+02,1.200000000000e+02,0.000000000000e+00
0.000000000000e+00,1.000000000000e+00,4.800813125000e+05,4.800813125000e+05,0.000000000000e+00,1.000000000000e+00,1.000000000000e+00,1.000000000000e+00,0.000000000000e+00,1.000000000000e+00,2.931499938965e+02,0.000000000000e+00,0.000000000000e+00,1,1.260000000000e+02,6.250000000000e+02,1.260000000000e+02,0.000000000000e+00
0.000000000000e+00,1.000000000000e+00,4.894188750000e+05,4.894188750000e+05,0.000000000000e+00,1.000000000000e+00,1.000000000000e+00,1.000000000000e+00,0.000000000000e+00,1.000000000000e+00,2.931499938965e+02,0.000000000000e+00,0.000000000000e+00,1,1.320000000000e+02,6.250000000000e+02,1.320000000000e+02,0.000000000000e+00
0.000000000000e+00,1.000000000000e+00,4.996717500000e+05,4.996717500000e+05,0.000000000000e+00,1.000000000000e+00,1.000000000000e+00,1.000000000000e+00,0.000000000000e+00,1.000000000000e+00,2.931499938965e+02,0.000000000000e+00,0.000000000000e+00,1,1.380000000000e+02,6.250000000000e+02,1.380000000000e+02,0.000000000000e+00
0.000000000000e+00,1.000000000000e+00,5.092315937500e+05,5.092315937500e+05,0.000000000000e+00,1.000000000000e+00,1.000000000000e+00,1.000000000000e+00,0.000000000000e+00,1.000000000000e+00,2.931499938965e+02,0.000000000000e+00,0.000000000000e+00,1,1.440000000000e+02,6.250000000000e+02,1.440000000000e+02,0.000000000000e+00
0.000000000000e+00,1.000000000000e+00,5.186621562500e+05,5.186621562500e+05,0.000000000000e+00,1.000000000000e+00,1.000000000000e+00,1.000000000000e+00,0.000000000000e+00,1.000000000000e+00,2.931499938965e+02,0.000000000000e+00,0.000000000000e+00,1,1.500000000000e+02,6.250000000000e+02,1.500000000000e+02,0.000000000000e+00
0.000000000000e+00,1.000000000000e+00,5.292589375000e+05,5.292589375000e+05,0.000000000000e+00,1.000000000000e+00,1.000000000000e+00,1.000000000000e+00,0.000000000000e+00,1.000000000000e+00,2.931499938965e+02,0.000000000000e+00,0.000000000000e+00,1,1.560000000000e+02,6.250000000000e+02,1.560000000000e+02,0.000000000000e+00
0.000000000000e+00,1.000000000000e+00,5.389179375000e+05,5.389179375000e+05,0.000000000000e+00,1.000000000000e+00,1.000000000000e+00,1.000000000000e+00,0.000000000000e+00,1.000000000000e+00,2.931499938965e+02,0.000000000000e+00,0.000000000000e+00,1,1.620000000000e+02,6.250000000000e+02,1.620000000000e+02,0.000000000000e+00
0.000000000000e+00,1.000000000000e+00,5.487975625000e+05,5.487975625000e+05,0.000000000000e+00,1.000000000000e+00,1.000000000000e+00,1.000000000000e+00,0.000000000000e+00,1.000000000000e+00,2.931499938965e+02,0.000000000000e+00,0.000000000000e+00,1,1.680000000000e+02,6.250000000000e+02,1.680000000000e+02,0.000000000000e+00
0.000000000000e+00,1.000000000000e+00,5.586018750000e+05,5.586018750000e+05,0.000000000000e+00,1.000000000000e+00,1.000000000000e+00,1.000000000000e+00,0.000000000000e+00,1.000000000000e+00,2.931499938965e+02,0.000000000000e+00,0.000000000000e+00,1,1.740000000000e+02,6.250000000000e+02,1.740000000000e+02,0.000000000000e+00
0.000000000000e+00,1.000000000000e+00,5.685281875000e+05,5.685281875000e+05,0.000000000000e+00,1.000000000000e+00,1.000000000000e+00,1.000000000000e+00,0.000000000000e+00,1.000000000000e+00,2.931499938965e+02,0.000000000000e+00,0.000000000000e+00,1,1.800000000000e+02,6.250000000000e+02,1.800000000000e+02,0.000000000000e+00
0.000000000000e+00,1.000000000000e+00,5.787435000000e+05,5.787435000000e+05,0.000000000000e+00,1.000000000000e+00,1.000000000000e+00,1.000000000000e+00,0.000000000000e+00,1.000000000000e+00,2.931499938965e+02,0.000000000000e+00,0.000000000000e+00,1,1.860000000000e+02,6.250000000000e+02,1.860000000000e+02,0.000000000000e+00
0.000000000000e+00,1.000000000000e+00,5.895200625000e+05,5.895200625000e+05,0.000000000000e+00,1.000000000000e+00,1.000000000000e+00,1.000000000000e+00,0.000000000000e+00,1.000000000000e+00,2.931499938965e+02,0.000000000000e+00,0.000000000000e+00,1,1.920000000000e+02,6.250000000000e+02,1.920000000000e+02,0.000000000000e+00
0.000000000000e+00,1.000000000000e+00,6.006131250000e+05,6.006131250000e+05,0.000000000000e+00,1.000000000000e+00,1.000000000000e+00,1.000000000000e+00,0.000000000000e+00,1.000000000000e+00,2.931499938965e+02,0.000000000000e+00,0.000000000000e+00,1,1.980000000000e+02,6.250000000000e+02,1.980000000000e+02,0.000000000000e+00
0.000000000000e+00,1.000000000000e+00,6.129377500000e+05,6.129377500000e+05,0.000000000000e+00,1.000000000000e+00,1.000000000000e+00,1.000000000000e+00,0.000000000000e+00,1.000000000000e+00,2.931499938965e+02,0.000000000000e+00,0.000000000000e+00,1,2.040000000000e+02,6.250000000000e+02,2.040000000000e+02,0.000000000000e+00
0.000000000000e+00,1.000000000000e+00,6.276198750000e+05,6.276198750000e+05,0.000000000000e+00,1.000000000000e+00,1.000000000000e+00,1.000000000000e+00,0.000000000000e+00,1.000000000000e+00,2.931499938965e+02,0.000000000000e+00,0.000000000000e+00,1,2.100000000000e+02,6.250000000000e+02,2.100000000000e+02,0.000000000000e+00
0.000000000000e+00,1.000000000000e+00,6.433939375000e+05,6.433939375000e+05,0.000000000000e+00,1.000000000000e+00,1.000000000000e+00,1.000000000000e+00,0.000000000000e+00,1.000000000000e+00,2.931499938965e+02,0.000000000000e+00,0.000000000000e+00,1,2.160000000000e+02,6.250000000000e+02,2.160000000000e+02,0.000000000000e+00
0.000000000000e+00,1.000000000000e+00,6.609407500000e+05,6.609407500000e+05,0.000000000000e+00,1.000000000000e+00,1.000000000000e+00,1.000000000000e+00,0.000000000000e+00,1.000000000000e+00,2.931499938965e+02,0.000000000000e+00,0.000000000000e+00,1,2.220000000000e+02,6.250000000000e+02,2.220000000000e+02,0.000000000000e+00
0.000000000000e+00,1.000000000000e+00,6.837423125000e+05,6.837423125000e+05,0.000000000000e+00,1.000000000000e+00,1.000000000000e+00,1.000000000000e+00,0.000000000000e+00,1.000000000000e+00,2.931499938965e+02,0.000000000000e+00,0.000000000000e+00,1,2.280000000000e+02,6.250000000000e+02,2.280000000000e+02,0.000000000000e+00
0.000000000000e+00,1.000000000000e+00,7.087375625000e+05,7.087375625000e+05,0.000000000000e+00,1.000000000000e+00,1.000000000000e+00,1.000000000000e+00,0.000000000000e+00,1.000000000000e+00,2.931499938965e+02,0.000000000000e+00,0.000000000000e+00,1,2.340000000000e+02,6.250000000000e+02,2.340000000000e+02,0.000000000000e+00
0.000000000000e+00,1.000000000000e+00,7.429078125000e+05,7.429078125000e+05,0.000000000000e+00,1.000000000000e+00,1.000000000000e+00,1.000000000000e+00,0.000000000000e+00,1.000000000000e+00,2.931499938965e+02,0.000000000000e+00,0.000000000000e+00,1,2.400000000000e+02,6.250000000000e+02,2.400000000000e+02,0.000000000000e+00
0.000000000000e+00,1.000000000000e+00,7.735951875000e+05,7.735951875000e+05,0.000000000000e+00,1.000000000000e+00,1.000000000000e+00,1.000000000000e+00,0.000000000000e+00,1.000000000000e+00,2.931499938965e+02,0.000000000000e+00,0.000000000000e+00,1,2.460000000000e+02,6.250000000000e+02,2.460000000000e+02,0.000000000000e+00
0.000000000000e+00,1.000000000000e+00,8.082610625000e+05,8.082610625000e+05,0.000000000000e+00,1.000000000000e+00,1.000000000000e+00,1.000000000000e+00,0.000000000000e+00,1.000000000000e+00,2.931499938965e+02,2.794669568539e-01,0.000000000000e+00,1,2.520000000000e+02,6.250000000000e+02,2.520000000000e+02,0.000000000000e+00
0.000000000000e+00,1.000000000000e+00,8.430941250000e+05,8.430941250000e+05,0.000000000000e+00,1.000000000000e+00,1.000000000000e+00,1.000000000000e+00,0.000000000000e+00,1.000000000000e+00,2.931499938965e+02,7.882931232452e-01,0.000000000000e+00,1,2.580000000000e+02,6.250000000000e+02,2.580000000000e+02,0.000000000000e+00
0.000000000000e+00,1.000000000000e+00,8.201173125000e+05,8.201173125000e+05,0.000000000000e+00,1.000000000000e+00,1.000000000000e+00,1.000000000000e+00,0.000000000000e+00,1.000000000000e+00,2.931499938965e+02,5.386788845062e-01,0.000000000000e+00,1,2.640000000000e+02,6.250000000000e+02,2.640000000000e+02,0.000000000000e+00
0.000000000000e+00,1.000000000000e+00,7.770343125000e+05,7.770343125000e+05,0.000000000000e+00,1.000000000000e+00,1.000000000000e+00,1.000000000000e+00,0.000000000000e+00,1.000000000000e+00,2.931499938965e+02,4.039111360908e-02,0.000000000000e+00,1,2.700000000000e+02,6.250000000000e+02,2.700000000000e+02,0.000000000000e+00
0.000000000000e+00,1.000000000000e+00,7.479616875000e+05,7.479616875000e+05,0.000000000000e+00,1.000000000000e+00,1.000000000000e+00,1.000000000000e+00,0.000000000000e+00,1.000000000000e+00,2.931499938965e+02,0.000000000000e+00,0.000000000000e+00,1,2.760000000000e+02,6.250000000000e+02,2.760000000000e+02,0.000000000000e+00
0.000000000000e+00,1.000000000000e+00,7.239516250000e+05,7.239516250000e+05,0.000000000000e+00,1.000000000000e+00,1.000000000000e+00,1.000000000000e+00,0.000000000000e+00,1.000000000000e+00,2.931499938965e+02,0.000000000000e+00,0.000000000000e+00,1,2.820000000000e+02,6.250000000000e+02,2.820000000000e+02,0.000000000000e+00
0.000000000000e+00,1.000000000000e+00,7.109809375000e+05,7.109809375000e+05,0.000000000000e+00,1.000000000000e+00,1.000000000000e+00,1.000000000000e+00,0.000000000000e+00,1.000000000000e+00,2.931499938965e+02,0.000000000000e+00,0.000000000000e+00,1,2.880000000000e+02,6.250000000000e+02,2.880000000000e+02,0.000000000000e+00
0.000000000000e+00,1.000000000000e+00,7.001445625000e+05,7.001445625000e+05,0.000000000000e+00,1.000000000000e+00,1.000000000000e+00,1.000000000000e+00,0.000000000000e+00,1.000000000000e+00,2.931499938965e+02,0.000000000000e+00,0.000000000000e+00,1,2.940000000000e+02,6.250000000000e+02,2.940000000000e+02,0.000000000000e+00
0.000000000000e+00,1.000000000000e+00,6.928125625000e+05,6.928125625000e+05,0.000000000000e+00,1.000000000000e+00,1.000000000000e+00,1.000000000000e+00,0.000000000000e+00,1.000000000000e+00,2.931499938965e+02,0.000000000000e+00,0.000000000000e+00,1,3.000000000000e+02,6.250000000000e+02,3.000000000000e+02,0.000000000000e+00
0.000000000000e+00,1.000000000000e+00,6.906101875000e+05,6.906101875000e+05,0.000000000000e+00,1.000000000000e+00,1.000000000000e+00,1.000000000000e+00,0.000000000000e+00,1.000000000000e+00,2.931499938965e+02,0.000000000000e+00,0.000000000000e+00,1,3.060000000000e+02,6.250000000000e+02,3.060000000000e+02,0.000000000000e+00
0.000000000000e+00,1.000000000000e+00,6.915644375000e+05,6.915644375000e+05,0.000000000000e+00,1.000000000000e+00,1.000000000000e+00,1.000000000000e+00,0.000000000000e+00,1.000000000000e+00,2.931499938965e+02,0.000000000000e+00,0.000000000000e+00,1,3.120000000000e+02,6.250000000000e+02,3.120000000000e+02,0.000000000000e+00
0.000000000000e+00,1.000000000000e+00,6.944862500000e+05,6.944862500000e+05,0.000000000000e+00,1.000000000000e+00,1.000000000000e+00,1.000000000000e+00,0.000000000000e+00,1.000000000000e+00,2.931499938965e+02,0.000000000000e+00,0.000000000000e+00,1,3.180000000000e+02,6.250000000000e+02,3.180000000000e+02,0.000000000000e+00
0.000000000000e+00,1.000000000000e+00,6.990532500000e+05,6.990532500000e+05,0.000000000000e+00,1.000000000000e+00,1.000000000000e+00,1.000000000000e+00,0.000000000000e+00,1.000000000000e+00,2.931499938965e+02,0.000000000000e+00,0.000000000000e+00,1,3.240000000000e+02,6.250000000000e+02,3.240000000000e+02,0.000000000000e+00
0.000000000000e+00,1.000000000000e+00,7.048165000000e+05,7.048165000000e+05,0.000000000000e+00,1.000000000000e+00,1.000000000000e+00,1.000000000000e+00,0.000000000000e+00,1.000000000000e+00,2.931499938965e+02,0.000000000000e+00,0.000000000000e+00,1,3.300000000000e+02,6.250000000000e+02,3.300000000000e+02,0.000000000000e+00
0.000000000000e+00,1.000000000000e+00,7.112995625000e+05,7.112995625000e+05,0.000000000000e+00,1.000000000000e+00,1.000000000000e+00,1.000000000000e+00,0.000000000000e+00,1.000000000000e+00,2.931499938965e+02,0.000000000000e+00,0.000000000000e+00,1,3.360000000000e+02,6.250000000000e+02,3.360000000000e+02,0.000000000000e+00
0.000000000000e+00,1.000000000000e+00,7.221265625000e+05,7.221265625000e+05,0.000000000000e+00,1.000000000000e+00,1.000000000000e+00,1.000000000000e+00,0.000000000000e+00,1.000000000000e+00,2.931499938965e+02,0.000000000000e+00,0.000000000000e+00,1,3.420000000000e+02,6.250000000000e+02,3.420000000000e+02,0.000000000000e+00
0.000000000000e+00,1.000000000000e+00,7.363480625000e+05,7.363480625000e+05,0.000000000000e+00,1.000000000000e+00,1.000000000000e+00,1.000000000000e+00,0.000000000000e+00,1.000000000000e+00,2.931499938965e+02,0.000000000000e+00,0.000000000000e+00,1,3.480000000000e+02,6.250000000000e+02,3.480000000000e+02,0.000000000000e+00
0.000000000000e+00,1.000000000000e+00,7.558227500000e+05,7.558227500000e+05,0.000000000000e+00,1.000000000000e+00,1.000000000000e+00,1.000000000000e+00,0.000000000000e+00,1.000000000000e+00,2.931499938965e+02,0.000000000000e+00,0.000000000000e+00,1,3.540000000000e+02,6.250000000000e+02,3.540000000000e+02,0.000000000000e+00
0.000000000000e+00,1.000000000000e+00,7.794297500000e+05,7.794297500000e+05,0.000000000000e+00,1.000000000000e+00,1.000000000000e+00,1.000000000000e+00,0.000000000000e+00,1.000000000000e+00,2.931499938965e+02,0.000000000000e+00,0.000000000000e+00,1,3.600000000000e+02,6.250000000000e+02,3.600000000000e+02,0.000000000000e+00
0.000000000000e+00,1.000000000000e+00,8.080190625000e+05,8.080190625000e+05,0.000000000000e+00,1.000000000000e+00,1.000000000000e+00,1.000000000000e+00,0.000000000000e+00,1.000000000000e+00,2.931499938965e+02,5.635860934854e-02,0.000000000000e+00,1,3.660000000000e+02,6.250000000000e+02,3.660000000000e+02,0.000000000000e+00
0.000000000000e+00,1.000000000000e+00,8.314865625000e+05,8.314865625000e+05,0.000000000000e+00,1.000000000000e+00,1.000000000000e+00,1.000000000000e+00,0.000000000000e+00,1.000000000000e+00,2.931499938965e+02,5.454846620560e-01,0.000000000000e+00,1,3.720000000000e+02,6.250000000000e+02,3.720000000000e+02,0.000000000000e+00
0.000000000000e+00,1.000000000000e+00,8.537229375000e+05,8.537229375000e+05,0.000000000000e+00,1.000000000000e+00,1.000000000000e+00,1.000000000000e+00,0.000000000000e+00,1.000000000000e+00,2.931499938965e+02,1.000000000000e+00,0.000000000000e+00,1,3.780000000000e+02,6.250000000000e+02,3.780000000000e+02,0.000000000000e+00
0.000000000000e+00,1.000000000000e+00,8.536843125000e+05,8.536843125000e+05,0.000000000000e+00,1.000000000000e+00,1.000000000000e+00,1.000000000000e+00,0.000000000000e+00,1.000000000000e+00,2.931499938965e+02,1.000000000000e+00,0.000000000000e+00,1,3.840000000000e+02,6.250000000000e+02,3.840000000000e+02,0.000000000000e+00
0.000000000000e+00,1.000000000000e+00,8.070236250000e+05,8.070236250000e+05,0.000000000000e+00,1.000000000000e+00,1.000000000000e+00,1.000000000000e+00,0.000000000000e+00,1.000000000000e+00,2.931499938965e+02,5.853623151779e-01,0.000000000000e+00,1,3.900000000000e+02,6.250000000000e+02,3.900000000000e+02,0.000000000000e+00
0.000000000000e+00,1.000000000000e+00,7.463149375000e+05,7.463149375000e+05,0.000000000000e+00,1.000000000000e+00,1.000000000000e+00,1.000000000000e+00,0.000000000000e+00,1.000000000000e+00,2.931499938965e+02,9.994746185839e-03,0.000000000000e+00,1,3.960000000000e+02,6.250000000000e+02,3.960000000000e+02,0.000000000000e+00
0.000000000000e+00,1.000000000000e+00,6.919965625000e+05,6.919965625000e+05,0.000000000000e+00,1.000000000000e+00,1.000000000000e+00,1.000000000000e+00,0.000000000000e+00,1.000000000000e+00,2.931499938965e+02,0.000000000000e+00,0.000000000000e+00,1,4.020000000000e+02,6.250000000000e+02,4.020000000000e+02,0.000000000000e+00
0.000000000000e+00,1.000000000000e+00,6.377249375000e+05,6.377249375000e+05,0.000000000000e+00,1.000000000000e+00,1.000000000000e+00,1.000000000000e+00,0.000000000000e+00,1.000000000000e+00,2.931499938965e+02,0.000000000000e+00,0.000000000000e+00,1,4.080000000000e+02,6.250000000000e+02,4.080000000000e+02,0.000000000000e+00
0.000000000000e+00,1.000000000000e+00,5.879491875000e+05,5.879491875000e+05,0.000000000000e+00,1.000000000000e+00,1.000000000000e+00,1.000000000000e+00,0.000000000000e+00,1.000000000000e+00,2.931499938965e+02,0.000000000000e+00,0.000000000000e+00,1,4.140000000000e+02,6.250000000000e+02,4.140000000000e+02,0.000000000000e+00
0.000000000000e+00,1.000000000000e+00,5.377882500000e+05,5.377882500000e+05,0.000000000000e+00,1.000000000000e+00,1.000000000000e+00,1.000000000000e+00,0.000000000000e+00,1.000000000000e+00,2.931499938965e+02,0.000000000000e+00,0.000000000000e+00,1,4.200000000000e+02,6.250000000000e+02,4.200000000000e+02,0.000000000000e+00
0.000000000000e+00,1.000000000000e+00,4.904635312500e+05,4.904635312500e+05,0.000000000000e+00,1.000000000000e+00,1.000000000000e+00,1.000000000000e+00,0.000000000000e+00,1.000000000000e+00,2.931499938965e+02,0.000000000000e+00,0.000000000000e+00,1,4.260000000000e+02,6.250000000000e+02,4.260000000000e+02,0.000000000000e+00
0.000000000000e+00,1.000000000000e+00,4.436431250000e+05,4.436431250000e+05,0.000000000000e+00,1.000000000000e+00,1.000000000000e+00,1.000000000000e+00,0.000000000000e+00,1.000000000000e+00,2.931499938965e+02,0.000000000000e+00,0.000000000000e+00,1,4.320000000000e+02,6.250000000000e+02,4.320000000000e+02,0.000000000000e+00
0.000000000000e+00,1.000000000000e+00,3.956137500000e+05,3.956137500000e+05,0.000000000000e+00,1.000000000000e+00,1.000000000000e+00,1.000000000000e+00,0.000000000000e+00,1.000000000000e+00,2.931499938965e+02,0.000000000000e+00,0.000000000000e+00,1,4.380000000000e+02,6.250000000000e+02,4.380000000000e+02,0.000000000000e+00
0.000000000000e+00,1.000000000000e+00,3.504871562500e+05,3.504871562500e+05,0.000000000000e+00,1.000000000000e+00,1.000000000000e+00,1.000000000000e+00,0.000000000000e+00,1.000000000000e+00,2.931499938965e+02,0.000000000000e+00,0.000000000000e+00,1,4.440000000000e+02,6.250000000000e+02,4.440000000000e+02,0.000000000000e+00
0.000000000000e+00,1.000000000000e+00,3.017060625000e+05,3.017060625000e+05,0.000000000000e+00,1.000000000000e+00,1.000000000000e+00,1.000000000000e+00,0.000000000000e+00,1.000000000000e+00,2.931499938965e+02,0.000000000000e+00,0.000000000000e+00,1,4.500000000000e+02,6.250000000000e+02,4.500000000000e+02,0.000000000000e+00
0.000000000000e+00,1.000000000000e+00,2.535512187500e+05,2.535512187500e+05,0.000000000000e+00,1.000000000000e+00,1.000000000000e+00,1.000000000000e+00,0.000000000000e+00,1.000000000000e+00,2.931499938965e+02,0.000000000000e+00,0.000000000000e+00,1,4.560000000000e+02,6.250000000000e+02,4.560000000000e+02,0.000000000000e+00
0.000000000000e+00,1.000000000000e+00,2.041074531250e+05,2.041074531250e+05,0.000000000000e+00,1.000000000000e+00,1.000000000000e+00,1.000000000000e+00,0.000000000000e+00,1.000000000000e+00,2.931499938965e+02,0.000000000000e+00,0.000000000000e+00,1,4.620000000000e+02,6.250000000000e+02,4.620000000000e+02,0.000000000000e+00
0.000000000000e+00,1.000000000000e+00,1.558581875000e+05,1.558581875000e+05,0.000000000000e+00,1.000000000000e+00,1.000000000000e+00,1.000000000000e+00,0.000000000000e+00,1.000000000000e+00,2.931499938965e+02,0.000000000000e+00,0.000000000000e+00,1,4.680000000000e+02,6.250000000000e+02,4.680000000000e+02,0.000000000000e+00
0.000000000000e+00,1.000000000000e+00,1.092252500000e+05,1.092252500000e+05,0.000000000000e+00,1.000000000000e+00,1.000000000000e+00,1.000000000000e+00,0.000000000000e+00,1.000000000000e+00,2.931499938965e+02,0.000000000000e+00,0.000000000000e+00,1,4.740000000000e+02,6.250000000000e+02,4.740000000000e+02,0.000000000000e+00
0.000000000000e+00,1.000000000000e+00,6.686119531250e+04,6.686119531250e+04,0.000000000000e+00,1.000000000000e+00,1.000000000000e+00,1.000000000000e+00,0.000000000000e+00,1.000000000000e+00,2.931499938965e+02,1.939827203751e-01,0.000000000000e+00,1,4.800000000000e+02,6.250000000000e+02,4.800000000000e+02,0.000000000000e+00
0.000000000000e+00,1.000000000000e+00,2.718575976562e+04,2.718575976562e+04,0.000000000000e+00,1.000000000000e+00,1.000000000000e+00,1.000000000000e+00,0.000000000000e+00,1.000000000000e+00,2.931499938965e+02,8.777459263802e-01,0.000000000000e+00,1,4.860000000000e+02,6.250000000000e+02,4.860000000000e+02,0.000000000000e+00
0.000000000000e+00,1.000000000000e+00,2.098121093750e+04,2.098121093750e+04,0.000000000000e+00,1.000000000000e+00,1.000000000000e+00,1.000000000000e+00,0.000000000000e+00,1.000000000000e+00,2.931499938965e+02,5.946539044380e-01,0.000000000000e+00,1,4.920000000000e+02,6.250000000000e+02,4.920000000000e+02,0.000000000000e+00
0.000000000000e+00,1.000000000000e+00,2.172762890625e+04,2.172762890625e+04,0.000000000000e+00,1.000000000000e+00,1.000000000000e+00,1.000000000000e+00,0.000000000000e+00,1.000000000000e+00,2.931499938965e+02,7.068480551243e-02,0.000000000000e+00,1,4.980000000000e+02,6.250000000000e+02,4.980000000000e+02,0.000000000000e+00
0.000000000000e+00,1.000000000000e+00,2.212480859375e+04,2.212480859375e+04,0.000000000000e+00,1.000000000000e+00,1.000000000000e+00,1.000000000000e+00,0.000000000000e+00,1.000000000000e+00,2.931499938965e+02,4.941260218620e-01,0.000000000000e+00,1,5.040000000000e+02,6.250000000000e+02,5.040000000000e+02,0.000000000000e+00
0.000000000000e+00,1.000000000000e+00,2.256285937500e+04,2.256285937500e+04,0.000000000000e+00,1.000000000000e+00,1.000000000000e+00,1.000000000000e+00,0.000000000000e+00,1.000000000000e+00,2.931499938965e+02,8.961942791939e-01,0.000000000000e+00,1,5.100000000000e+02,6.250000000000e+02,5.100000000000e+02,0.000000000000e+00
0.000000000000e+00,1.000000000000e+00,2.302992578125e+04,2.302992578125e+04,0.000000000000e+00,1.000000000000e+00,1.000000000000e+00,1.000000000000e+00,0.000000000000e+00,1.000000000000e+00,2.931499938965e+02,1.675504297018e-01,0.000000000000e+00,1,5.160000000000e+02,6.250000000000e+02,5.160000000000e+02,0.000000000000e+00
0.000000000000e+00,1.000000000000e+00,2.356195703125e+04,2.356195703125e+04,0.000000000000e+00,1.000000000000e+00,1.000000000000e+00,1.000000000000e+00,0.000000000000e+00,1.000000000000e+00,2.931499938965e+02,3.834663331509e-01,0.000000000000e+00,1,5.220000000000e+02,6.250000000000e+02,5.220000000000e+02,0.000000000000e+00
0.000000000000e+00,1.000000000000e+00,2.409089257812e+04,2.409089257812e+04,0.000000000000e+00,1.000000000000e+00,1.000000000000e+00,1.000000000000e+00,0.000000000000e+00,1.000000000000e+00,2.931499938965e+02,1.000000000000e+00,0.000000000000e+00,1,5.280000000000e+02,6.250000000000e+02,5.280000000000e+02,0.000000000000e+00
0.000000000000e+00,1.000000000000e+00,2.355758398438e+04,2.355758398438e+04,0.000000000000e+00,1.000000000000e+00,1.000000000000e+00,1.000000000000e+00,0.000000000000e+00,1.000000000000e+00,2.931499938965e+02,3.319550454617e-01,0.000000000000e+00,1,5.340000000000e+02,6.250000000000e+02,5.340000000000e+02,0.000000000000e+00
0.000000000000e+00,1.000000000000e+00,2.318577539062e+04,2.318577539062e+04,0.000000000000e+00,1.000000000000e+00,1.000000000000e+00,1.000000000000e+00,0.000000000000e+00,1.000000000000e+00,2.931499938965e+02,2.569311857224e-01,0.000000000000e+00,1,5.400000000000e+02,6.250000000000e+02,5.400000000000e+02,0.000000000000e+00
0.000000000000e+00,1.000000000000e+00,2.293679882812e+04,2.293679882812e+04,0.000000000000e+00,1.000000000000e+00,1.000000000000e+00,1.000000000000e+00,0.000000000000e+00,1.000000000000e+00,2.931499938965e+02,0.000000000000e+00,0.000000000000e+00,1,5.460000000000e+02,6.250000000000e+02,5.460000000000e+02,0.000000000000e+00
0.000000000000e+00,1.000000000000e+00,2.267637304688e+04,2.267637304688e+04,0.000000000000e+00,1.000000000000e+00,1.000000000000e+00,1.000000000000e+00,0.000000000000e+00,1.000000000000e+00,2.931499938965e+02,0.000000000000e+00,0.000000000000e+00,1,5.520000000000e+02,6.250000000000e+02,5.520000000000e+02,0.000000000000e+00
0.000000000000e+00,1.000000000000e+00,2.244487890625e+04,2.244487890625e+04,0.000000000000e+00,1.000000000000e+00,1.000000000000e+00,1.000000000000e+00,0.000000000000e+00,1.000000000000e+00,2.931499938965e+02,0.000000000000e+00,0.000000000000e+00,1,5.580000000000e+02,6.250000000000e+02,5.580000000000e+02,0.000000000000e+00
0.000000000000e+00,1.000000000000e+00,2.226899804688e+04,2.226899804688e+04,0.000000000000e+00,1.000000000000e+00,1.000000000000e+00,1.000000000000e+00,0.000000000000e+00,1.000000000000e+00,2.931499938965e+02,0.000000000000e+00,0.000000000000e+00,1,5.640000000000e+02,6.250000000000e+02,5.640000000000e+02,0.000000000000e+00
0.000000000000e+00,1.000000000000e+00,2.210732617188e+04,2.210732617188e+04,0.000000000000e+00,1.000000000000e+00,1.000000000000e+00,1.000000000000e+00,0.000000000000e+00,1.000000000000e+00,2.931499938965e+02,0.000000000000e+00,0.000000000000e+00,1,5.700000000000e+02,6.250000000000e+02,5.700000000000e+02,0.000000000000e+00
0.000000000000e+00,1.000000000000e+00,2.198950000000e+04,2.198950000000e+04,0.000000000000e+00,1.000000000000e+00,1.000000000000e+00,1.000000000000e+00,0.000000000000e+00,1.000000000000e+00,2.931499938965e+02,0.000000000000e+00,0.000000000000e+00,1,5.760000000000e+02,6.250000000000e+02,5.760000000000e+02,0.000000000000e+00
0.000000000000e+00,1.000000000000e+00,2.188332421875e+04,2.188332421875e+04,0.000000000000e+00,1.000000000000e+00,1.000000000000e+00,1.000000000000e+00,0.000000000000e+00,1.000000000000e+00,2.931499938965e+02,0.000000000000e+00,0.000000000000e+00,1,5.820000000000e+02,6.250000000000e+02,5.820000000000e+02,0.000000000000e+00
0.000000000000e+00,1.000000000000e+00,2.181016406250e+04,2.181016406250e+04,0.000000000000e+00,1.000000000000e+00,1.000000000000e+00,1.000000000000e+00,0.000000000000e+00,1.000000000000e+00,2.931499938965e+02,0.000000000000e+00,0.000000000000e+00,1,5.880000000000e+02,6.250000000000e+02,5.880000000000e+02,0.000000000000e+00
0.000000000000e+00,1.000000000000e+00,2.177165429688e+04,2.177165429688e+04,0.000000000000e+00,1.000000000000e+00,1.000000000000e+00,1.000000000000e+00,0.000000000000e+00,1.000000000000e+00,2.931499938965e+02,0.000000000000e+00,0.000000000000e+00,1,5.940000000000e+02,6.250000000000e+02,5.940000000000e+02,0.000000000000e+00
0.000000000000e+00,1.000000000000e+00,2.173314453125e+04,2.173314453125e+04,0.000000000000e+00,1.000000000000e+00,1.000000000000e+00,1.000000000000e+00,0.000000000000e+00,1.000000000000e+00,2.931499938965e+02,0.000000000000e+00,0.000000000000e+00,1,6.000000000000e+02,6.250000000000e+02,6.000000000000e+02,0.000000000000e+00
