<?xml version="1.0"?>
<VTKFile type="UnstructuredGrid" version="0.1" byte_order="LittleEndian">
  <UnstructuredGrid>
    <Piece NumberOfCells="1078" NumberOfPoints="577">
      <PointData Scalars="Sn">
        <DataArray type="Float32" Name="Sn" NumberOfComponents="1" format="ascii">
          0 0 0 0 0 0 0 0 0 0 0 0
          0 0 0 0 0 0 0 0 0 0 0 0
          0 0 0 0 0 0 0 0 0 0 0 0
          0 0 0 0 0 0 0 0 0 0 0 0
          0 0 0 0 0 0 0 0 0 0 0 0
          0 0 0 0 0 0 0 0 0 0 0 0
          0 0 0 0 0 0 0 0 0 0 0 0
          0 0 0 0 0 0 0 0 0 0 0 0
          0 0 0 0 0 0 0 0 0 0 0 0
          0 0 0 0 0 0 0 0 0 0 0 0
          0 0 0 0 0 0 0 0 0 0 0 0
          0 0 0 0 0 0 0 0 0 0 0 0
          0 0 0 0 0 0 0 0 0 0 0 0
          0 0 0 0 0 0 0 0 0 0 0 0
          0 0 0 0 0 0 0 0 0 0 0 0
          0 0 0 0 0 0 0 0 0 0 0 0
          0 0 0 0 0 0 0 0 0 0 0 0
          0 0 0 0 0 0 0 0 0 0 0 0
          0 0 0 0 0 0 0 0 0 0 0 0
          0 0 0 0 0 0 0 0 0 0 0 0
          0 0 0 0 0 0 0 0 0 0 0 0
          0 0 0 0 0 0 0 0 0 0 0 0
          0 0 0 0 0 0 0 0 0 0 0 0
          0 0 0 0 0 0 0 0 0 0 0 0
          0 0 0 0 0 0 0 0 0 0 0 0
          0 0 0 0 0 0 0 0 0 0 0 0
          0 0 0 0 0 0 0 0 0 0 0 0
          0 0 0 0 0 0 0 0 0 0 0 0
          0 0 0 0 0 0 0 0 0 0 0 0
          0 0 0 0 0 0 0 0 0 0 0 0
          0 0 0 0 0 0 0 0 0 0 0 0
          0 0 0 0 0 0 0 0 0 0 0 0
          0 0 0 0 0 0 0 0 0 0 0 0
          0 0 0 0 0 0 0 0 0 0 0 0
          0 0 0 0 0 0 0 0 0 0 0 0
          0 0 0 0 0 0 0 0 0 0 0 0
          0 0 0 0 0 0 0 0 0 0 0 0
          0 0 0 0 0 0 0 0 0 0 0 0
          0 0 0 0 0 0 0 0 0 0 0 0
          0 0 0 0 0 0 0 0 0 0 0 0
          0 0 0 0 0 0 0 0 0 0 0 0
          0 0 0 0 0 0 0 0 0 0 0 0
          0 0 0 0 0 0 0 0 0 0 0 0
          0 0 0 0 0 0 0 0 0 0 0 0
          0 0 0 0 0 0 0 0 0 0 0 0
          0 0 0 0 0 0 0 0 0 0 0 0
          0 0 0 0 0 0 0 0 0 0 0 0
          0 0 0 0 0 0 0 0 0 0 0 0
          0
        </DataArray>
        <DataArray type="Float32" Name="Sw" NumberOfComponents="1" format="ascii">
          1 1 1 1 1 1 1 1 1 1 1 1
          1 1 1 1 1 1 1 1 1 1 1 1
          1 1 1 1 1 1 1 1 1 1 1 1
          1 1 1 1 1 1 1 1 1 1 1 1
          1 1 1 1 1 1 1 1 1 1 1 1
          1 1 1 1 1 1 1 1 1 1 1 1
          1 1 1 1 1 1 1 1 1 1 1 1
          1 1 1 1 1 1 1 1 1 1 1 1
          1 1 1 1 1 1 1 1 1 1 1 1
          1 1 1 1 1 1 1 1 1 1 1 1
          1 1 1 1 1 1 1 1 1 1 1 1
          1 1 1 1 1 1 1 1 1 1 1 1
          1 1 1 1 1 1 1 1 1 1 1 1
          1 1 1 1 1 1 1 1 1 1 1 1
          1 1 1 1 1 1 1 1 1 1 1 1
          1 1 1 1 1 1 1 1 1 1 1 1
          1 1 1 1 1 1 1 1 1 1 1 1
          1 1 1 1 1 1 1 1 1 1 1 1
          1 1 1 1 1 1 1 1 1 1 1 1
          1 1 1 1 1 1 1 1 1 1 1 1
          1 1 1 1 1 1 1 1 1 1 1 1
          1 1 1 1 1 1 1 1 1 1 1 1
          1 1 1 1 1 1 1 1 1 1 1 1
          1 1 1 1 1 1 1 1 1 1 1 1
          1 1 1 1 1 1 1 1 1 1 1 1
          1 1 1 1 1 1 1 1 1 1 1 1
          1 1 1 1 1 1 1 1 1 1 1 1
          1 1 1 1 1 1 1 1 1 1 1 1
          1 1 1 1 1 1 1 1 1 1 1 1
          1 1 1 1 1 1 1 1 1 1 1 1
          1 1 1 1 1 1 1 1 1 1 1 1
          1 1 1 1 1 1 1 1 1 1 1 1
          1 1 1 1 1 1 1 1 1 1 1 1
          1 1 1 1 1 1 1 1 1 1 1 1
          1 1 1 1 1 1 1 1 1 1 1 1
          1 1 1 1 1 1 1 1 1 1 1 1
          1 1 1 1 1 1 1 1 1 1 1 1
          1 1 1 1 1 1 1 1 1 1 1 1
          1 1 1 1 1 1 1 1 1 1 1 1
          1 1 1 1 1 1 1 1 1 1 1 1
          1 1 1 1 1 1 1 1 1 1 1 1
          1 1 1 1 1 1 1 1 1 1 1 1
          1 1 1 1 1 1 1 1 1 1 1 1
          1 1 1 1 1 1 1 1 1 1 1 1
          1 1 1 1 1 1 1 1 1 1 1 1
          1 1 1 1 1 1 1 1 1 1 1 1
          1 1 1 1 1 1 1 1 1 1 1 1
          1 1 1 1 1 1 1 1 1 1 1 1
          1
        </DataArray>
        <DataArray type="Float32" Name="pn" NumberOfComponents="1" format="ascii">
          1.71291 1.76897 1.70401 1.82441 1.8026 1.86047 1.57807 1.62778 1.6036 1.85417 1.64677 1.75222
          1.82217 1.79852 1.89058 1.87964 1.84448 1.75758 1.81431 1.78601 1.66903 1.68161 1.74332 1.71421
          1.75315 1.69709 1.64942 1.62492 1.82527 1.82338 1.74992 1.60434 1.5 1.54768 1.54008 1.66667
          1.69491 1.63728 1.66667 1.63681 1.69478 2 1.96264 1.95267 1.5 1.53736 1.54767 1.83333
          1.86489 1.80564 1.83333 1.80532 1.8643 2 1.95268 1.95995 1.7829 2 1.94444 1.95239
          2 1.5 1.5 1.54878 2 1.95122 1.94444 1.55556 2 1.5 1.54761 1.5
          1.55556 1.85417 1.89927 1.87283 1.64583 1.63921 1.69752 1.5 1.61111 1.5 1.88889 1.61111
          2 1.88889 2 1.92268 1.67774 1.57815 1.60183 1.67449 1.82849 1.92274 1.79121 1.92055
          1.84888 1.67588 1.74571 1.67291 1.5 1.5 1.54911 1.77778 1.75 1.72222 1.77778 1.72222
          1.75 2 1.94985 2 1.86722 1.71531 1.57917 1.9164 1.90094 1.5836 1.6404 1.9164
          1.5836 1.78308 1.57908 1.92044 1.71866 1.91329 1.96429 1.53601 1.91317 1.58717 1.96406 1.53578
          1.58703 1.2256 1.27694 1.22222 1 1.05 1.04972 1 1.05234 1.05835 1.27778 1
          1 1.05403 1.05556 1.17734 1.19641 1.13312 1 1.14628 1.31835 1.35417 1.36897 1.31413
          1 1.35468 1.29739 1.34625 1.18266 1.18837 1.23412 1.21818 1.1782 1.13968 1.20463 1.15883
          1.41444 1.39583 1.32541 1.27491 1.38579 1.36951 1.34867 1.24618 1.22824 1.27441 1.24937 1.44803
          1.45053 1.44444 1.18199 1.34829 1.29947 1.21617 1.3251 1.25 1.29167 1.27314 1.22585 1.1
          1.15 1.12812 1.43781 1.28636 1.45026 1.10723 1.09348 1.14707 1.40361 1.33333 1.36563 1.38889
          1.4154 1.39885 1 1 1.04859 1.11111 1.13688 1.16667 1.46476 1.44373 1 1
          1.0474 1.46582 1.36656 1.34852 1.37726 1.39086 1.42219 1.21204 1.45711 1.31092 1.28626 1.31863
          1.18716 1.03782 1.24958 1.08576 1.15306 1.31584 1.25227 1.47171 1.10411 1.03617 1.27083 1.22563
          1.11741 1.29788 1.41667 1.45833 1.12144 1.08355 1.17593 1.46243 1.18437 1.08006 1.10058 1.08821
          1.40198 1.07585 1.32628 1.42296 1.29258 1.2 1.4206 1.03638 1.09115 1.46226 1.14368 1.33333
          1.25501 1.21518 1.10086 1.375 1.03611 1.37664 1.32864 1.41201 1.94284 2 1.94796 1.5
          1.55003 1.5 1.77778 1.77578 1.72534 2 2 1.94597 1.94444 2 1.5752 1.59986
          1.62615 1.72222 1.64683 1.56343 1.56199 1.52715 1.52605 1.55556 1.62714 1.58974 1.61519 1.79824
          1.77344 1.75688 1.82402 1.91987 1.87007 1.88857 1.84117 1.57795 1.53118 1.65966 1.81334 1.7395
          1.74048 1.7942 1.60627 1.57881 1.55909 1.64635 1.75827 1.95053 2 1.53387 1.69341 1.69433
          1.67666 1.76693 1.5 1.53969 1.5 1.52396 1.5 1.54885 1.5 1.53495 1.66219 1.86093
          1.749 1.71124 1.71089 1.77396 2 2 1.95221 1.91396 1.8541 1.88889 1.86362 1.83333
          2 2 1.94935 1.62075 1.65496 1.66667 1.63555 1.61111 1.80556 1.89809 1.85266 1.59647
          1.69899 1.81162 1.59168 1.70327 1.73218 1.8108 1.76954 1.96184 1.81414 1.8534 1.91272 1.74772
          1.96348 1.89693 1.53267 1.8604 1.68493 1.7283 1.72256 1.82026 1.86265 1.5 1.5 1.67946
          1.58462 1.67557 1.57282 1.7151 1.82414 1.63645 1.53843 1.62553 1.67677 1.92449 1.67301 1.9027
          1.5 1.72649 1.90955 1.96392 1.91048 1.78721 1.5 1.69026 1.90743 1.78986 1.5 1.58803
          1.66255 1.88674 1.96386 1.17531 1.15702 1.19483 1.13571 1.07154 1.09683 1.12286 1.21715 1.25
          1.21711 1 1 1.05137 1.1 1.15 1.12807 1.17549 1.17773 1.17819 1 1.03981
          1 1.05 1 1.03911 1.03337 1.07154 1.03337 1.13823 1.08876 1.07757 1.08181 1.10553
          1.21541 1.21541 1.21855 1.21855 1.25 1.25 1.25 1.25 1.25 1.2 1.12258 1.17813
          1.12758 1.15791 1.10612 1.07187 1.12242 1.09568 1.14385 1.07187 1.05098 1.17813 1.19902 1
          1 1.1 1.15 1.25 1.25 1 1.03925 1.25 1.21075 1.2 1.25 1.20888
          1.25 1 1.04112 1 1.05 1.03279 1.07708 1.21721 1.17292 1.03242 1.17226 1.07774
          1.21758 1.125 1.42233 1.37457 1.37284 1.40455 1.42846 1.44931 1.3975 1.40521 1.375 1.34409
          1.4 1.375 1.35 1.29731 1.32504 1.28341 1.46608 1.3 1.28911 1.46089 1.45 1.42027
          1.32154 1.32973 1.33846 1.35895 1.46742 1.28786 1.32968 1.3125 1.4375 1.27858 1.47142 1.33333
          1.29167 1.45833 1.41667 1.37209 1.375 1.41013 1.375 1.41667 1.375 1.41146 1.46354 1.45833
          1.46614 1.4375 1.39658 1.4375 1.4375 1.47842 1.34039 1.34363 1.33333 1.28137 1.28461 1.29167
          1.3125 1.3125 1.35342 1.27158 1.3125 1.46539 1.375 1.40637 1.46863 1.40637 1.375 1.4375
          1.47842 1.4375 1.40005 1.4375 1.28461 1.34363 1.34217 1.28386 1.3125 1.3125 1.27158 1.3125
          1.35342
        </DataArray>
        <DataArray type="Float32" Name="pw" NumberOfComponents="1" format="ascii">
          1.71291 1.76897 1.70401 1.82441 1.8026 1.86047 1.57807 1.62778 1.6036 1.85417 1.64677 1.75222
          1.82217 1.79852 1.89058 1.87964 1.84448 1.75758 1.81431 1.78601 1.66903 1.68161 1.74332 1.71421
          1.75315 1.69709 1.64942 1.62492 1.82527 1.82338 1.74992 1.60434 1.5 1.54768 1.54008 1.66667
          1.69491 1.63728 1.66667 1.63681 1.69478 2 1.96264 1.95267 1.5 1.53736 1.54767 1.83333
          1.86489 1.80564 1.83333 1.80532 1.8643 2 1.95268 1.95995 1.7829 2 1.94444 1.95239
          2 1.5 1.5 1.54878 2 1.95122 1.94444 1.55556 2 1.5 1.54761 1.5
          1.55556 1.85417 1.89927 1.87283 1.64583 1.63921 1.69752 1.5 1.61111 1.5 1.88889 1.61111
          2 1.88889 2 1.92268 1.67774 1.57815 1.60183 1.67449 1.82849 1.92274 1.79121 1.92055
          1.84888 1.67588 1.74571 1.67291 1.5 1.5 1.54911 1.77778 1.75 1.72222 1.77778 1.72222
          1.75 2 1.94985 2 1.86722 1.71531 1.57917 1.9164 1.90094 1.5836 1.6404 1.9164
          1.5836 1.78308 1.57908 1.92044 1.71866 1.91329 1.96429 1.53601 1.91317 1.58717 1.96406 1.53578
          1.58703 1.2256 1.27694 1.22222 1 1.05 1.04972 1 1.05234 1.05835 1.27778 1
          1 1.05403 1.05556 1.17734 1.19641 1.13312 1 1.14628 1.31835 1.35417 1.36897 1.31413
          1 1.35468 1.29739 1.34625 1.18266 1.18837 1.23412 1.21818 1.1782 1.13968 1.20463 1.15883
          1.41444 1.39583 1.32541 1.27491 1.38579 1.36951 1.34867 1.24618 1.22824 1.27441 1.24937 1.44803
          1.45053 1.44444 1.18199 1.34829 1.29947 1.21617 1.3251 1.25 1.29167 1.27314 1.22585 1.1
          1.15 1.12812 1.43781 1.28636 1.45026 1.10723 1.09348 1.14707 1.40361 1.33333 1.36563 1.38889
          1.4154 1.39885 1 1 1.04859 1.11111 1.13688 1.16667 1.46476 1.44373 1 1
          1.0474 1.46582 1.36656 1.34852 1.37726 1.39086 1.42219 1.21204 1.45711 1.31092 1.28626 1.31863
          1.18716 1.03782 1.24958 1.08576 1.15306 1.31584 1.25227 1.47171 1.10411 1.03617 1.27083 1.22563
          1.11741 1.29788 1.41667 1.45833 1.12144 1.08355 1.17593 1.46243 1.18437 1.08006 1.10058 1.08821
          1.40198 1.07585 1.32628 1.42296 1.29258 1.2 1.4206 1.03638 1.09115 1.46226 1.14368 1.33333
          1.25501 1.21518 1.10086 1.375 1.03611 1.37664 1.32864 1.41201 1.94284 2 1.94796 1.5
          1.55003 1.5 1.77778 1.77578 1.72534 2 2 1.94597 1.94444 2 1.5752 1.59986
          1.62615 1.72222 1.64683 1.56343 1.56199 1.52715 1.52605 1.55556 1.62714 1.58974 1.61519 1.79824
          1.77344 1.75688 1.82402 1.91987 1.87007 1.88857 1.84117 1.57795 1.53118 1.65966 1.81334 1.7395
          1.74048 1.7942 1.60627 1.57881 1.55909 1.64635 1.75827 1.95053 2 1.53387 1.69341 1.69433
          1.67666 1.76693 1.5 1.53969 1.5 1.52396 1.5 1.54885 1.5 1.53495 1.66219 1.86093
          1.749 1.71124 1.71089 1.77396 2 2 1.95221 1.91396 1.8541 1.88889 1.86362 1.83333
          2 2 1.94935 1.62075 1.65496 1.66667 1.63555 1.61111 1.80556 1.89809 1.85266 1.59647
          1.69899 1.81162 1.59168 1.70327 1.73218 1.8108 1.76954 1.96184 1.81414 1.8534 1.91272 1.74772
          1.96348 1.89693 1.53267 1.8604 1.68493 1.7283 1.72256 1.82026 1.86265 1.5 1.5 1.67946
          1.58462 1.67557 1.57282 1.7151 1.82414 1.63645 1.53843 1.62553 1.67677 1.92449 1.67301 1.9027
          1.5 1.72649 1.90955 1.96392 1.91048 1.78721 1.5 1.69026 1.90743 1.78986 1.5 1.58803
          1.66255 1.88674 1.96386 1.17531 1.15702 1.19483 1.13571 1.07154 1.09683 1.12286 1.21715 1.25
          1.21711 1 1 1.05137 1.1 1.15 1.12807 1.17549 1.17773 1.17819 1 1.03981
          1 1.05 1 1.03911 1.03337 1.07154 1.03337 1.13823 1.08876 1.07757 1.08181 1.10553
          1.21541 1.21541 1.21855 1.21855 1.25 1.25 1.25 1.25 1.25 1.2 1.12258 1.17813
          1.12758 1.15791 1.10612 1.07187 1.12242 1.09568 1.14385 1.07187 1.05098 1.17813 1.19902 1
          1 1.1 1.15 1.25 1.25 1 1.03925 1.25 1.21075 1.2 1.25 1.20888
          1.25 1 1.04112 1 1.05 1.03279 1.07708 1.21721 1.17292 1.03242 1.17226 1.07774
          1.21758 1.125 1.42233 1.37457 1.37284 1.40455 1.42846 1.44931 1.3975 1.40521 1.375 1.34409
          1.4 1.375 1.35 1.29731 1.32504 1.28341 1.46608 1.3 1.28911 1.46089 1.45 1.42027
          1.32154 1.32973 1.33846 1.35895 1.46742 1.28786 1.32968 1.3125 1.4375 1.27858 1.47142 1.33333
          1.29167 1.45833 1.41667 1.37209 1.375 1.41013 1.375 1.41667 1.375 1.41146 1.46354 1.45833
          1.46614 1.4375 1.39658 1.4375 1.4375 1.47842 1.34039 1.34363 1.33333 1.28137 1.28461 1.29167
          1.3125 1.3125 1.35342 1.27158 1.3125 1.46539 1.375 1.40637 1.46863 1.40637 1.375 1.4375
          1.47842 1.4375 1.40005 1.4375 1.28461 1.34363 1.34217 1.28386 1.3125 1.3125 1.27158 1.3125
          1.35342
        </DataArray>
        <DataArray type="Float32" Name="pc" NumberOfComponents="1" format="ascii">
          0 0 0 0 0 0 0 0 0 0 0 0
          0 0 0 0 0 0 0 0 0 0 0 0
          0 0 0 0 0 0 0 0 0 0 0 0
          0 0 0 0 0 0 0 0 0 0 0 0
          0 0 0 0 0 0 0 0 0 0 0 0
          0 0 0 0 0 0 0 0 0 0 0 0
          0 0 0 0 0 0 0 0 0 0 0 0
          0 0 0 0 0 0 0 0 0 0 0 0
          0 0 0 0 0 0 0 0 0 0 0 0
          0 0 0 0 0 0 0 0 0 0 0 0
          0 0 0 0 0 0 0 0 0 0 0 0
          0 0 0 0 0 0 0 0 0 0 0 0
          0 0 0 0 0 0 0 0 0 0 0 0
          0 0 0 0 0 0 0 0 0 0 0 0
          0 0 0 0 0 0 0 0 0 0 0 0
          0 0 0 0 0 0 0 0 0 0 0 0
          0 0 0 0 0 0 0 0 0 0 0 0
          0 0 0 0 0 0 0 0 0 0 0 0
          0 0 0 0 0 0 0 0 0 0 0 0
          0 0 0 0 0 0 0 0 0 0 0 0
          0 0 0 0 0 0 0 0 0 0 0 0
          0 0 0 0 0 0 0 0 0 0 0 0
          0 0 0 0 0 0 0 0 0 0 0 0
          0 0 0 0 0 0 0 0 0 0 0 0
          0 0 0 0 0 0 0 0 0 0 0 0
          0 0 0 0 0 0 0 0 0 0 0 0
          0 0 0 0 0 0 0 0 0 0 0 0
          0 0 0 0 0 0 0 0 0 0 0 0
          0 0 0 0 0 0 0 0 0 0 0 0
          0 0 0 0 0 0 0 0 0 0 0 0
          0 0 0 0 0 0 0 0 0 0 0 0
          0 0 0 0 0 0 0 0 0 0 0 0
          0 0 0 0 0 0 0 0 0 0 0 0
          0 0 0 0 0 0 0 0 0 0 0 0
          0 0 0 0 0 0 0 0 0 0 0 0
          0 0 0 0 0 0 0 0 0 0 0 0
          0 0 0 0 0 0 0 0 0 0 0 0
          0 0 0 0 0 0 0 0 0 0 0 0
          0 0 0 0 0 0 0 0 0 0 0 0
          0 0 0 0 0 0 0 0 0 0 0 0
          0 0 0 0 0 0 0 0 0 0 0 0
          0 0 0 0 0 0 0 0 0 0 0 0
          0 0 0 0 0 0 0 0 0 0 0 0
          0 0 0 0 0 0 0 0 0 0 0 0
          0 0 0 0 0 0 0 0 0 0 0 0
          0 0 0 0 0 0 0 0 0 0 0 0
          0 0 0 0 0 0 0 0 0 0 0 0
          0 0 0 0 0 0 0 0 0 0 0 0
          0
        </DataArray>
        <DataArray type="Float32" Name="rhoW" NumberOfComponents="1" format="ascii">
          1 1 1 1 1 1 1 1 1 1 1 1
          1 1 1 1 1 1 1 1 1 1 1 1
          1 1 1 1 1 1 1 1 1 1 1 1
          1 1 1 1 1 1 1 1 1 1 1 1
          1 1 1 1 1 1 1 1 1 1 1 1
          1 1 1 1 1 1 1 1 1 1 1 1
          1 1 1 1 1 1 1 1 1 1 1 1
          1 1 1 1 1 1 1 1 1 1 1 1
          1 1 1 1 1 1 1 1 1 1 1 1
          1 1 1 1 1 1 1 1 1 1 1 1
          1 1 1 1 1 1 1 1 1 1 1 1
          1 1 1 1 1 1 1 1 1 1 1 1
          1 1 1 1 1 1 1 1 1 1 1 1
          1 1 1 1 1 1 1 1 1 1 1 1
          1 1 1 1 1 1 1 1 1 1 1 1
          1 1 1 1 1 1 1 1 1 1 1 1
          1 1 1 1 1 1 1 1 1 1 1 1
          1 1 1 1 1 1 1 1 1 1 1 1
          1 1 1 1 1 1 1 1 1 1 1 1
          1 1 1 1 1 1 1 1 1 1 1 1
          1 1 1 1 1 1 1 1 1 1 1 1
          1 1 1 1 1 1 1 1 1 1 1 1
          1 1 1 1 1 1 1 1 1 1 1 1
          1 1 1 1 1 1 1 1 1 1 1 1
          1 1 1 1 1 1 1 1 1 1 1 1
          1 1 1 1 1 1 1 1 1 1 1 1
          1 1 1 1 1 1 1 1 1 1 1 1
          1 1 1 1 1 1 1 1 1 1 1 1
          1 1 1 1 1 1 1 1 1 1 1 1
          1 1 1 1 1 1 1 1 1 1 1 1
          1 1 1 1 1 1 1 1 1 1 1 1
          1 1 1 1 1 1 1 1 1 1 1 1
          1 1 1 1 1 1 1 1 1 1 1 1
          1 1 1 1 1 1 1 1 1 1 1 1
          1 1 1 1 1 1 1 1 1 1 1 1
          1 1 1 1 1 1 1 1 1 1 1 1
          1 1 1 1 1 1 1 1 1 1 1 1
          1 1 1 1 1 1 1 1 1 1 1 1
          1 1 1 1 1 1 1 1 1 1 1 1
          1 1 1 1 1 1 1 1 1 1 1 1
          1 1 1 1 1 1 1 1 1 1 1 1
          1 1 1 1 1 1 1 1 1 1 1 1
          1 1 1 1 1 1 1 1 1 1 1 1
          1 1 1 1 1 1 1 1 1 1 1 1
          1 1 1 1 1 1 1 1 1 1 1 1
          1 1 1 1 1 1 1 1 1 1 1 1
          1 1 1 1 1 1 1 1 1 1 1 1
          1 1 1 1 1 1 1 1 1 1 1 1
          1
        </DataArray>
        <DataArray type="Float32" Name="rhoN" NumberOfComponents="1" format="ascii">
          1 1 1 1 1 1 1 1 1 1 1 1
          1 1 1 1 1 1 1 1 1 1 1 1
          1 1 1 1 1 1 1 1 1 1 1 1
          1 1 1 1 1 1 1 1 1 1 1 1
          1 1 1 1 1 1 1 1 1 1 1 1
          1 1 1 1 1 1 1 1 1 1 1 1
          1 1 1 1 1 1 1 1 1 1 1 1
          1 1 1 1 1 1 1 1 1 1 1 1
          1 1 1 1 1 1 1 1 1 1 1 1
          1 1 1 1 1 1 1 1 1 1 1 1
          1 1 1 1 1 1 1 1 1 1 1 1
          1 1 1 1 1 1 1 1 1 1 1 1
          1 1 1 1 1 1 1 1 1 1 1 1
          1 1 1 1 1 1 1 1 1 1 1 1
          1 1 1 1 1 1 1 1 1 1 1 1
          1 1 1 1 1 1 1 1 1 1 1 1
          1 1 1 1 1 1 1 1 1 1 1 1
          1 1 1 1 1 1 1 1 1 1 1 1
          1 1 1 1 1 1 1 1 1 1 1 1
          1 1 1 1 1 1 1 1 1 1 1 1
          1 1 1 1 1 1 1 1 1 1 1 1
          1 1 1 1 1 1 1 1 1 1 1 1
          1 1 1 1 1 1 1 1 1 1 1 1
          1 1 1 1 1 1 1 1 1 1 1 1
          1 1 1 1 1 1 1 1 1 1 1 1
          1 1 1 1 1 1 1 1 1 1 1 1
          1 1 1 1 1 1 1 1 1 1 1 1
          1 1 1 1 1 1 1 1 1 1 1 1
          1 1 1 1 1 1 1 1 1 1 1 1
          1 1 1 1 1 1 1 1 1 1 1 1
          1 1 1 1 1 1 1 1 1 1 1 1
          1 1 1 1 1 1 1 1 1 1 1 1
          1 1 1 1 1 1 1 1 1 1 1 1
          1 1 1 1 1 1 1 1 1 1 1 1
          1 1 1 1 1 1 1 1 1 1 1 1
          1 1 1 1 1 1 1 1 1 1 1 1
          1 1 1 1 1 1 1 1 1 1 1 1
          1 1 1 1 1 1 1 1 1 1 1 1
          1 1 1 1 1 1 1 1 1 1 1 1
          1 1 1 1 1 1 1 1 1 1 1 1
          1 1 1 1 1 1 1 1 1 1 1 1
          1 1 1 1 1 1 1 1 1 1 1 1
          1 1 1 1 1 1 1 1 1 1 1 1
          1 1 1 1 1 1 1 1 1 1 1 1
          1 1 1 1 1 1 1 1 1 1 1 1
          1 1 1 1 1 1 1 1 1 1 1 1
          1 1 1 1 1 1 1 1 1 1 1 1
          1 1 1 1 1 1 1 1 1 1 1 1
          1
        </DataArray>
        <DataArray type="Float32" Name="mobW" NumberOfComponents="1" format="ascii">
          1 1 1 1 1 1 1 1 1 1 1 1
          1 1 1 1 1 1 1 1 1 1 1 1
          1 1 1 1 1 1 1 1 1 1 1 1
          1 1 1 1 1 1 1 1 1 1 1 1
          1 1 1 1 1 1 1 1 1 1 1 1
          1 1 1 1 1 1 1 1 1 1 1 1
          1 1 1 1 1 1 1 1 1 1 1 1
          1 1 1 1 1 1 1 1 1 1 1 1
          1 1 1 1 1 1 1 1 1 1 1 1
          1 1 1 1 1 1 1 1 1 1 1 1
          1 1 1 1 1 1 1 1 1 1 1 1
          1 1 1 1 1 1 1 1 1 1 1 1
          1 1 1 1 1 1 1 1 1 1 1 1
          1 1 1 1 1 1 1 1 1 1 1 1
          1 1 1 1 1 1 1 1 1 1 1 1
          1 1 1 1 1 1 1 1 1 1 1 1
          1 1 1 1 1 1 1 1 1 1 1 1
          1 1 1 1 1 1 1 1 1 1 1 1
          1 1 1 1 1 1 1 1 1 1 1 1
          1 1 1 1 1 1 1 1 1 1 1 1
          1 1 1 1 1 1 1 1 1 1 1 1
          1 1 1 1 1 1 1 1 1 1 1 1
          1 1 1 1 1 1 1 1 1 1 1 1
          1 1 1 1 1 1 1 1 1 1 1 1
          1 1 1 1 1 1 1 1 1 1 1 1
          1 1 1 1 1 1 1 1 1 1 1 1
          1 1 1 1 1 1 1 1 1 1 1 1
          1 1 1 1 1 1 1 1 1 1 1 1
          1 1 1 1 1 1 1 1 1 1 1 1
          1 1 1 1 1 1 1 1 1 1 1 1
          1 1 1 1 1 1 1 1 1 1 1 1
          1 1 1 1 1 1 1 1 1 1 1 1
          1 1 1 1 1 1 1 1 1 1 1 1
          1 1 1 1 1 1 1 1 1 1 1 1
          1 1 1 1 1 1 1 1 1 1 1 1
          1 1 1 1 1 1 1 1 1 1 1 1
          1 1 1 1 1 1 1 1 1 1 1 1
          1 1 1 1 1 1 1 1 1 1 1 1
          1 1 1 1 1 1 1 1 1 1 1 1
          1 1 1 1 1 1 1 1 1 1 1 1
          1 1 1 1 1 1 1 1 1 1 1 1
          1 1 1 1 1 1 1 1 1 1 1 1
          1 1 1 1 1 1 1 1 1 1 1 1
          1 1 1 1 1 1 1 1 1 1 1 1
          1 1 1 1 1 1 1 1 1 1 1 1
          1 1 1 1 1 1 1 1 1 1 1 1
          1 1 1 1 1 1 1 1 1 1 1 1
          1 1 1 1 1 1 1 1 1 1 1 1
          1
        </DataArray>
        <DataArray type="Float32" Name="mobN" NumberOfComponents="1" format="ascii">
          0 0 0 0 0 0 0 0 0 0 0 0
          0 0 0 0 0 0 0 0 0 0 0 0
          0 0 0 0 0 0 0 0 0 0 0 0
          0 0 0 0 0 0 0 0 0 0 0 0
          0 0 0 0 0 0 0 0 0 0 0 0
          0 0 0 0 0 0 0 0 0 0 0 0
          0 0 0 0 0 0 0 0 0 0 0 0
          0 0 0 0 0 0 0 0 0 0 0 0
          0 0 0 0 0 0 0 0 0 0 0 0
          0 0 0 0 0 0 0 0 0 0 0 0
          0 0 0 0 0 0 0 0 0 0 0 0
          0 0 0 0 0 0 0 0 0 0 0 0
          0 0 0 0 0 0 0 0 0 0 0 0
          0 0 0 0 0 0 0 0 0 0 0 0
          0 0 0 0 0 0 0 0 0 0 0 0
          0 0 0 0 0 0 0 0 0 0 0 0
          0 0 0 0 0 0 0 0 0 0 0 0
          0 0 0 0 0 0 0 0 0 0 0 0
          0 0 0 0 0 0 0 0 0 0 0 0
          0 0 0 0 0 0 0 0 0 0 0 0
          0 0 0 0 0 0 0 0 0 0 0 0
          0 0 0 0 0 0 0 0 0 0 0 0
          0 0 0 0 0 0 0 0 0 0 0 0
          0 0 0 0 0 0 0 0 0 0 0 0
          0 0 0 0 0 0 0 0 0 0 0 0
          0 0 0 0 0 0 0 0 0 0 0 0
          0 0 0 0 0 0 0 0 0 0 0 0
          0 0 0 0 0 0 0 0 0 0 0 0
          0 0 0 0 0 0 0 0 0 0 0 0
          0 0 0 0 0 0 0 0 0 0 0 0
          0 0 0 0 0 0 0 0 0 0 0 0
          0 0 0 0 0 0 0 0 0 0 0 0
          0 0 0 0 0 0 0 0 0 0 0 0
          0 0 0 0 0 0 0 0 0 0 0 0
          0 0 0 0 0 0 0 0 0 0 0 0
          0 0 0 0 0 0 0 0 0 0 0 0
          0 0 0 0 0 0 0 0 0 0 0 0
          0 0 0 0 0 0 0 0 0 0 0 0
          0 0 0 0 0 0 0 0 0 0 0 0
          0 0 0 0 0 0 0 0 0 0 0 0
          0 0 0 0 0 0 0 0 0 0 0 0
          0 0 0 0 0 0 0 0 0 0 0 0
          0 0 0 0 0 0 0 0 0 0 0 0
          0 0 0 0 0 0 0 0 0 0 0 0
          0 0 0 0 0 0 0 0 0 0 0 0
          0 0 0 0 0 0 0 0 0 0 0 0
          0 0 0 0 0 0 0 0 0 0 0 0
          0 0 0 0 0 0 0 0 0 0 0 0
          0
        </DataArray>
        <DataArray type="Float32" Name="porosity" NumberOfComponents="1" format="ascii">
          1 1 1 1 1 1 1 1 1 1 1 1
          1 1 1 1 1 1 1 1 1 1 1 1
          1 1 1 1 1 1 1 1 1 1 1 1
          1 1 1 1 1 1 1 1 1 1 1 1
          1 1 1 1 1 1 1 1 1 1 1 1
          1 1 1 1 1 1 1 1 1 1 1 1
          1 1 1 1 1 1 1 1 1 1 1 1
          1 1 1 1 1 1 1 1 1 1 1 1
          1 1 1 1 1 1 1 1 1 1 1 1
          1 1 1 1 1 1 1 1 1 1 1 1
          1 1 1 1 1 1 1 1 1 1 1 1
          1 1 1 1 1 1 1 1 1 1 1 1
          1 1 1 1 1 1 1 1 1 1 1 1
          1 1 1 1 1 1 1 1 1 1 1 1
          1 1 1 1 1 1 1 1 1 1 1 1
          1 1 1 1 1 1 1 1 1 1 1 1
          1 1 1 1 1 1 1 1 1 1 1 1
          1 1 1 1 1 1 1 1 1 1 1 1
          1 1 1 1 1 1 1 1 1 1 1 1
          1 1 1 1 1 1 1 1 1 1 1 1
          1 1 1 1 1 1 1 1 1 1 1 1
          1 1 1 1 1 1 1 1 1 1 1 1
          1 1 1 1 1 1 1 1 1 1 1 1
          1 1 1 1 1 1 1 1 1 1 1 1
          1 1 1 1 1 1 1 1 1 1 1 1
          1 1 1 1 1 1 1 1 1 1 1 1
          1 1 1 1 1 1 1 1 1 1 1 1
          1 1 1 1 1 1 1 1 1 1 1 1
          1 1 1 1 1 1 1 1 1 1 1 1
          1 1 1 1 1 1 1 1 1 1 1 1
          1 1 1 1 1 1 1 1 1 1 1 1
          1 1 1 1 1 1 1 1 1 1 1 1
          1 1 1 1 1 1 1 1 1 1 1 1
          1 1 1 1 1 1 1 1 1 1 1 1
          1 1 1 1 1 1 1 1 1 1 1 1
          1 1 1 1 1 1 1 1 1 1 1 1
          1 1 1 1 1 1 1 1 1 1 1 1
          1 1 1 1 1 1 1 1 1 1 1 1
          1 1 1 1 1 1 1 1 1 1 1 1
          1 1 1 1 1 1 1 1 1 1 1 1
          1 1 1 1 1 1 1 1 1 1 1 1
          1 1 1 1 1 1 1 1 1 1 1 1
          1 1 1 1 1 1 1 1 1 1 1 1
          1 1 1 1 1 1 1 1 1 1 1 1
          1 1 1 1 1 1 1 1 1 1 1 1
          1 1 1 1 1 1 1 1 1 1 1 1
          1 1 1 1 1 1 1 1 1 1 1 1
          1 1 1 1 1 1 1 1 1 1 1 1
          1
        </DataArray>
        <DataArray type="Float32" Name="temperature" NumberOfComponents="1" format="ascii">
          293.15 293.15 293.15 293.15 293.15 293.15 293.15 293.15 293.15 293.15 293.15 293.15
          293.15 293.15 293.15 293.15 293.15 293.15 293.15 293.15 293.15 293.15 293.15 293.15
          293.15 293.15 293.15 293.15 293.15 293.15 293.15 293.15 293.15 293.15 293.15 293.15
          293.15 293.15 293.15 293.15 293.15 293.15 293.15 293.15 293.15 293.15 293.15 293.15
          293.15 293.15 293.15 293.15 293.15 293.15 293.15 293.15 293.15 293.15 293.15 293.15
          293.15 293.15 293.15 293.15 293.15 293.15 293.15 293.15 293.15 293.15 293.15 293.15
          293.15 293.15 293.15 293.15 293.15 293.15 293.15 293.15 293.15 293.15 293.15 293.15
          293.15 293.15 293.15 293.15 293.15 293.15 293.15 293.15 293.15 293.15 293.15 293.15
          293.15 293.15 293.15 293.15 293.15 293.15 293.15 293.15 293.15 293.15 293.15 293.15
          293.15 293.15 293.15 293.15 293.15 293.15 293.15 293.15 293.15 293.15 293.15 293.15
          293.15 293.15 293.15 293.15 293.15 293.15 293.15 293.15 293.15 293.15 293.15 293.15
          293.15 293.15 293.15 293.15 293.15 293.15 293.15 293.15 293.15 293.15 293.15 293.15
          293.15 293.15 293.15 293.15 293.15 293.15 293.15 293.15 293.15 293.15 293.15 293.15
          293.15 293.15 293.15 293.15 293.15 293.15 293.15 293.15 293.15 293.15 293.15 293.15
          293.15 293.15 293.15 293.15 293.15 293.15 293.15 293.15 293.15 293.15 293.15 293.15
          293.15 293.15 293.15 293.15 293.15 293.15 293.15 293.15 293.15 293.15 293.15 293.15
          293.15 293.15 293.15 293.15 293.15 293.15 293.15 293.15 293.15 293.15 293.15 293.15
          293.15 293.15 293.15 293.15 293.15 293.15 293.15 293.15 293.15 293.15 293.15 293.15
          293.15 293.15 293.15 293.15 293.15 293.15 293.15 293.15 293.15 293.15 293.15 293.15
          293.15 293.15 293.15 293.15 293.15 293.15 293.15 293.15 293.15 293.15 293.15 293.15
          293.15 293.15 293.15 293.15 293.15 293.15 293.15 293.15 293.15 293.15 293.15 293.15
          293.15 293.15 293.15 293.15 293.15 293.15 293.15 293.15 293.15 293.15 293.15 293.15
          293.15 293.15 293.15 293.15 293.15 293.15 293.15 293.15 293.15 293.15 293.15 293.15
          293.15 293.15 293.15 293.15 293.15 293.15 293.15 293.15 293.15 293.15 293.15 293.15
          293.15 293.15 293.15 293.15 293.15 293.15 293.15 293.15 293.15 293.15 293.15 293.15
          293.15 293.15 293.15 293.15 293.15 293.15 293.15 293.15 293.15 293.15 293.15 293.15
          293.15 293.15 293.15 293.15 293.15 293.15 293.15 293.15 293.15 293.15 293.15 293.15
          293.15 293.15 293.15 293.15 293.15 293.15 293.15 293.15 293.15 293.15 293.15 293.15
          293.15 293.15 293.15 293.15 293.15 293.15 293.15 293.15 293.15 293.15 293.15 293.15
          293.15 293.15 293.15 293.15 293.15 293.15 293.15 293.15 293.15 293.15 293.15 293.15
          293.15 293.15 293.15 293.15 293.15 293.15 293.15 293.15 293.15 293.15 293.15 293.15
          293.15 293.15 293.15 293.15 293.15 293.15 293.15 293.15 293.15 293.15 293.15 293.15
          293.15 293.15 293.15 293.15 293.15 293.15 293.15 293.15 293.15 293.15 293.15 293.15
          293.15 293.15 293.15 293.15 293.15 293.15 293.15 293.15 293.15 293.15 293.15 293.15
          293.15 293.15 293.15 293.15 293.15 293.15 293.15 293.15 293.15 293.15 293.15 293.15
          293.15 293.15 293.15 293.15 293.15 293.15 293.15 293.15 293.15 293.15 293.15 293.15
          293.15 293.15 293.15 293.15 293.15 293.15 293.15 293.15 293.15 293.15 293.15 293.15
          293.15 293.15 293.15 293.15 293.15 293.15 293.15 293.15 293.15 293.15 293.15 293.15
          293.15 293.15 293.15 293.15 293.15 293.15 293.15 293.15 293.15 293.15 293.15 293.15
          293.15 293.15 293.15 293.15 293.15 293.15 293.15 293.15 293.15 293.15 293.15 293.15
          293.15 293.15 293.15 293.15 293.15 293.15 293.15 293.15 293.15 293.15 293.15 293.15
          293.15 293.15 293.15 293.15 293.15 293.15 293.15 293.15 293.15 293.15 293.15 293.15
          293.15 293.15 293.15 293.15 293.15 293.15 293.15 293.15 293.15 293.15 293.15 293.15
          293.15 293.15 293.15 293.15 293.15 293.15 293.15 293.15 293.15 293.15 293.15 293.15
          293.15 293.15 293.15 293.15 293.15 293.15 293.15 293.15 293.15 293.15 293.15 293.15
          293.15 293.15 293.15 293.15 293.15 293.15 293.15 293.15 293.15 293.15 293.15 293.15
          293.15 293.15 293.15 293.15 293.15 293.15 293.15 293.15 293.15 293.15 293.15 293.15
          293.15 293.15 293.15 293.15 293.15 293.15 293.15 293.15 293.15 293.15 293.15 293.15
          293.15
        </DataArray>
        <DataArray type="Float32" Name="isFracture" NumberOfComponents="1" format="ascii">
          0 0 0 0 0 0 0 0 0 0 0 0
          0 0 0 0 0 0 0 0 0 0 0 0
          0 0 0 0 0 0 0 0 1 0 0 1
          0 0 0 0 0 0 0 0 1 0 0 1
          0 0 0 0 0 0 0 0 0 0 0 0
          0 1 1 0 1 0 1 0 0 1 0 1
          1 0 0 0 0 0 0 1 1 1 1 0
          0 0 0 0 0 0 0 0 0 0 0 0
          0 0 0 0 1 1 0 1 0 1 0 0
          0 0 0 0 0 0 0 0 0 0 0 0
          0 0 0 0 0 0 0 0 0 0 0 0
          0 0 0 0 1 1 0 0 0 0 0 0
          0 0 0 0 0 0 0 0 0 0 0 0
          0 0 0 0 0 0 0 0 0 0 0 0
          0 0 0 0 0 0 0 0 0 0 0 0
          0 0 0 0 0 0 0 1 1 0 0 1
          1 0 0 0 0 0 0 0 0 0 0 0
          0 0 0 0 0 0 0 0 0 0 0 0
          0 0 0 0 0 0 0 0 0 0 0 0
          0 0 0 0 0 0 0 0 0 0 0 0
          0 0 1 1 0 0 0 0 0 0 0 0
          0 0 0 0 0 1 0 0 0 0 0 1
          0 0 0 1 0 0 0 0 0 0 0 1
          0 1 0 0 0 0 0 0 0 0 0 0
          0 0 0 0 0 0 0 0 0 0 0 0
          0 0 0 0 0 0 0 0 0 0 0 0
          0 0 0 0 0 0 0 0 0 0 0 0
          0 0 1 0 1 0 1 0 1 0 0 0
          0 0 0 0 0 0 0 0 0 0 0 0
          0 0 0 0 0 0 0 0 0 0 0 0
          0 0 0 0 0 0 0 0 0 0 0 0
          0 0 0 0 0 0 0 0 0 1 1 0
          0 0 0 0 0 0 0 0 0 0 0 0
          1 0 0 0 0 0 1 0 0 0 1 0
          0 0 0 0 0 0 0 0 0 0 0 1
          0 0 0 0 1 1 0 0 0 0 1 0
          0 1 0 0 0 0 0 0 0 0 0 0
          0 0 0 0 1 1 1 1 1 1 0 0
          0 0 0 0 0 0 0 0 0 0 0 0
          0 0 0 1 1 0 0 1 0 0 1 0
          1 0 0 0 0 0 0 0 0 0 0 0
          0 0 0 0 0 0 0 0 0 0 1 0
          0 0 0 0 0 0 0 0 0 0 0 0
          0 0 0 0 0 0 0 0 0 0 0 1
          1 1 1 0 1 0 1 1 1 0 0 1
          0 0 0 0 0 0 0 0 1 0 0 1
          0 0 0 0 0 0 1 0 0 0 1 0
          0 0 0 0 0 0 0 0 0 0 0 0
          0
        </DataArray>
      </PointData>
      <CellData Scalars="process rank">
        <DataArray type="Float32" Name="process rank" NumberOfComponents="1" format="ascii">
          0 0 0 0 0 0 0 0 0 0 0 0
          0 0 0 0 0 0 0 0 0 0 0 0
          0 0 0 0 0 0 0 0 0 0 0 0
          0 0 0 0 0 0 0 0 0 0 0 0
          0 0 0 0 0 0 0 0 0 0 0 0
          0 0 0 0 0 0 0 0 0 0 0 0
          0 0 0 0 0 0 0 0 0 0 0 0
          0 0 0 0 0 0 0 0 0 0 0 0
          0 0 0 0 0 0 0 0 0 0 0 0
          0 0 0 0 0 0 0 0 0 0 0 0
          0 0 0 0 0 0 0 0 0 0 0 0
          0 0 0 0 0 0 0 0 0 0 0 0
          0 0 0 0 0 0 0 0 0 0 0 0
          0 0 0 0 0 0 0 0 0 0 0 0
          0 0 0 0 0 0 0 0 0 0 0 0
          0 0 0 0 0 0 0 0 0 0 0 0
          0 0 0 0 0 0 0 0 0 0 0 0
          0 0 0 0 0 0 0 0 0 0 0 0
          0 0 0 0 0 0 0 0 0 0 0 0
          0 0 0 0 0 0 0 0 0 0 0 0
          0 0 0 0 0 0 0 0 0 0 0 0
          0 0 0 0 0 0 0 0 0 0 0 0
          0 0 0 0 0 0 0 0 0 0 0 0
          0 0 0 0 0 0 0 0 0 0 0 0
          0 0 0 0 0 0 0 0 0 0 0 0
          0 0 0 0 0 0 0 0 0 0 0 0
          0 0 0 0 0 0 0 0 0 0 0 0
          0 0 0 0 0 0 0 0 0 0 0 0
          0 0 0 0 0 0 0 0 0 0 0 0
          0 0 0 0 0 0 0 0 0 0 0 0
          0 0 0 0 0 0 0 0 0 0 0 0
          0 0 0 0 0 0 0 0 0 0 0 0
          0 0 0 0 0 0 0 0 0 0 0 0
          0 0 0 0 0 0 0 0 0 0 0 0
          0 0 0 0 0 0 0 0 0 0 0 0
          0 0 0 0 0 0 0 0 0 0 0 0
          0 0 0 0 0 0 0 0 0 0 0 0
          0 0 0 0 0 0 0 0 0 0 0 0
          0 0 0 0 0 0 0 0 0 0 0 0
          0 0 0 0 0 0 0 0 0 0 0 0
          0 0 0 0 0 0 0 0 0 0 0 0
          0 0 0 0 0 0 0 0 0 0 0 0
          0 0 0 0 0 0 0 0 0 0 0 0
          0 0 0 0 0 0 0 0 0 0 0 0
          0 0 0 0 0 0 0 0 0 0 0 0
          0 0 0 0 0 0 0 0 0 0 0 0
          0 0 0 0 0 0 0 0 0 0 0 0
          0 0 0 0 0 0 0 0 0 0 0 0
          0 0 0 0 0 0 0 0 0 0 0 0
          0 0 0 0 0 0 0 0 0 0 0 0
          0 0 0 0 0 0 0 0 0 0 0 0
          0 0 0 0 0 0 0 0 0 0 0 0
          0 0 0 0 0 0 0 0 0 0 0 0
          0 0 0 0 0 0 0 0 0 0 0 0
          0 0 0 0 0 0 0 0 0 0 0 0
          0 0 0 0 0 0 0 0 0 0 0 0
          0 0 0 0 0 0 0 0 0 0 0 0
          0 0 0 0 0 0 0 0 0 0 0 0
          0 0 0 0 0 0 0 0 0 0 0 0
          0 0 0 0 0 0 0 0 0 0 0 0
          0 0 0 0 0 0 0 0 0 0 0 0
          0 0 0 0 0 0 0 0 0 0 0 0
          0 0 0 0 0 0 0 0 0 0 0 0
          0 0 0 0 0 0 0 0 0 0 0 0
          0 0 0 0 0 0 0 0 0 0 0 0
          0 0 0 0 0 0 0 0 0 0 0 0
          0 0 0 0 0 0 0 0 0 0 0 0
          0 0 0 0 0 0 0 0 0 0 0 0
          0 0 0 0 0 0 0 0 0 0 0 0
          0 0 0 0 0 0 0 0 0 0 0 0
          0 0 0 0 0 0 0 0 0 0 0 0
          0 0 0 0 0 0 0 0 0 0 0 0
          0 0 0 0 0 0 0 0 0 0 0 0
          0 0 0 0 0 0 0 0 0 0 0 0
          0 0 0 0 0 0 0 0 0 0 0 0
          0 0 0 0 0 0 0 0 0 0 0 0
          0 0 0 0 0 0 0 0 0 0 0 0
          0 0 0 0 0 0 0 0 0 0 0 0
          0 0 0 0 0 0 0 0 0 0 0 0
          0 0 0 0 0 0 0 0 0 0 0 0
          0 0 0 0 0 0 0 0 0 0 0 0
          0 0 0 0 0 0 0 0 0 0 0 0
          0 0 0 0 0 0 0 0 0 0 0 0
          0 0 0 0 0 0 0 0 0 0 0 0
          0 0 0 0 0 0 0 0 0 0 0 0
          0 0 0 0 0 0 0 0 0 0 0 0
          0 0 0 0 0 0 0 0 0 0 0 0
          0 0 0 0 0 0 0 0 0 0 0 0
          0 0 0 0 0 0 0 0 0 0 0 0
          0 0 0 0 0 0 0 0 0 0
        </DataArray>
      </CellData>
      <Points>
        <DataArray type="Float32" Name="Coordinates" NumberOfComponents="3" format="ascii">
          0.287094 0.317353 0 0.231028 0.295106 0 0.295988 0.255978 0 0.175588 0.0780741 0
          0.197397 0.127779 0 0.139529 0.103446 0 0.421926 0.175588 0 0.372221 0.197397 0
          0.396397 0.139366 0 0.145833 0.145833 0 0.353225 0.144855 0 0.247779 0.249182 0
          0.177833 0.282519 0 0.20148 0.230985 0 0.109423 0.24242 0 0.120357 0.186647 0
          0.155522 0.213994 0 0.24242 0.390577 0 0.185686 0.37925 0 0.213994 0.344478 0
          0.330965 0.285684 0 0.318387 0.213367 0 0.256676 0.204653 0 0.285789 0.169082 0
          0.246851 0.149268 0 0.302913 0.124564 0 0.350577 0.246663 0 0.375083 0.304355 0
          0.174735 0.176827 0 0.17662 0.324769 0 0.250084 0.104339 0 0.395661 0.250084 0
          0.5 0.333333 0 0.452323 0.364714 0 0.459923 0.305478 0 0.333333 0.5 0
          0.305089 0.462642 0 0.362721 0.452667 0 0.333333 0 0 0.363185 0.0474072 0
          0.305219 0.038446 0 0 0.333333 0 0.0373578 0.305089 0 0.0473331 0.362721 0
          0.5 0.166667 0 0.462639 0.194684 0 0.452335 0.135697 0 0.166667 0.5 0
          0.135114 0.452406 0 0.194359 0.459878 0 0.166667 0 0 0.194684 0.0373605 0
          0.135697 0.0476654 0 0 0.166667 0 0.0473246 0.136643 0 0.0400529 0.194753 0
          0.217097 0.178737 0 0 0 0 0.0555556 0 0 0.0476051 0.0476051 0
          0 0.0555556 0 0.5 0 0 0.5 0.0555556 0 0.451222 0.0487779 0
          0 0.5 0 0.0487779 0.451222 0 0.0555556 0.5 0 0.444444 0 0
          0 0.444444 0 0.5 0.5 0 0.452395 0.452395 0 0.5 0.444444 0
          0.444444 0.5 0 0.145833 0.354167 0 0.100732 0.360691 0 0.127173 0.300958 0
          0.354167 0.354167 0 0.360792 0.399155 0 0.302481 0.372563 0 0.5 0.388889 0
          0.388889 0.5 0 0.5 0.111111 0 0.111111 0.5 0 0.388889 0 0
          0 0.388889 0 0.111111 0 0 0 0.111111 0 0.0773208 0.322262 0
          0.322262 0.422679 0 0.421846 0.327294 0 0.398169 0.366153 0 0.32551 0.077839 0
          0.171506 0.422424 0 0.0772613 0.17329 0 0.208794 0.420396 0 0.0794483 0.209422 0
          0.151124 0.252193 0 0.324125 0.172844 0 0.254287 0.345722 0 0.327087 0.324241 0
          0.5 0.222222 0 0.5 0.277778 0 0.450893 0.250004 0 0.222222 0.5 0
          0.25 0.449853 0 0.277778 0.5 0 0.222222 0 0 0.277778 0 0
          0.250004 0.0491065 0 0 0.222222 0 0.050147 0.25 0 0 0.277778 0
          0.132783 0.39851 0 0.284694 0.0788451 0 0.420827 0.285191 0 0.0836004 0.0836004 0
          0.0990563 0.137723 0 0.4164 0.0836004 0 0.359605 0.102939 0 0.0836004 0.4164 0
          0.4164 0.4164 0 0.216924 0.0790764 0 0.420924 0.216924 0 0.0795624 0.281901 0
          0.281344 0.420633 0 0.0867139 0.0357742 0 0.035706 0.0869031 0 0.463991 0.0869485 0
          0.0868318 0.464006 0 0.412828 0.0359571 0 0.0359423 0.412735 0 0.464224 0.413368 0
          0.41297 0.464292 0 0.774405 0.057164 0 0.723059 0.0520376 0 0.777778 0 0
          1 0.5 0 0.95 0.5 0 0.950276 0.449971 0 1 0.222222 0
          0.947664 0.274658 0 0.941646 0.224218 0 0.722222 0 0 1 0 0
          1 0.0555556 0 0.945972 0.054028 0 0.944444 0 0 0.822656 0.424797 0
          0.803594 0.373847 0 0.866876 0.400139 0 1 0.277778 0 0.853724 0.353167 0
          0.681654 0.436567 0 0.645833 0.472854 0 0.631026 0.438011 0 0.68587 0.473946 0
          1 0.444444 0 0.645315 0.372861 0 0.702611 0.384809 0 0.653754 0.410257 0
          0.817338 0.201763 0 0.811633 0.243119 0 0.765881 0.226556 0 0.781817 0.175977 0
          0.821799 0.0801296 0 0.860321 0.11143 0 0.795367 0.129927 0 0.841175 0.158825 0
          0.585564 0.422048 0 0.604167 0.46882 0 0.674595 0.340341 0 0.725089 0.186655 0
          0.614206 0.260501 0 0.630488 0.205801 0 0.651331 0.259525 0 0.753824 0.393733 0
          0.771757 0.440906 0 0.725591 0.421192 0 0.750627 0.353648 0 0.551966 0.24173 0
          0.54947 0.0494704 0 0.555556 0 0 0.818011 0.466131 0 0.651708 0.30659 0
          0.70053 0.305667 0 0.783827 0.323341 0 0.674904 0.233075 0 0.75 0.5 0
          0.708333 0.5 0 0.726861 0.460311 0 0.774146 0.476039 0 0.9 0.5 0
          0.85 0.5 0 0.871875 0.451154 0 0.562189 0.465046 0 0.713643 0.337808 0
          0.549736 0.139067 0 0.892773 0.251002 0 0.906525 0.289112 0 0.852933 0.288763 0
          0.596392 0.226044 0 0.666667 0 0 0.634372 0.0477866 0 0.611111 0 0
          0.584602 0.0860447 0 0.601146 0.145902 0 1 0.111111 0 1 0.166667 0
          0.951414 0.136383 0 0.888889 0 0 0.863116 0.050654 0 0.833333 0 0
          0.53524 0.345039 0 0.556274 0.379251 0 1 0.333333 0 1 0.388889 0
          0.952601 0.364446 0 0.534182 0.194444 0 0.633444 0.101907 0 0.651479 0.147337 0
          0.622736 0.40353 0 0.609141 0.301009 0 0.577809 0.188383 0 0.787958 0.408321 0
          0.54289 0.296732 0 0.689077 0.267817 0 0.713738 0.230464 0 0.681367 0.189201 0
          0.812836 0.0381579 0 0.962179 0.185856 0 0.750425 0.146597 0 0.914239 0.0872766 0
          0.846943 0.252277 0 0.684159 0.0365243 0 0.747727 0.103074 0 0.528285 0.467335 0
          0.895893 0.139601 0 0.963833 0.315075 0 0.729167 0.271701 0 0.774374 0.277442 0
          0.882594 0.179741 0 0.702125 0.137355 0 0.583333 0.5 0 0.541667 0.5 0
          0.878558 0.320543 0 0.916451 0.415376 0 0.824074 0.324432 0 0.53757 0.427184 0
          0.815631 0.284895 0 0.91994 0.175859 0 0.899417 0.363553 0 0.911789 0.461571 0
          0.598022 0.374474 0 0.924148 0.323231 0 0.673725 0.0755077 0 0.577037 0.32699 0
          0.707419 0.097303 0 0.8 0.5 0 0.579395 0.273508 0 0.963615 0.0904524 0
          0.908853 0.036077 0 0.537737 0.0895161 0 0.85632 0.212795 0 0.666667 0.5 0
          0.744988 0.309742 0 0.784824 0.0925736 0 0.899137 0.210144 0 0.625 0.5 0
          0.963891 0.411968 0 0.623357 0.337454 0 0.671357 0.11326 0 0.587993 0.0361372 0
          0.057164 0.774405 0 0 0.777778 0 0.0520376 0.723059 0 0.5 1 0
          0.449971 0.950276 0 0.5 0.95 0 0.222222 1 0 0.224218 0.941646 0
          0.274658 0.947664 0 0 0.722222 0 0 1 0 0.054028 0.945972 0
          0.0555556 1 0 0 0.944444 0 0.424797 0.822656 0 0.400139 0.866876 0
          0.373847 0.803594 0 0.277778 1 0 0.353167 0.853724 0 0.436567 0.681654 0
          0.438011 0.631026 0 0.472854 0.645833 0 0.473946 0.68587 0 0.444444 1 0
          0.372861 0.645315 0 0.410257 0.653754 0 0.384809 0.702611 0 0.201763 0.817338 0
          0.226556 0.765881 0 0.243119 0.811633 0 0.175977 0.781817 0 0.0801296 0.821799 0
          0.129927 0.795367 0 0.11143 0.860321 0 0.158825 0.841175 0 0.422048 0.585564 0
          0.46882 0.604167 0 0.340341 0.674595 0 0.186655 0.725089 0 0.260501 0.614206 0
          0.259525 0.651331 0 0.205801 0.630488 0 0.393733 0.753824 0 0.421192 0.725591 0
          0.440906 0.771757 0 0.353648 0.750627 0 0.24173 0.551966 0 0.0494704 0.54947 0
          0 0.555556 0 0.466131 0.818011 0 0.30659 0.651708 0 0.305667 0.70053 0
          0.323341 0.783827 0 0.233075 0.674904 0 0.5 0.75 0 0.460311 0.726861 0
          0.5 0.708333 0 0.476039 0.774146 0 0.5 0.9 0 0.451154 0.871875 0
          0.5 0.85 0 0.465046 0.562189 0 0.337808 0.713643 0 0.139067 0.549736 0
          0.251002 0.892773 0 0.288763 0.852933 0 0.289112 0.906525 0 0.226044 0.596392 0
          0 0.666667 0 0 0.611111 0 0.0477866 0.634372 0 0.0860447 0.584602 0
          0.145902 0.601146 0 0.111111 1 0 0.136383 0.951414 0 0.166667 1 0
          0 0.888889 0 0 0.833333 0 0.050654 0.863116 0 0.379251 0.556274 0
          0.345039 0.53524 0 0.333333 1 0 0.364446 0.952601 0 0.388889 1 0
          0.194444 0.534182 0 0.101907 0.633444 0 0.147337 0.651479 0 0.40353 0.622736 0
          0.301009 0.609141 0 0.188383 0.577809 0 0.408321 0.787958 0 0.296732 0.54289 0
          0.267817 0.689077 0 0.189201 0.681367 0 0.230464 0.713738 0 0.0381579 0.812836 0
          0.185856 0.962179 0 0.146597 0.750425 0 0.0872766 0.914239 0 0.252277 0.846943 0
          0.0365243 0.684159 0 0.103074 0.747727 0 0.467335 0.528285 0 0.139601 0.895893 0
          0.315075 0.963833 0 0.271701 0.729167 0 0.277442 0.774374 0 0.179741 0.882594 0
          0.137355 0.702125 0 0.5 0.583333 0 0.5 0.541667 0 0.320543 0.878558 0
          0.415376 0.916451 0 0.324432 0.824074 0 0.427184 0.53757 0 0.284895 0.815631 0
          0.175859 0.91994 0 0.363553 0.899417 0 0.461571 0.911789 0 0.374474 0.598022 0
          0.323231 0.924148 0 0.0755077 0.673725 0 0.32699 0.577037 0 0.097303 0.707419 0
          0.5 0.8 0 0.273508 0.579395 0 0.0904524 0.963615 0 0.036077 0.908853 0
          0.0895161 0.537737 0 0.212795 0.85632 0 0.5 0.666667 0 0.309742 0.744988 0
          0.0925736 0.784824 0 0.210144 0.899137 0 0.5 0.625 0 0.411968 0.963891 0
          0.337454 0.623357 0 0.11326 0.671357 0 0.0361372 0.587993 0 0.824694 0.577672 0
          0.842977 0.62716 0 0.80517 0.625425 0 0.864295 0.595452 0 0.928455 0.571545 0
          0.903174 0.602503 0 0.877144 0.550694 0 0.782853 0.65591 0 0.75 0.625 0
          0.78289 0.594786 0 1 0.6 0 1 0.65 0 0.948626 0.625 0
          0.9 0.75 0 0.85 0.75 0 0.871934 0.702686 0 0.824507 0.674956 0
          0.822269 0.53392 0 0.82181 0.716591 0 1 0.75 0 0.960192 0.710192 0
          1 0.7 0 0.95 0.75 0 1 0.55 0 0.960892 0.539108 0
          0.96663 0.579733 0 0.928455 0.678455 0 0.96663 0.670267 0 0.861773 0.661545 0
          0.911235 0.641053 0 0.922432 0.532584 0 0.918187 0.712052 0 0.894468 0.670439 0
          0.784588 0.5625 0 0.784588 0.6875 0 0.781453 0.528577 0 0.781453 0.721423 0
          0.75 0.666667 0 0.75 0.708333 0 0.75 0.541667 0 0.75 0.583333 0
          0.75 0.75 0 0.8 0.75 0 0.877422 0.627913 0 0.821875 0.821875 0
          0.872418 0.800984 0 0.842086 0.857586 0 0.893882 0.845801 0 0.928125 0.928125 0
          0.877582 0.949016 0 0.904324 0.894198 0 0.85615 0.90425 0 0.928125 0.821875 0
          0.949016 0.872418 0 0.821875 0.928125 0 0.800984 0.877582 0 1 0.9 0
          1 0.85 0 0.9 1 0 0.85 1 0 0.75 0.9 0
          0.75 0.85 0 1 0.8 0 0.960747 0.789253 0 0.75 1 0
          0.789253 0.960747 0 0.8 1 0 0.75 0.95 0 0.791116 0.791116 0
          0.75 0.8 0 1 1 0 0.958884 0.958884 0 1 0.95 0
          0.95 1 0 0.967205 0.921886 0 0.922918 0.967205 0 0.782795 0.828114 0
          0.827082 0.782795 0 0.967578 0.826709 0 0.827742 0.967578 0 0.922258 0.782422 0
          0.782422 0.923291 0 0.875 0.875 0 0.577672 0.824694 0 0.625425 0.80517 0
          0.62716 0.842977 0 0.595452 0.864295 0 0.571545 0.928455 0 0.550694 0.877144 0
          0.602503 0.903174 0 0.594786 0.78289 0 0.625 0.75 0 0.65591 0.782853 0
          0.6 1 0 0.625 0.948626 0 0.65 1 0 0.702686 0.871934 0
          0.674956 0.824507 0 0.716591 0.82181 0 0.53392 0.822269 0 0.7 1 0
          0.710892 0.960892 0 0.539108 0.960892 0 0.55 1 0 0.579733 0.96663 0
          0.678455 0.928455 0 0.670267 0.96663 0 0.661545 0.861773 0 0.641053 0.911235 0
          0.532584 0.922432 0 0.712135 0.918271 0 0.670318 0.894214 0 0.6875 0.784588 0
          0.5625 0.784588 0 0.721423 0.781453 0 0.528577 0.781453 0 0.666667 0.75 0
          0.708333 0.75 0 0.541667 0.75 0 0.583333 0.75 0 0.627913 0.877422 0
          0.625 0.625 0 0.589865 0.589865 0 0.625 0.583333 0 0.583333 0.625 0
          0.625 0.541667 0 0.588542 0.536458 0 0.536458 0.588542 0 0.541667 0.625 0
          0.533864 0.533864 0 0.5625 0.5625 0 0.603423 0.5625 0 0.5625 0.603423 0
          0.5625 0.521577 0 0.521577 0.5625 0 0.659605 0.534605 0 0.656374 0.593626 0
          0.666667 0.625 0 0.718626 0.531374 0 0.715395 0.590395 0 0.708333 0.625 0
          0.6875 0.5625 0 0.6875 0.521577 0 0.646577 0.5625 0 0.728423 0.5625 0
          0.6875 0.603423 0 0.534605 0.659605 0 0.625 0.666667 0 0.593626 0.656374 0
          0.531374 0.718626 0 0.593626 0.718626 0 0.625 0.708333 0 0.5625 0.6875 0
          0.521577 0.6875 0 0.5625 0.646577 0 0.59995 0.6875 0 0.5625 0.725942 0
          0.715395 0.715395 0 0.656374 0.718626 0 0.657827 0.657827 0 0.716136 0.658864 0
          0.6875 0.6875 0 0.6875 0.728423 0 0.728423 0.6875 0 0.6875 0.646577 0
          0.646577 0.6875 0
        </DataArray>
      </Points>
      <Cells>
        <DataArray type="Int32" Name="connectivity" NumberOfComponents="1" format="ascii">
          0 1 2 3 4 5 6 7 8 9 5 4
          10 8 7 11 2 1 12 13 1 11 1 13
          14 15 16 17 18 19 0 2 20 21 22 23
          21 2 22 23 24 25 20 26 27 16 28 13
          19 29 1 24 30 25 26 31 27 32 33 34
          35 36 37 38 39 40 41 42 43 44 45 46
          47 48 49 50 51 52 53 54 55 28 56 13
          29 12 1 57 58 59 57 59 60 61 62 63
          64 65 66 61 63 67 64 68 65 69 70 71
          69 72 70 73 74 75 76 77 78 32 79 33
          35 37 80 81 44 46 82 48 47 38 83 39
          41 43 84 85 50 52 86 54 53 87 75 74
          88 78 77 89 90 27 89 34 33 88 37 36
          91 40 39 87 43 42 6 46 45 92 49 48
          3 52 51 93 55 54 56 22 13 17 94 18
          14 95 15 14 16 96 21 23 97 17 19 98
          0 20 99 76 27 90 11 22 2 100 101 102
          103 104 105 106 107 108 109 110 111 11 13 22
          92 112 18 30 113 25 31 114 27 106 108 51
          109 55 110 100 102 45 103 49 104 107 40 108
          111 110 42 101 34 102 105 104 36 3 5 52
          6 8 46 92 48 112 89 33 90 115 116 54
          117 118 39 119 43 74 120 37 77 10 25 118
          91 118 25 73 18 112 76 78 99 0 99 78
          30 4 121 31 7 122 108 121 51 110 55 95
          102 122 45 104 49 94 108 40 113 110 123 42
          102 34 114 104 124 36 10 7 97 21 97 7
          14 96 75 12 75 96 17 98 78 0 78 98
          115 5 116 117 8 118 119 74 112 120 77 90
          115 52 5 117 46 8 119 112 48 120 90 33
          3 121 4 6 122 7 93 54 116 91 39 118
          87 74 43 88 77 37 30 24 4 31 26 7
          73 75 29 14 75 123 87 123 75 17 78 124
          88 124 78 58 85 125 60 126 86 62 81 127
          66 128 82 83 67 129 84 130 68 79 71 131
          80 132 72 56 24 22 23 22 24 21 26 2
          20 2 26 56 4 24 21 7 26 12 29 75
          30 121 108 14 110 95 30 108 113 14 123 110
          31 122 102 17 104 94 31 102 114 17 124 104
          115 125 52 115 54 126 117 127 46 119 48 128
          117 39 129 119 130 43 120 33 131 120 132 37
          9 28 15 9 4 28 16 15 28 56 28 4
          73 29 18 19 18 29 91 25 113 89 27 114
          107 38 40 111 42 41 101 32 34 105 36 35
          50 106 51 53 55 109 44 100 45 47 49 103
          93 15 95 92 18 94 16 13 96 12 96 13
          19 1 98 0 98 1 93 116 15 9 15 116
          85 52 125 86 126 54 81 46 127 82 128 48
          83 129 39 84 43 130 79 131 33 80 37 132
          23 25 97 10 97 25 20 27 99 76 99 27
          9 116 5 10 118 8 73 112 74 76 90 77
          58 125 59 60 59 126 62 127 63 66 65 128
          67 63 129 68 130 65 71 70 131 72 132 70
          115 59 125 115 126 59 117 63 127 119 128 65
          117 129 63 119 65 130 120 131 70 120 70 132
          3 51 121 93 95 55 6 45 122 92 94 49
          91 113 40 87 42 123 89 114 34 88 36 124
          133 134 135 136 137 138 139 140 141 135 134 142
          143 144 145 143 145 146 147 148 149 139 150 140
          151 149 148 152 153 154 152 155 153 136 138 156
          157 158 159 160 161 162 163 160 162 164 165 166
          167 166 165 168 154 169 157 170 158 171 163 162
          172 173 174 175 176 177 175 178 148 100 179 101
          61 180 62 61 181 180 147 182 176 152 154 159
          183 184 170 185 148 178 167 163 166 186 174 173
          187 188 189 187 189 190 191 192 193 152 159 158
          175 158 178 168 169 194 195 178 158 81 196 44
          176 182 190 197 198 199 172 200 173 201 202 203
          204 205 196 206 207 208 209 210 211 195 170 184
          79 212 213 214 215 216 174 183 172 44 196 217
          204 218 205 219 173 205 168 220 154 183 221 172
          222 205 173 175 223 176 176 189 177 101 179 224
          183 225 184 32 212 79 222 217 196 171 226 227
          211 210 228 164 210 165 207 229 208 171 230 163
          231 165 210 197 199 232 201 233 202 176 190 189
          197 141 140 186 227 226 234 134 133 69 71 235
          147 176 223 167 165 236 214 216 237 238 162 239
          167 160 163 101 224 32 167 236 240 195 158 170
          171 227 241 147 149 193 242 243 194 219 241 227
          199 198 244 245 193 149 185 246 148 161 239 162
          222 179 217 192 182 193 238 225 226 147 193 182
          151 148 246 79 213 247 161 232 248 32 224 212
          100 217 179 171 241 230 164 228 210 249 208 229
          186 226 225 245 250 216 222 200 179 234 230 241
          137 191 251 191 193 251 168 213 252 222 196 205
          188 155 189 253 237 216 245 149 250 175 148 223
          168 247 213 186 173 227 219 227 173 151 246 244
          254 202 233 199 244 246 255 252 213 171 162 226
          147 223 148 137 251 138 242 194 169 245 251 193
          219 205 218 197 140 198 234 256 134 187 190 257
          163 230 166 255 258 221 253 216 250 199 248 232
          254 218 202 255 224 258 151 250 149 231 259 208
          231 210 260 152 189 155 234 166 230 62 261 81
          204 202 218 231 145 259 204 196 261 231 260 145
          238 226 162 167 262 160 79 247 71 139 141 229
          197 232 262 161 248 239 81 261 196 135 228 133
          188 263 155 151 244 250 161 262 232 161 160 262
          195 264 178 152 158 177 164 166 265 207 139 229
          238 239 264 197 266 141 211 228 135 249 236 208
          152 177 189 267 242 169 231 208 236 157 220 252
          243 235 194 245 216 268 249 141 266 185 264 239
          142 233 201 253 250 244 257 190 182 175 177 158
          167 240 262 150 214 237 157 269 170 197 262 266
          215 156 268 194 235 247 62 180 261 157 252 269
          146 260 209 144 206 259 164 133 228 249 229 141
          219 270 241 192 257 182 234 133 265 183 170 269
          222 173 200 203 271 181 204 271 202 164 265 133
          245 138 251 179 200 258 263 153 155 234 241 256
          146 145 260 144 259 145 142 134 233 245 268 138
          150 237 140 44 217 100 172 258 200 267 169 153
          183 174 225 157 159 220 156 138 268 195 184 264
          267 153 263 255 269 252 234 265 166 215 268 216
          183 269 221 254 134 256 209 260 210 206 208 259
          231 236 165 168 252 220 203 202 271 255 213 212
          204 180 271 185 239 248 168 194 247 154 153 169
          69 235 243 181 271 180 253 198 140 185 178 264
          204 261 180 255 212 224 253 140 237 254 233 134
          254 270 218 238 184 225 219 218 270 249 240 236
          154 220 159 71 247 235 179 258 224 255 221 269
          186 225 174 262 240 266 185 248 246 238 264 184
          249 266 240 253 244 198 241 270 256 254 256 270
          199 246 248 172 221 258 272 273 274 275 276 277
          278 279 280 273 281 274 282 283 284 282 285 283
          286 287 288 278 280 289 290 288 287 291 292 293
          291 293 294 275 295 276 296 297 298 299 300 301
          302 300 299 303 304 305 306 305 304 307 308 292
          296 298 309 310 300 302 311 312 313 314 315 316
          314 288 317 103 105 318 64 66 319 64 319 320
          286 316 321 291 297 292 322 309 323 324 317 288
          306 304 302 325 313 312 326 327 328 326 329 327
          330 331 332 291 298 297 314 317 298 307 333 308
          334 298 317 82 47 335 316 329 321 336 337 338
          311 313 339 340 341 342 343 335 344 345 346 347
          348 349 350 334 323 309 80 351 352 353 354 355
          312 311 322 47 356 335 343 344 357 358 344 313
          307 292 359 322 311 360 361 313 344 314 316 362
          316 315 327 105 363 318 322 323 364 35 80 352
          361 335 356 310 365 366 349 367 350 303 305 350
          347 346 368 310 302 369 370 350 305 336 371 337
          340 342 372 316 327 329 336 280 279 325 366 365
          373 272 274 69 374 72 286 362 316 306 375 305
          353 376 354 377 378 300 306 302 299 105 35 363
          306 379 375 334 309 298 310 380 365 286 331 287
          381 333 382 358 365 380 337 383 338 384 287 331
          324 288 385 301 300 378 361 356 318 332 331 321
          377 366 364 286 321 331 290 385 288 80 386 351
          301 387 371 35 352 363 103 318 356 310 369 380
          303 350 367 388 368 346 325 364 366 384 354 389
          361 318 339 373 380 369 277 390 330 330 390 331
          307 391 351 361 344 335 328 327 294 392 354 376
          384 389 287 314 362 288 307 351 386 325 365 313
          358 313 365 290 383 385 393 372 342 337 385 383
          394 351 391 310 366 300 286 288 362 277 276 390
          381 308 333 384 331 390 358 357 344 336 338 280
          373 274 395 326 396 329 302 304 369 394 360 397
          392 389 354 337 371 387 393 342 357 394 397 363
          290 287 389 370 346 398 370 399 350 291 294 327
          373 369 304 66 82 400 343 357 342 370 398 283
          343 400 335 370 283 399 377 300 366 306 299 401
          80 72 386 278 368 279 336 401 371 301 378 387
          82 335 400 273 272 367 328 294 402 290 389 383
          301 371 401 301 401 299 334 317 403 291 315 298
          303 404 304 347 368 278 377 403 378 336 279 405
          349 273 367 388 346 375 291 327 315 406 308 381
          370 375 346 296 391 359 382 333 374 384 407 354
          388 405 279 324 378 403 281 340 372 392 383 389
          396 321 329 314 298 315 306 401 379 289 376 353
          296 309 408 336 405 401 355 407 295 333 386 374
          66 400 319 296 408 391 285 348 399 284 398 345
          303 367 272 388 279 368 358 380 409 332 321 396
          373 404 272 322 408 309 361 339 313 341 320 410
          343 342 410 303 272 404 384 390 276 318 397 339
          402 294 293 373 395 380 285 399 283 284 283 398
          281 372 274 384 276 407 289 280 376 47 103 356
          311 339 397 406 293 308 322 364 312 296 359 297
          295 407 276 334 403 323 406 402 293 394 391 408
          373 304 404 355 354 407 322 360 408 393 395 274
          348 350 399 345 398 346 370 305 375 307 359 391
          341 410 342 394 352 351 343 410 319 324 387 378
          307 386 333 292 308 293 69 382 374 320 319 410
          392 280 338 324 403 317 343 319 400 394 363 352
          392 376 280 393 274 372 393 357 409 377 364 323
          358 409 357 388 375 379 292 297 359 72 374 386
          318 363 397 394 408 360 325 312 364 401 405 379
          324 385 387 377 323 403 388 379 405 392 338 383
          380 395 409 393 409 395 337 387 385 311 397 360
          411 412 413 411 414 412 415 416 417 417 416 414
          418 419 413 413 419 420 421 422 423 191 417 192
          424 425 426 411 413 420 427 418 413 411 428 417
          427 426 429 427 413 412 425 429 426 192 417 428
          430 431 432 430 433 431 136 434 435 136 435 137
          415 423 416 415 436 423 437 423 438 427 439 426
          411 417 414 437 440 423 421 423 436 422 438 423
          415 417 441 191 441 417 424 426 442 426 443 442
          411 444 428 427 429 445 427 445 418 411 420 444
          444 446 428 445 429 447 437 442 443 448 445 449
          450 444 451 452 447 453 187 257 446 454 414 416
          419 451 420 419 418 448 427 412 439 452 449 447
          187 446 450 454 412 414 422 432 438 433 424 442
          434 421 436 137 441 191 454 443 439 454 440 443
          192 428 257 425 453 429 423 440 416 448 418 445
          451 444 420 432 431 438 433 442 431 434 436 435
          137 435 441 449 445 447 450 446 444 454 416 440
          257 428 446 453 447 429 437 438 431 415 435 436
          437 431 442 415 441 435 454 439 412 437 443 440
          426 439 443 455 456 457 456 458 457 459 460 461
          460 462 461 463 464 458 464 461 458 465 466 462
          466 457 462 467 464 468 469 470 460 471 472 466
          424 456 425 430 473 474 475 476 477 430 474 433
          475 478 476 452 479 480 452 453 479 481 482 483
          481 484 482 467 485 464 469 460 486 459 464 485
          459 486 460 455 466 487 455 488 456 468 464 489
          470 490 460 472 487 466 425 456 488 463 489 464
          465 460 490 463 456 491 465 492 466 471 466 492
          424 491 456 459 461 464 455 457 466 493 461 462
          465 462 460 493 457 458 463 458 456 493 458 461
          493 462 457 478 471 492 433 491 424 468 489 473
          470 477 490 472 480 487 425 488 453 483 485 467
          484 469 486 473 489 474 477 476 490 478 492 476
          433 474 491 483 482 485 484 486 482 480 479 487
          453 488 479 455 487 479 455 479 488 459 485 482
          459 482 486 463 474 489 465 490 476 463 491 474
          465 476 492 494 495 496 494 496 497 498 499 500
          499 497 500 501 502 495 495 502 503 504 505 506
          330 332 499 471 507 472 508 495 503 494 501 495
          508 509 507 494 499 510 508 496 495 472 507 509
          332 510 499 475 511 512 475 512 478 275 513 514
          275 277 513 498 500 505 498 505 515 516 517 505
          494 497 499 508 507 518 516 505 519 504 515 505
          506 505 517 498 520 499 330 499 520 471 521 507
          507 521 522 508 523 509 494 510 524 494 524 501
          508 503 523 523 525 509 524 510 526 516 522 521
          527 528 523 529 530 524 452 480 525 326 526 396
          531 500 497 502 527 503 502 501 530 508 518 496
          452 525 528 326 529 526 531 497 496 506 517 511
          478 521 471 514 515 504 277 330 520 531 518 522
          531 522 519 332 396 510 472 509 480 505 500 519
          527 523 503 530 501 524 511 517 512 478 512 521
          514 513 515 277 520 513 528 525 523 529 524 526
          531 519 500 396 526 510 480 509 525 516 512 517
          498 515 513 516 521 512 498 513 520 531 496 518
          516 519 522 507 522 518 532 533 534 532 535 533
          267 536 537 406 538 539 267 537 242 406 381 538
          69 243 540 69 540 382 541 537 542 541 543 538
          541 542 533 541 533 543 541 544 537 541 538 545
          541 540 544 541 545 540 242 544 243 381 382 545
          536 534 542 539 543 535 534 533 542 535 543 533
          536 542 537 539 538 543 243 544 540 382 540 545
          242 537 544 381 545 538 267 263 546 267 546 536
          532 534 547 532 547 548 187 549 188 187 450 549
          419 550 451 419 551 550 552 546 553 552 554 546
          552 553 549 552 547 554 552 549 555 552 555 550
          552 550 556 552 556 547 551 548 556 450 451 555
          536 554 534 188 553 263 536 546 554 450 555 549
          263 553 546 548 547 556 451 550 555 534 554 547
          551 556 550 188 549 553 406 557 402 406 539 557
          532 558 559 532 559 535 326 328 560 326 560 529
          502 530 561 502 561 562 563 564 557 563 557 565
          563 560 564 563 565 559 563 559 566 563 567 560
          563 566 561 563 561 567 529 567 530 562 566 558
          539 535 565 328 402 564 539 565 557 529 560 567
          558 566 559 402 557 564 530 567 561 535 559 565
          328 564 560 562 561 566 452 568 449 452 528 568
          502 569 527 532 570 558 532 548 570 419 448 571
          502 562 569 419 571 551 572 573 569 572 568 573
          572 571 574 572 574 568 572 575 571 572 569 576
          572 570 575 572 576 570 562 558 576 448 449 574
          551 575 548 527 573 528 528 573 568 449 568 574
          527 569 573 562 576 569 551 571 575 448 574 571
          548 575 570 558 570 576
        </DataArray>
        <DataArray type="Int32" Name="offsets" NumberOfComponents="1" format="ascii">
          3 6 9 12 15 18 21 24 27 30 33 36
          39 42 45 48 51 54 57 60 63 66 69 72
          75 78 81 84 87 90 93 96 99 102 105 108
          111 114 117 120 123 126 129 132 135 138 141 144
          147 150 153 156 159 162 165 168 171 174 177 180
          183 186 189 192 195 198 201 204 207 210 213 216
          219 222 225 228 231 234 237 240 243 246 249 252
          255 258 261 264 267 270 273 276 279 282 285 288
          291 294 297 300 303 306 309 312 315 318 321 324
          327 330 333 336 339 342 345 348 351 354 357 360
          363 366 369 372 375 378 381 384 387 390 393 396
          399 402 405 408 411 414 417 420 423 426 429 432
          435 438 441 444 447 450 453 456 459 462 465 468
          471 474 477 480 483 486 489 492 495 498 501 504
          507 510 513 516 519 522 525 528 531 534 537 540
          543 546 549 552 555 558 561 564 567 570 573 576
          579 582 585 588 591 594 597 600 603 606 609 612
          615 618 621 624 627 630 633 636 639 642 645 648
          651 654 657 660 663 666 669 672 675 678 681 684
          687 690 693 696 699 702 705 708 711 714 717 720
          723 726 729 732 735 738 741 744 747 750 753 756
          759 762 765 768 771 774 777 780 783 786 789 792
          795 798 801 804 807 810 813 816 819 822 825 828
          831 834 837 840 843 846 849 852 855 858 861 864
          867 870 873 876 879 882 885 888 891 894 897 900
          903 906 909 912 915 918 921 924 927 930 933 936
          939 942 945 948 951 954 957 960 963 966 969 972
          975 978 981 984 987 990 993 996 999 1002 1005 1008
          1011 1014 1017 1020 1023 1026 1029 1032 1035 1038 1041 1044
          1047 1050 1053 1056 1059 1062 1065 1068 1071 1074 1077 1080
          1083 1086 1089 1092 1095 1098 1101 1104 1107 1110 1113 1116
          1119 1122 1125 1128 1131 1134 1137 1140 1143 1146 1149 1152
          1155 1158 1161 1164 1167 1170 1173 1176 1179 1182 1185 1188
          1191 1194 1197 1200 1203 1206 1209 1212 1215 1218 1221 1224
          1227 1230 1233 1236 1239 1242 1245 1248 1251 1254 1257 1260
          1263 1266 1269 1272 1275 1278 1281 1284 1287 1290 1293 1296
          1299 1302 1305 1308 1311 1314 1317 1320 1323 1326 1329 1332
          1335 1338 1341 1344 1347 1350 1353 1356 1359 1362 1365 1368
          1371 1374 1377 1380 1383 1386 1389 1392 1395 1398 1401 1404
          1407 1410 1413 1416 1419 1422 1425 1428 1431 1434 1437 1440
          1443 1446 1449 1452 1455 1458 1461 1464 1467 1470 1473 1476
          1479 1482 1485 1488 1491 1494 1497 1500 1503 1506 1509 1512
          1515 1518 1521 1524 1527 1530 1533 1536 1539 1542 1545 1548
          1551 1554 1557 1560 1563 1566 1569 1572 1575 1578 1581 1584
          1587 1590 1593 1596 1599 1602 1605 1608 1611 1614 1617 1620
          1623 1626 1629 1632 1635 1638 1641 1644 1647 1650 1653 1656
          1659 1662 1665 1668 1671 1674 1677 1680 1683 1686 1689 1692
          1695 1698 1701 1704 1707 1710 1713 1716 1719 1722 1725 1728
          1731 1734 1737 1740 1743 1746 1749 1752 1755 1758 1761 1764
          1767 1770 1773 1776 1779 1782 1785 1788 1791 1794 1797 1800
          1803 1806 1809 1812 1815 1818 1821 1824 1827 1830 1833 1836
          1839 1842 1845 1848 1851 1854 1857 1860 1863 1866 1869 1872
          1875 1878 1881 1884 1887 1890 1893 1896 1899 1902 1905 1908
          1911 1914 1917 1920 1923 1926 1929 1932 1935 1938 1941 1944
          1947 1950 1953 1956 1959 1962 1965 1968 1971 1974 1977 1980
          1983 1986 1989 1992 1995 1998 2001 2004 2007 2010 2013 2016
          2019 2022 2025 2028 2031 2034 2037 2040 2043 2046 2049 2052
          2055 2058 2061 2064 2067 2070 2073 2076 2079 2082 2085 2088
          2091 2094 2097 2100 2103 2106 2109 2112 2115 2118 2121 2124
          2127 2130 2133 2136 2139 2142 2145 2148 2151 2154 2157 2160
          2163 2166 2169 2172 2175 2178 2181 2184 2187 2190 2193 2196
          2199 2202 2205 2208 2211 2214 2217 2220 2223 2226 2229 2232
          2235 2238 2241 2244 2247 2250 2253 2256 2259 2262 2265 2268
          2271 2274 2277 2280 2283 2286 2289 2292 2295 2298 2301 2304
          2307 2310 2313 2316 2319 2322 2325 2328 2331 2334 2337 2340
          2343 2346 2349 2352 2355 2358 2361 2364 2367 2370 2373 2376
          2379 2382 2385 2388 2391 2394 2397 2400 2403 2406 2409 2412
          2415 2418 2421 2424 2427 2430 2433 2436 2439 2442 2445 2448
          2451 2454 2457 2460 2463 2466 2469 2472 2475 2478 2481 2484
          2487 2490 2493 2496 2499 2502 2505 2508 2511 2514 2517 2520
          2523 2526 2529 2532 2535 2538 2541 2544 2547 2550 2553 2556
          2559 2562 2565 2568 2571 2574 2577 2580 2583 2586 2589 2592
          2595 2598 2601 2604 2607 2610 2613 2616 2619 2622 2625 2628
          2631 2634 2637 2640 2643 2646 2649 2652 2655 2658 2661 2664
          2667 2670 2673 2676 2679 2682 2685 2688 2691 2694 2697 2700
          2703 2706 2709 2712 2715 2718 2721 2724 2727 2730 2733 2736
          2739 2742 2745 2748 2751 2754 2757 2760 2763 2766 2769 2772
          2775 2778 2781 2784 2787 2790 2793 2796 2799 2802 2805 2808
          2811 2814 2817 2820 2823 2826 2829 2832 2835 2838 2841 2844
          2847 2850 2853 2856 2859 2862 2865 2868 2871 2874 2877 2880
          2883 2886 2889 2892 2895 2898 2901 2904 2907 2910 2913 2916
          2919 2922 2925 2928 2931 2934 2937 2940 2943 2946 2949 2952
          2955 2958 2961 2964 2967 2970 2973 2976 2979 2982 2985 2988
          2991 2994 2997 3000 3003 3006 3009 3012 3015 3018 3021 3024
          3027 3030 3033 3036 3039 3042 3045 3048 3051 3054 3057 3060
          3063 3066 3069 3072 3075 3078 3081 3084 3087 3090 3093 3096
          3099 3102 3105 3108 3111 3114 3117 3120 3123 3126 3129 3132
          3135 3138 3141 3144 3147 3150 3153 3156 3159 3162 3165 3168
          3171 3174 3177 3180 3183 3186 3189 3192 3195 3198 3201 3204
          3207 3210 3213 3216 3219 3222 3225 3228 3231 3234
        </DataArray>
        <DataArray type="UInt8" Name="types" NumberOfComponents="1" format="ascii">
          5 5 5 5 5 5 5 5 5 5 5 5
          5 5 5 5 5 5 5 5 5 5 5 5
          5 5 5 5 5 5 5 5 5 5 5 5
          5 5 5 5 5 5 5 5 5 5 5 5
          5 5 5 5 5 5 5 5 5 5 5 5
          5 5 5 5 5 5 5 5 5 5 5 5
          5 5 5 5 5 5 5 5 5 5 5 5
          5 5 5 5 5 5 5 5 5 5 5 5
          5 5 5 5 5 5 5 5 5 5 5 5
          5 5 5 5 5 5 5 5 5 5 5 5
          5 5 5 5 5 5 5 5 5 5 5 5
          5 5 5 5 5 5 5 5 5 5 5 5
          5 5 5 5 5 5 5 5 5 5 5 5
          5 5 5 5 5 5 5 5 5 5 5 5
          5 5 5 5 5 5 5 5 5 5 5 5
          5 5 5 5 5 5 5 5 5 5 5 5
          5 5 5 5 5 5 5 5 5 5 5 5
          5 5 5 5 5 5 5 5 5 5 5 5
          5 5 5 5 5 5 5 5 5 5 5 5
          5 5 5 5 5 5 5 5 5 5 5 5
          5 5 5 5 5 5 5 5 5 5 5 5
          5 5 5 5 5 5 5 5 5 5 5 5
          5 5 5 5 5 5 5 5 5 5 5 5
          5 5 5 5 5 5 5 5 5 5 5 5
          5 5 5 5 5 5 5 5 5 5 5 5
          5 5 5 5 5 5 5 5 5 5 5 5
          5 5 5 5 5 5 5 5 5 5 5 5
          5 5 5 5 5 5 5 5 5 5 5 5
          5 5 5 5 5 5 5 5 5 5 5 5
          5 5 5 5 5 5 5 5 5 5 5 5
          5 5 5 5 5 5 5 5 5 5 5 5
          5 5 5 5 5 5 5 5 5 5 5 5
          5 5 5 5 5 5 5 5 5 5 5 5
          5 5 5 5 5 5 5 5 5 5 5 5
          5 5 5 5 5 5 5 5 5 5 5 5
          5 5 5 5 5 5 5 5 5 5 5 5
          5 5 5 5 5 5 5 5 5 5 5 5
          5 5 5 5 5 5 5 5 5 5 5 5
          5 5 5 5 5 5 5 5 5 5 5 5
          5 5 5 5 5 5 5 5 5 5 5 5
          5 5 5 5 5 5 5 5 5 5 5 5
          5 5 5 5 5 5 5 5 5 5 5 5
          5 5 5 5 5 5 5 5 5 5 5 5
          5 5 5 5 5 5 5 5 5 5 5 5
          5 5 5 5 5 5 5 5 5 5 5 5
          5 5 5 5 5 5 5 5 5 5 5 5
          5 5 5 5 5 5 5 5 5 5 5 5
          5 5 5 5 5 5 5 5 5 5 5 5
          5 5 5 5 5 5 5 5 5 5 5 5
          5 5 5 5 5 5 5 5 5 5 5 5
          5 5 5 5 5 5 5 5 5 5 5 5
          5 5 5 5 5 5 5 5 5 5 5 5
          5 5 5 5 5 5 5 5 5 5 5 5
          5 5 5 5 5 5 5 5 5 5 5 5
          5 5 5 5 5 5 5 5 5 5 5 5
          5 5 5 5 5 5 5 5 5 5 5 5
          5 5 5 5 5 5 5 5 5 5 5 5
          5 5 5 5 5 5 5 5 5 5 5 5
          5 5 5 5 5 5 5 5 5 5 5 5
          5 5 5 5 5 5 5 5 5 5 5 5
          5 5 5 5 5 5 5 5 5 5 5 5
          5 5 5 5 5 5 5 5 5 5 5 5
          5 5 5 5 5 5 5 5 5 5 5 5
          5 5 5 5 5 5 5 5 5 5 5 5
          5 5 5 5 5 5 5 5 5 5 5 5
          5 5 5 5 5 5 5 5 5 5 5 5
          5 5 5 5 5 5 5 5 5 5 5 5
          5 5 5 5 5 5 5 5 5 5 5 5
          5 5 5 5 5 5 5 5 5 5 5 5
          5 5 5 5 5 5 5 5 5 5 5 5
          5 5 5 5 5 5 5 5 5 5 5 5
          5 5 5 5 5 5 5 5 5 5 5 5
          5 5 5 5 5 5 5 5 5 5 5 5
          5 5 5 5 5 5 5 5 5 5 5 5
          5 5 5 5 5 5 5 5 5 5 5 5
          5 5 5 5 5 5 5 5 5 5 5 5
          5 5 5 5 5 5 5 5 5 5 5 5
          5 5 5 5 5 5 5 5 5 5 5 5
          5 5 5 5 5 5 5 5 5 5 5 5
          5 5 5 5 5 5 5 5 5 5 5 5
          5 5 5 5 5 5 5 5 5 5 5 5
          5 5 5 5 5 5 5 5 5 5 5 5
          5 5 5 5 5 5 5 5 5 5 5 5
          5 5 5 5 5 5 5 5 5 5 5 5
          5 5 5 5 5 5 5 5 5 5 5 5
          5 5 5 5 5 5 5 5 5 5 5 5
          5 5 5 5 5 5 5 5 5 5 5 5
          5 5 5 5 5 5 5 5 5 5 5 5
          5 5 5 5 5 5 5 5 5 5 5 5
          5 5 5 5 5 5 5 5 5 5
        </DataArray>
      </Cells>
    </Piece>
  </UnstructuredGrid>
</VTKFile>
